# Wavefront OBJ exported by WoW Model Viewer v0.7.0.5

mtllib darkironkeg01.mtl

v -0.069250 1.908879 -1.487895
v 0.576933 1.797070 -1.452099
v 0.466732 1.686869 -1.487895
v 0.001380 0.687562 0.976401
v 0.030611 0.758132 0.976401
v -0.069189 0.758097 0.976401
v -0.069189 0.658332 0.976401
v 0.001380 0.687562 0.976401
v -0.069189 0.758097 0.976401
v -0.139759 0.687562 0.976401
v -0.069189 0.658332 0.976401
v -0.069189 0.758097 0.976401
v -0.168989 0.758132 0.976402
v -0.139759 0.687562 0.976401
v -0.069189 0.758097 0.976401
v -0.139759 0.828701 0.976402
v -0.168989 0.758132 0.976402
v -0.069189 0.758097 0.976401
v 0.030611 0.758132 0.976401
v 0.001380 0.828701 0.976402
v -0.069189 0.758097 0.976401
v 0.001380 0.828701 0.976402
v -0.069189 0.857932 0.976402
v -0.069189 0.758097 0.976401
v -0.069189 0.857932 0.976402
v -0.139759 0.828701 0.976402
v -0.069189 0.758097 0.976401
v 0.659649 1.145232 0.970174
v 0.446177 1.660598 0.970157
v 0.431668 1.651802 0.765521
v 0.431668 1.651802 0.765521
v 0.639154 1.150886 0.765521
v 0.659649 1.145232 0.970174
v 0.446177 0.629866 0.970157
v 0.659649 1.145232 0.970174
v 0.639154 1.150886 0.765521
v 0.639154 1.150886 0.765521
v 0.431668 0.649969 0.765521
v 0.446177 0.629866 0.970157
v -0.069189 0.416394 0.970157
v 0.446177 0.629866 0.970157
v 0.431668 0.649969 0.765521
v 0.431668 0.649969 0.765521
v -0.069249 0.442482 0.765521
v -0.069189 0.416394 0.970157
v -0.584555 0.629866 0.970157
v -0.069189 0.416394 0.970157
v -0.069249 0.442482 0.765521
v -0.069249 0.442482 0.765521
v -0.570166 0.649969 0.765521
v -0.584555 0.629866 0.970157
v -0.798027 1.145232 0.970157
v -0.584555 0.629866 0.970157
v -0.570166 0.649969 0.765521
v -0.570166 0.649969 0.765521
v -0.777653 1.150886 0.765521
v -0.798027 1.145232 0.970157
v -0.584556 1.660599 0.970157
v -0.798027 1.145232 0.970157
v -0.777653 1.150886 0.765521
v -0.777653 1.150886 0.765521
v -0.570166 1.651803 0.765521
v -0.584556 1.660599 0.970157
v -0.069189 1.874070 0.970157
v -0.584556 1.660599 0.970157
v -0.570166 1.651803 0.765521
v -0.570166 1.651803 0.765521
v -0.069249 1.859289 0.765521
v -0.069189 1.874070 0.970157
v 0.446177 1.660598 0.970157
v -0.069189 1.874070 0.970157
v -0.069249 1.859289 0.765521
v -0.069249 1.859289 0.765521
v 0.431668 1.651802 0.765521
v 0.446177 1.660598 0.970157
v 0.990410 1.557056 -0.986349
v 0.882479 1.325031 -1.092909
v 0.691115 1.849407 -1.049258
v 0.691115 1.879743 -0.493999
v 0.841331 1.838507 -0.549770
v 0.841331 1.838507 -0.986349
v 0.841331 1.838507 -0.549770
v 0.691115 1.879743 -0.493999
v 0.938522 1.300497 -0.493999
v 0.882479 1.325031 -1.092909
v 0.938522 1.300497 -0.493999
v 0.691115 1.879743 -0.493999
v 0.990410 1.557056 -0.549770
v 0.938522 1.300497 -0.493999
v 0.882479 1.325031 -1.092909
v 0.882479 1.325031 -1.092909
v 0.990410 1.557056 -0.986349
v 0.990410 1.557056 -0.549770
v 0.938522 1.300497 -0.493999
v 0.990410 1.557056 -0.549770
v 0.841331 1.838507 -0.549770
v 0.841331 1.838507 -0.549770
v 0.990410 1.557056 -0.549770
v 0.990410 1.557056 -0.986349
v 0.990410 1.557056 -0.986349
v 0.841331 1.838507 -0.986349
v 0.841331 1.838507 -0.549770
v 0.691115 1.849407 -1.049258
v 0.841331 1.838507 -0.986349
v 0.990410 1.557056 -0.986349
v 0.841331 1.838507 -0.986349
v 0.691115 1.849407 -1.049258
v 0.691115 1.879743 -0.493999
v 0.691115 1.879743 -0.493999
v 0.691115 1.849407 -1.049258
v 0.882479 1.325031 -1.092909
v 0.639154 1.150886 0.765521
v 0.431668 1.651802 0.765521
v -0.069249 1.150639 0.796252
v 0.431668 0.649969 0.765521
v 0.639154 1.150886 0.765521
v -0.069249 1.150639 0.796252
v -0.069249 0.442482 0.765521
v 0.431668 0.649969 0.765521
v -0.069249 1.150639 0.796252
v -0.570166 0.649969 0.765521
v -0.069249 0.442482 0.765521
v -0.069249 1.150639 0.796252
v -0.777653 1.150886 0.765521
v -0.570166 0.649969 0.765521
v -0.069249 1.150639 0.796252
v 0.431668 1.651802 0.765521
v -0.069249 1.859289 0.765521
v -0.069249 1.150639 0.796252
v -0.069249 1.859289 0.765521
v -0.570166 1.651803 0.765521
v -0.069249 1.150639 0.796252
v -0.570166 1.651803 0.765521
v -0.777653 1.150886 0.765521
v -0.069249 1.150639 0.796252
v 0.431667 0.649969 -1.283260
v -0.069250 1.150639 -1.313991
v 0.639154 1.150886 -1.283259
v -0.069249 0.442482 -1.283260
v -0.069250 1.150639 -1.313991
v 0.431667 0.649969 -1.283260
v -0.599855 0.605978 -1.283259
v -0.069250 1.150639 -1.313991
v -0.069249 0.442482 -1.283260
v -0.777653 1.150886 -1.283259
v -0.069250 1.150639 -1.313991
v -0.599855 0.605978 -1.283259
v -0.570166 1.651803 -1.283260
v -0.069250 1.150639 -1.313991
v -0.777653 1.150886 -1.283259
v -0.069250 1.859289 -1.283260
v -0.069250 1.150639 -1.313991
v -0.570166 1.651803 -1.283260
v 0.431667 1.651803 -1.283260
v -0.069250 1.150639 -1.313991
v -0.069250 1.859289 -1.283260
v 0.639154 1.150886 -1.283259
v -0.069250 1.150639 -1.313991
v 0.431667 1.651803 -1.283260
v 0.882479 1.409807 0.541520
v 0.990410 1.557056 0.485749
v 0.691115 1.849407 0.541520
v 0.841331 1.838507 0.049170
v 0.691115 1.849407 -0.006601
v 0.841331 1.838507 0.485749
v 0.691115 1.849407 -0.006601
v 0.841331 1.838507 0.049170
v 0.923963 1.300497 -0.006601
v 0.923963 1.300497 -0.006601
v 0.882479 1.409807 0.541520
v 0.691115 1.849407 -0.006601
v 0.923963 1.300497 -0.006601
v 0.990410 1.557056 0.049170
v 0.882479 1.409807 0.541520
v 0.990410 1.557056 0.485749
v 0.882479 1.409807 0.541520
v 0.990410 1.557056 0.049170
v 0.990410 1.557056 0.049170
v 0.923963 1.300497 -0.006601
v 0.841331 1.838507 0.049170
v 0.990410 1.557056 0.049170
v 0.841331 1.838507 0.049170
v 0.990410 1.557056 0.485749
v 0.841331 1.838507 0.485749
v 0.990410 1.557056 0.485749
v 0.841331 1.838507 0.049170
v 0.841331 1.838507 0.485749
v 0.691115 1.849407 0.541520
v 0.990410 1.557056 0.485749
v 0.691115 1.849407 0.541520
v 0.841331 1.838507 0.485749
v 0.691115 1.849407 -0.006601
v 0.691115 1.849407 0.541520
v 0.691115 1.849407 -0.006601
v 0.882479 1.409807 0.541520
v -1.018207 1.325032 -1.092909
v -1.126138 1.557056 -0.986349
v -0.826843 1.849408 -1.049258
v -0.977059 1.838508 -0.549770
v -0.826843 1.879744 -0.493999
v -0.977059 1.838508 -0.986349
v -0.826843 1.879744 -0.493999
v -0.977059 1.838508 -0.549770
v -1.074250 1.300497 -0.493999
v -1.074250 1.300497 -0.493999
v -1.018207 1.325032 -1.092909
v -0.826843 1.879744 -0.493999
v -1.074250 1.300497 -0.493999
v -1.126138 1.557056 -0.549770
v -1.018207 1.325032 -1.092909
v -1.126138 1.557056 -0.986349
v -1.018207 1.325032 -1.092909
v -1.126138 1.557056 -0.549770
v -1.126138 1.557056 -0.549770
v -1.074250 1.300497 -0.493999
v -0.977059 1.838508 -0.549770
v -1.126138 1.557056 -0.549770
v -0.977059 1.838508 -0.549770
v -1.126138 1.557056 -0.986349
v -0.977059 1.838508 -0.986349
v -1.126138 1.557056 -0.986349
v -0.977059 1.838508 -0.549770
v -0.977059 1.838508 -0.986349
v -0.826843 1.849408 -1.049258
v -1.126138 1.557056 -0.986349
v -0.826843 1.849408 -1.049258
v -0.977059 1.838508 -0.986349
v -0.826843 1.879744 -0.493999
v -0.826843 1.849408 -1.049258
v -0.826843 1.879744 -0.493999
v -1.018207 1.325032 -1.092909
v -1.018207 1.409807 0.541520
v -1.059691 1.300497 -0.006601
v -0.826843 1.849408 -0.006601
v -0.826843 1.849408 -0.006601
v -0.826843 1.849408 0.541520
v -1.018207 1.409807 0.541520
v -0.977059 1.838508 0.485749
v -0.826843 1.849408 0.541520
v -0.826843 1.849408 -0.006601
v -0.826843 1.849408 0.541520
v -0.977059 1.838508 0.485749
v -1.126138 1.557056 0.485749
v -1.126138 1.557056 0.485749
v -0.977059 1.838508 0.485749
v -0.977059 1.838508 0.049170
v -0.977059 1.838508 0.049170
v -1.126138 1.557056 0.049170
v -1.126138 1.557056 0.485749
v -0.826843 1.849408 -0.006601
v -0.977059 1.838508 0.049170
v -0.977059 1.838508 0.485749
v -0.977059 1.838508 0.049170
v -0.826843 1.849408 -0.006601
v -1.059691 1.300497 -0.006601
v -1.059691 1.300497 -0.006601
v -1.126138 1.557056 0.049170
v -0.977059 1.838508 0.049170
v -1.126138 1.557056 0.049170
v -1.059691 1.300497 -0.006601
v -1.018207 1.409807 0.541520
v -1.018207 1.409807 0.541520
v -1.126138 1.557056 0.485749
v -1.126138 1.557056 0.049170
v -1.126138 1.557056 0.485749
v -1.018207 1.409807 0.541520
v -0.826843 1.849408 0.541520
v -0.139759 0.687562 0.976401
v -0.124020 0.693533 0.768125
v -0.069189 0.658332 0.976401
v -0.069249 0.670846 0.768125
v -0.069189 0.658332 0.976401
v -0.124020 0.693533 0.768125
v -0.069189 0.658332 0.976401
v -0.069249 0.670846 0.768125
v -0.014479 0.693533 0.768125
v -0.014479 0.693533 0.768125
v 0.001380 0.687562 0.976401
v -0.069189 0.658332 0.976401
v 0.001380 0.687562 0.976401
v -0.014479 0.693533 0.768125
v 0.030611 0.758132 0.976401
v 0.008208 0.748303 0.768125
v 0.030611 0.758132 0.976401
v -0.014479 0.693533 0.768125
v 0.030611 0.758132 0.976401
v 0.008208 0.748303 0.768125
v 0.001380 0.828701 0.976402
v -0.014479 0.803073 0.768125
v 0.001380 0.828701 0.976402
v 0.008208 0.748303 0.768125
v 0.001380 0.828701 0.976402
v -0.014479 0.803073 0.768125
v -0.069189 0.857932 0.976402
v -0.069249 0.825760 0.768125
v -0.069189 0.857932 0.976402
v -0.014479 0.803073 0.768125
v -0.069189 0.857932 0.976402
v -0.069249 0.825760 0.768125
v -0.139759 0.828701 0.976402
v -0.124020 0.803073 0.768125
v -0.139759 0.828701 0.976402
v -0.069249 0.825760 0.768125
v -0.139759 0.828701 0.976402
v -0.124020 0.803073 0.768125
v -0.168989 0.758132 0.976402
v -0.146706 0.748303 0.768125
v -0.168989 0.758132 0.976402
v -0.124020 0.803073 0.768125
v -0.168989 0.758132 0.976402
v -0.146706 0.748303 0.768125
v -0.139759 0.687562 0.976401
v -0.124020 0.693533 0.768125
v -0.139759 0.687562 0.976401
v -0.146706 0.748303 0.768125
v 0.809504 1.145232 0.934377
v 0.552140 1.766562 0.934360
v 0.446177 1.660598 0.970157
v 0.446177 1.660598 0.970157
v 0.659649 1.145232 0.970174
v 0.809504 1.145232 0.934377
v 0.589772 0.473223 0.934360
v 0.809504 1.145232 0.934377
v 0.659649 1.145232 0.970174
v 0.659649 1.145232 0.970174
v 0.446177 0.629866 0.970157
v 0.589772 0.473223 0.934360
v -0.069189 0.266540 0.934360
v 0.589772 0.473223 0.934360
v 0.446177 0.629866 0.970157
v 0.446177 0.629866 0.970157
v -0.069189 0.416394 0.970157
v -0.069189 0.266540 0.934360
v -0.690519 0.523903 0.934360
v -0.069189 0.266540 0.934360
v -0.069189 0.416394 0.970157
v -0.069189 0.416394 0.970157
v -0.584555 0.629866 0.970157
v -0.690519 0.523903 0.934360
v -0.947882 1.145232 0.934360
v -0.690519 0.523903 0.934360
v -0.584555 0.629866 0.970157
v -0.584555 0.629866 0.970157
v -0.798027 1.145232 0.970157
v -0.947882 1.145232 0.934360
v -0.690519 1.766562 0.934360
v -0.947882 1.145232 0.934360
v -0.798027 1.145232 0.970157
v -0.798027 1.145232 0.970157
v -0.584556 1.660599 0.970157
v -0.690519 1.766562 0.934360
v -0.069189 2.023925 0.934360
v -0.690519 1.766562 0.934360
v -0.584556 1.660599 0.970157
v -0.584556 1.660599 0.970157
v -0.069189 1.874070 0.970157
v -0.069189 2.023925 0.934360
v 0.552140 1.766562 0.934360
v -0.069189 2.023925 0.934360
v -0.069189 1.874070 0.970157
v -0.069189 1.874070 0.970157
v 0.446177 1.660598 0.970157
v 0.552140 1.766562 0.934360
v -0.570166 1.651803 -1.283260
v -0.069250 1.908879 -1.487895
v -0.069250 1.859289 -1.283260
v 0.466732 1.686869 -1.487895
v -0.069250 1.859289 -1.283260
v -0.069250 1.908879 -1.487895
v -0.069250 1.859289 -1.283260
v 0.466732 1.686869 -1.487895
v 0.431667 1.651803 -1.283260
v 0.688742 1.150888 -1.487895
v 0.431667 1.651803 -1.283260
v 0.466732 1.686869 -1.487895
v 0.431667 1.651803 -1.283260
v 0.688742 1.150888 -1.487895
v 0.639154 1.150886 -1.283259
v 0.466732 0.614907 -1.487896
v 0.639154 1.150886 -1.283259
v 0.688742 1.150888 -1.487895
v 0.639154 1.150886 -1.283259
v 0.466732 0.614907 -1.487896
v 0.431667 0.649969 -1.283260
v -0.069249 0.392896 -1.487895
v 0.431667 0.649969 -1.283260
v 0.466732 0.614907 -1.487896
v 0.431667 0.649969 -1.283260
v -0.069249 0.392896 -1.487895
v -0.069249 0.442482 -1.283260
v -0.637023 0.568812 -1.487895
v -0.069249 0.442482 -1.283260
v -0.069249 0.392896 -1.487895
v -0.069249 0.442482 -1.283260
v -0.637023 0.568812 -1.487895
v -0.599855 0.605978 -1.283259
v -0.827241 1.150888 -1.487895
v -0.599855 0.605978 -1.283259
v -0.637023 0.568812 -1.487895
v -0.599855 0.605978 -1.283259
v -0.827241 1.150888 -1.487895
v -0.777653 1.150886 -1.283259
v -0.605231 1.686869 -1.487895
v -0.777653 1.150886 -1.283259
v -0.827241 1.150888 -1.487895
v -0.777653 1.150886 -1.283259
v -0.605231 1.686869 -1.487895
v -0.570166 1.651803 -1.283260
v -0.069250 1.908879 -1.487895
v -0.570166 1.651803 -1.283260
v -0.605231 1.686869 -1.487895
v -0.068883 2.241877 -0.961847
v -0.069250 2.064728 -1.452099
v -0.715432 1.797071 -1.452099
v 0.712416 1.918252 -0.961847
v -0.069250 2.064728 -1.452099
v -0.068883 2.241877 -0.961847
v 0.743668 1.949504 -0.258869
v 0.712416 1.918252 -0.961847
v -0.068883 2.241877 -0.961847
v 1.080238 1.136952 -0.258870
v 0.712416 1.918252 -0.961847
v 0.743668 1.949504 -0.258869
v 1.080238 1.136952 -0.258870
v 0.743668 1.949504 -0.258869
v 0.712416 1.918252 0.444108
v 1.080238 1.136952 -0.258870
v 0.712416 1.918252 0.444108
v 1.036041 1.136952 0.444108
v 1.036041 1.136952 0.444108
v 0.712416 1.918252 0.444108
v 0.552140 1.766562 0.934360
v 1.036041 1.136952 0.444108
v 0.552140 1.766562 0.934360
v 0.809504 1.145232 0.934377
v 0.712416 1.918252 -0.961847
v 0.576933 1.797070 -1.452099
v -0.069250 2.064728 -1.452099
v 1.036041 1.136952 -0.961847
v 0.576933 1.797070 -1.452099
v 0.712416 1.918252 -0.961847
v 1.080238 1.136952 -0.258870
v 1.036041 1.136952 -0.961847
v 0.712416 1.918252 -0.961847
v 0.743668 0.324400 -0.258870
v 1.036041 1.136952 -0.961847
v 1.080238 1.136952 -0.258870
v 0.743668 0.324400 -0.258870
v 1.080238 1.136952 -0.258870
v 1.036041 1.136952 0.444108
v 0.743668 0.324400 -0.258870
v 1.036041 1.136952 0.444108
v 0.712416 0.355652 0.444108
v 0.712416 0.355652 0.444108
v 1.036041 1.136952 0.444108
v 0.809504 1.145232 0.934377
v 0.712416 0.355652 0.444108
v 0.809504 1.145232 0.934377
v 0.589772 0.473223 0.934360
v 1.036041 1.136952 -0.961847
v 0.844591 1.150888 -1.452099
v 0.576933 1.797070 -1.452099
v 0.712416 0.355653 -0.961847
v 0.844591 1.150888 -1.452099
v 1.036041 1.136952 -0.961847
v 0.743668 0.324400 -0.258870
v 0.712416 0.355653 -0.961847
v 1.036041 1.136952 -0.961847
v -0.068883 -0.012169 -0.258870
v 0.712416 0.355653 -0.961847
v 0.743668 0.324400 -0.258870
v -0.068883 -0.012169 -0.258870
v 0.743668 0.324400 -0.258870
v 0.712416 0.355652 0.444108
v -0.068883 -0.012169 -0.258870
v 0.712416 0.355652 0.444108
v -0.068883 0.032027 0.444108
v -0.068883 0.032027 0.444108
v 0.712416 0.355652 0.444108
v 0.589772 0.473223 0.934360
v -0.068883 0.032027 0.444108
v 0.589772 0.473223 0.934360
v -0.069189 0.266540 0.934360
v 0.712416 0.355653 -0.961847
v 0.576933 0.504705 -1.452099
v 0.844591 1.150888 -1.452099
v -0.068883 0.032028 -0.961847
v 0.576933 0.504705 -1.452099
v 0.712416 0.355653 -0.961847
v -0.068883 -0.012169 -0.258870
v -0.068883 0.032028 -0.961847
v 0.712416 0.355653 -0.961847
v -0.881435 0.324401 -0.258869
v -0.068883 0.032028 -0.961847
v -0.068883 -0.012169 -0.258870
v -0.881435 0.324401 -0.258869
v -0.068883 -0.012169 -0.258870
v -0.068883 0.032027 0.444108
v -0.881435 0.324401 -0.258869
v -0.068883 0.032027 0.444108
v -0.850183 0.355652 0.444108
v -0.850183 0.355652 0.444108
v -0.068883 0.032027 0.444108
v -0.069189 0.266540 0.934360
v -0.850183 0.355652 0.444108
v -0.069189 0.266540 0.934360
v -0.690519 0.523903 0.934360
v -0.068883 0.032028 -0.961847
v -0.069250 0.237047 -1.452099
v 0.576933 0.504705 -1.452099
v -0.850183 0.355653 -0.961847
v -0.069250 0.237047 -1.452099
v -0.068883 0.032028 -0.961847
v -0.881435 0.324401 -0.258869
v -0.850183 0.355653 -0.961847
v -0.068883 0.032028 -0.961847
v -1.218005 1.136952 -0.258869
v -0.850183 0.355653 -0.961847
v -0.881435 0.324401 -0.258869
v -1.218005 1.136952 -0.258869
v -0.881435 0.324401 -0.258869
v -0.850183 0.355652 0.444108
v -1.218005 1.136952 -0.258869
v -0.850183 0.355652 0.444108
v -1.173808 1.136952 0.444109
v -1.173808 1.136952 0.444109
v -0.850183 0.355652 0.444108
v -0.690519 0.523903 0.934360
v -1.173808 1.136952 0.444109
v -0.690519 0.523903 0.934360
v -0.947882 1.145232 0.934360
v -0.850183 0.355653 -0.961847
v -0.715432 0.504705 -1.452098
v -0.069250 0.237047 -1.452099
v -1.173808 1.136952 -0.961847
v -0.715432 0.504705 -1.452098
v -0.850183 0.355653 -0.961847
v -1.218005 1.136952 -0.258869
v -1.173808 1.136952 -0.961847
v -0.850183 0.355653 -0.961847
v -0.881435 1.949504 -0.258869
v -1.173808 1.136952 -0.961847
v -1.218005 1.136952 -0.258869
v -0.881435 1.949504 -0.258869
v -1.218005 1.136952 -0.258869
v -1.173808 1.136952 0.444109
v -0.881435 1.949504 -0.258869
v -1.173808 1.136952 0.444109
v -0.850183 1.918252 0.444109
v -0.850183 1.918252 0.444109
v -1.173808 1.136952 0.444109
v -0.947882 1.145232 0.934360
v -0.850183 1.918252 0.444109
v -0.947882 1.145232 0.934360
v -0.690519 1.766562 0.934360
v -1.173808 1.136952 -0.961847
v -0.983090 1.150888 -1.452099
v -0.715432 0.504705 -1.452098
v -0.850183 1.918252 -0.961847
v -0.983090 1.150888 -1.452099
v -1.173808 1.136952 -0.961847
v -0.881435 1.949504 -0.258869
v -0.850183 1.918252 -0.961847
v -1.173808 1.136952 -0.961847
v -0.068883 2.286074 -0.258869
v -0.850183 1.918252 -0.961847
v -0.881435 1.949504 -0.258869
v -0.068883 2.286074 -0.258869
v -0.881435 1.949504 -0.258869
v -0.850183 1.918252 0.444109
v -0.068883 2.286074 -0.258869
v -0.850183 1.918252 0.444109
v -0.068883 2.241877 0.444109
v -0.068883 2.241877 0.444109
v -0.850183 1.918252 0.444109
v -0.690519 1.766562 0.934360
v -0.068883 2.241877 0.444109
v -0.690519 1.766562 0.934360
v -0.069189 2.023925 0.934360
v 0.712416 1.918252 0.444108
v -0.069189 2.023925 0.934360
v 0.552140 1.766562 0.934360
v 0.712416 1.918252 0.444108
v -0.068883 2.241877 0.444109
v -0.069189 2.023925 0.934360
v 0.743668 1.949504 -0.258869
v -0.068883 2.241877 0.444109
v 0.712416 1.918252 0.444108
v 0.743668 1.949504 -0.258869
v -0.068883 2.286074 -0.258869
v -0.068883 2.241877 0.444109
v 0.743668 1.949504 -0.258869
v -0.068883 2.241877 -0.961847
v -0.068883 2.286074 -0.258869
v -0.068883 2.286074 -0.258869
v -0.068883 2.241877 -0.961847
v -0.850183 1.918252 -0.961847
v -0.068883 2.241877 -0.961847
v -0.715432 1.797071 -1.452099
v -0.850183 1.918252 -0.961847
v -0.850183 1.918252 -0.961847
v -0.715432 1.797071 -1.452099
v -0.983090 1.150888 -1.452099
v -0.605231 1.686869 -1.487895
v -0.069250 2.064728 -1.452099
v -0.069250 1.908879 -1.487895
v 0.576933 1.797070 -1.452099
v -0.069250 1.908879 -1.487895
v -0.069250 2.064728 -1.452099
v -0.069250 2.064728 -1.452099
v -0.605231 1.686869 -1.487895
v -0.715432 1.797071 -1.452099
v -0.827241 1.150888 -1.487895
v -0.715432 1.797071 -1.452099
v -0.605231 1.686869 -1.487895
v -0.715432 1.797071 -1.452099
v -0.827241 1.150888 -1.487895
v -0.983090 1.150888 -1.452099
v -0.637023 0.568812 -1.487895
v -0.983090 1.150888 -1.452099
v -0.827241 1.150888 -1.487895
v -0.983090 1.150888 -1.452099
v -0.637023 0.568812 -1.487895
v -0.715432 0.504705 -1.452098
v -0.069249 0.392896 -1.487895
v -0.715432 0.504705 -1.452098
v -0.637023 0.568812 -1.487895
v -0.715432 0.504705 -1.452098
v -0.069249 0.392896 -1.487895
v -0.069250 0.237047 -1.452099
v 0.466732 0.614907 -1.487896
v -0.069250 0.237047 -1.452099
v -0.069249 0.392896 -1.487895
v -0.069250 0.237047 -1.452099
v 0.466732 0.614907 -1.487896
v 0.576933 0.504705 -1.452099
v 0.688742 1.150888 -1.487895
v 0.576933 0.504705 -1.452099
v 0.466732 0.614907 -1.487896
v 0.576933 0.504705 -1.452099
v 0.688742 1.150888 -1.487895
v 0.844591 1.150888 -1.452099
v 0.466732 1.686869 -1.487895
v 0.844591 1.150888 -1.452099
v 0.688742 1.150888 -1.487895
v 0.844591 1.150888 -1.452099
v 0.466732 1.686869 -1.487895
v 0.576933 1.797070 -1.452099
# 648 vertices

vt 0.443183 0.980676
vt 0.499569 0.500000
vt 0.443183 0.500000
vt 0.148267 0.265075
vt 0.141806 0.296834
vt 0.165727 0.294375
vt 0.168090 0.250455
vt 0.148267 0.265075
vt 0.165727 0.294375
vt 0.186897 0.279801
vt 0.168090 0.250455
vt 0.165727 0.294375
vt 0.192216 0.308934
vt 0.186897 0.279801
vt 0.165727 0.294375
vt 0.186806 0.279599
vt 0.192216 0.308934
vt 0.165727 0.294375
vt 0.141806 0.296834
vt 0.148390 0.266068
vt 0.165727 0.294375
vt 0.148390 0.266068
vt 0.167895 0.250658
vt 0.165727 0.294375
vt 0.167895 0.250658
vt 0.186806 0.279599
vt 0.165727 0.294375
vt 0.068599 0.002909
vt 0.068599 0.500000
vt 0.018841 0.500000
vt 0.018841 0.500000
vt 0.018841 0.002909
vt 0.068599 0.002909
vt 0.068599 0.309356
vt 0.068599 0.002909
vt 0.018841 0.002909
vt 0.018841 0.002909
vt 0.018841 0.309356
vt 0.068599 0.309356
vt 0.068599 0.625821
vt 0.068599 0.309356
vt 0.018841 0.309356
vt 0.018841 0.309356
vt 0.018841 0.625821
vt 0.068599 0.625821
vt 0.068599 0.309356
vt 0.068599 0.625821
vt 0.018841 0.625821
vt 0.018841 0.625821
vt 0.018841 0.309356
vt 0.068599 0.309356
vt 0.068599 0.002909
vt 0.068599 0.309356
vt 0.018841 0.309356
vt 0.018841 0.309356
vt 0.018841 0.002909
vt 0.068599 0.002909
vt 0.068599 0.500000
vt 0.068599 0.002909
vt 0.018841 0.002909
vt 0.018841 0.002909
vt 0.018841 0.500000
vt 0.068599 0.500000
vt 0.068599 0.980676
vt 0.068599 0.500000
vt 0.018841 0.500000
vt 0.018841 0.500000
vt 0.018841 0.980676
vt 0.068599 0.980676
vt 0.068599 0.500000
vt 0.068599 0.980676
vt 0.018841 0.980676
vt 0.018841 0.980676
vt 0.018841 0.500000
vt 0.068599 0.500000
vt 0.119981 0.233453
vt 0.106539 0.180322
vt 0.106539 0.452621
vt 0.279591 0.452621
vt 0.246968 0.399489
vt 0.119981 0.399489
vt 0.246968 0.399489
vt 0.279591 0.452621
vt 0.279591 0.180322
vt 0.106539 0.180322
vt 0.279591 0.180322
vt 0.279591 0.452621
vt 0.246968 0.233453
vt 0.279591 0.180322
vt 0.106539 0.180322
vt 0.106539 0.180322
vt 0.119981 0.233453
vt 0.246968 0.233453
vt 0.279591 0.180322
vt 0.246968 0.233453
vt 0.246968 0.399489
vt 0.246968 0.399489
vt 0.246968 0.233453
vt 0.119981 0.233453
vt 0.119981 0.233453
vt 0.119981 0.399489
vt 0.246968 0.399489
vt 0.106539 0.452621
vt 0.119981 0.399489
vt 0.119981 0.233453
vt 0.119981 0.399489
vt 0.106539 0.452621
vt 0.279591 0.452621
vt 0.279591 0.452621
vt 0.106539 0.452621
vt 0.106539 0.180322
vt 0.994813 0.500000
vt 0.923083 0.853200
vt 0.749910 0.499826
vt 0.923083 0.146800
vt 0.994813 0.500000
vt 0.749910 0.499826
vt 0.749910 0.000499
vt 0.923083 0.146800
vt 0.749910 0.499826
vt 0.576736 0.146800
vt 0.749910 0.000499
vt 0.749910 0.499826
vt 0.505006 0.500000
vt 0.576736 0.146800
vt 0.749910 0.499826
vt 0.923083 0.853200
vt 0.749910 0.999500
vt 0.749910 0.499826
vt 0.749910 0.999500
vt 0.576737 0.853200
vt 0.749910 0.499826
vt 0.576737 0.853200
vt 0.505006 0.500000
vt 0.749910 0.499826
vt 0.576737 0.146800
vt 0.749910 0.499826
vt 0.505006 0.500000
vt 0.749910 0.000500
vt 0.749910 0.499826
vt 0.576737 0.146800
vt 0.923083 0.146800
vt 0.749910 0.499826
vt 0.749910 0.000500
vt 0.994813 0.500000
vt 0.749910 0.499826
vt 0.923083 0.146800
vt 0.923083 0.853200
vt 0.749910 0.499826
vt 0.994813 0.500000
vt 0.749910 0.999501
vt 0.749910 0.499826
vt 0.923083 0.853200
vt 0.576736 0.853200
vt 0.749910 0.499826
vt 0.749910 0.999501
vt 0.505006 0.500000
vt 0.749910 0.499826
vt 0.576736 0.853200
vt 0.106539 0.180322
vt 0.119981 0.233453
vt 0.106539 0.452621
vt 0.246968 0.399489
vt 0.279591 0.452621
vt 0.119981 0.399489
vt 0.279591 0.452621
vt 0.246968 0.399489
vt 0.279591 0.180322
vt 0.279591 0.180322
vt 0.106539 0.180322
vt 0.279591 0.452621
vt 0.279591 0.180322
vt 0.246968 0.233453
vt 0.106539 0.180322
vt 0.119981 0.233453
vt 0.106539 0.180322
vt 0.246968 0.233453
vt 0.246968 0.233453
vt 0.279591 0.180322
vt 0.246968 0.399489
vt 0.246968 0.233453
vt 0.246968 0.399489
vt 0.119981 0.233453
vt 0.119981 0.399489
vt 0.119981 0.233453
vt 0.246968 0.399489
vt 0.119981 0.399489
vt 0.106539 0.452621
vt 0.119981 0.233453
vt 0.106539 0.452621
vt 0.119981 0.399489
vt 0.279591 0.452621
vt 0.106539 0.452621
vt 0.279591 0.452621
vt 0.106539 0.180322
vt 0.106539 0.180322
vt 0.119981 0.233453
vt 0.106539 0.452621
vt 0.246968 0.399489
vt 0.279591 0.452621
vt 0.119981 0.399489
vt 0.279591 0.452621
vt 0.246968 0.399489
vt 0.279591 0.180322
vt 0.279591 0.180322
vt 0.106539 0.180322
vt 0.279591 0.452621
vt 0.279591 0.180322
vt 0.246968 0.233453
vt 0.106539 0.180322
vt 0.119981 0.233453
vt 0.106539 0.180322
vt 0.246968 0.233453
vt 0.246968 0.233453
vt 0.279591 0.180322
vt 0.246968 0.399489
vt 0.246968 0.233453
vt 0.246968 0.399489
vt 0.119981 0.233453
vt 0.119981 0.399489
vt 0.119981 0.233453
vt 0.246968 0.399489
vt 0.119981 0.399489
vt 0.106539 0.452621
vt 0.119981 0.233453
vt 0.106539 0.452621
vt 0.119981 0.399489
vt 0.279591 0.452621
vt 0.106539 0.452621
vt 0.279591 0.452621
vt 0.106539 0.180322
vt 0.106539 0.180322
vt 0.279591 0.180322
vt 0.279591 0.452621
vt 0.279591 0.452621
vt 0.106539 0.452621
vt 0.106539 0.180322
vt 0.119981 0.399489
vt 0.106539 0.452621
vt 0.279591 0.452621
vt 0.106539 0.452621
vt 0.119981 0.399489
vt 0.119981 0.233453
vt 0.119981 0.233453
vt 0.119981 0.399489
vt 0.246968 0.399489
vt 0.246968 0.399489
vt 0.246968 0.233453
vt 0.119981 0.233453
vt 0.279591 0.452621
vt 0.246968 0.399489
vt 0.119981 0.399489
vt 0.246968 0.399489
vt 0.279591 0.452621
vt 0.279591 0.180322
vt 0.279591 0.180322
vt 0.246968 0.233453
vt 0.246968 0.399489
vt 0.246968 0.233453
vt 0.279591 0.180322
vt 0.106539 0.180322
vt 0.106539 0.180322
vt 0.119981 0.233453
vt 0.246968 0.233453
vt 0.119981 0.233453
vt 0.106539 0.180322
vt 0.106539 0.452621
vt 0.072094 0.873614
vt 0.198196 0.804649
vt 0.072094 0.807671
vt 0.198196 0.753470
vt 0.072094 0.807671
vt 0.198196 0.804649
vt 0.072094 0.807671
vt 0.198196 0.753470
vt 0.198196 0.505177
vt 0.198196 0.505177
vt 0.072094 0.487756
vt 0.072094 0.807671
vt 0.072094 0.487756
vt 0.198196 0.505177
vt 0.072095 0.772843
vt 0.198196 0.767239
vt 0.072095 0.772843
vt 0.198196 0.505177
vt 0.072095 0.772843
vt 0.198196 0.767239
vt 0.072094 0.999501
vt 0.198196 0.996794
vt 0.072094 0.999501
vt 0.198196 0.767239
vt 0.072094 0.999501
vt 0.198196 0.996794
vt 0.072094 0.884386
vt 0.198196 0.878562
vt 0.072094 0.884386
vt 0.198196 0.996794
vt 0.072094 0.884386
vt 0.198196 0.878562
vt 0.072094 0.613642
vt 0.198196 0.545337
vt 0.072094 0.613642
vt 0.198196 0.878562
vt 0.072094 0.613642
vt 0.198196 0.545337
vt 0.072094 0.646957
vt 0.198195 0.628736
vt 0.072094 0.646957
vt 0.198196 0.545337
vt 0.072094 0.646957
vt 0.198195 0.628736
vt 0.072094 0.873614
vt 0.198196 0.804649
vt 0.072094 0.873614
vt 0.198195 0.628736
vt 0.441829 0.002909
vt 0.441829 0.500000
vt 0.499239 0.500000
vt 0.499239 0.500000
vt 0.499239 0.002909
vt 0.441829 0.002909
vt 0.441829 0.309356
vt 0.441829 0.002909
vt 0.499239 0.002909
vt 0.499239 0.002909
vt 0.499239 0.309356
vt 0.441829 0.309356
vt 0.441829 0.625821
vt 0.441829 0.309356
vt 0.499239 0.309356
vt 0.499239 0.309356
vt 0.499239 0.625821
vt 0.441829 0.625821
vt 0.441829 0.309356
vt 0.441829 0.625821
vt 0.499239 0.625821
vt 0.499239 0.625821
vt 0.499239 0.309356
vt 0.441829 0.309356
vt 0.441829 0.002909
vt 0.441829 0.309356
vt 0.499239 0.309356
vt 0.499239 0.309356
vt 0.499239 0.002909
vt 0.441829 0.002909
vt 0.441829 0.500000
vt 0.441829 0.002909
vt 0.499239 0.002909
vt 0.499239 0.002909
vt 0.499239 0.500000
vt 0.441829 0.500000
vt 0.441829 0.980676
vt 0.441829 0.500000
vt 0.499239 0.500000
vt 0.499239 0.500000
vt 0.499239 0.980676
vt 0.441829 0.980676
vt 0.441829 0.500000
vt 0.441829 0.980676
vt 0.499239 0.980676
vt 0.499239 0.980676
vt 0.499239 0.500000
vt 0.441829 0.500000
vt 0.018841 0.500000
vt 0.068599 0.980676
vt 0.018841 0.980676
vt 0.068599 0.500000
vt 0.018841 0.980676
vt 0.068599 0.980676
vt 0.018841 0.980676
vt 0.068599 0.500000
vt 0.018841 0.500000
vt 0.068599 0.002909
vt 0.018841 0.500000
vt 0.068599 0.500000
vt 0.018841 0.500000
vt 0.068599 0.002909
vt 0.018841 0.002909
vt 0.068599 0.309356
vt 0.018841 0.002909
vt 0.068599 0.002909
vt 0.018841 0.002909
vt 0.068599 0.309356
vt 0.018841 0.309356
vt 0.068599 0.625821
vt 0.018841 0.309356
vt 0.068599 0.309356
vt 0.018841 0.309356
vt 0.068599 0.625821
vt 0.018841 0.625821
vt 0.068599 0.309356
vt 0.018841 0.625821
vt 0.068599 0.625821
vt 0.018841 0.625821
vt 0.068599 0.309356
vt 0.018841 0.309356
vt 0.068599 0.002909
vt 0.018841 0.309356
vt 0.068599 0.309356
vt 0.018841 0.309356
vt 0.068599 0.002909
vt 0.018841 0.002909
vt 0.068599 0.500000
vt 0.018841 0.002909
vt 0.068599 0.002909
vt 0.018841 0.002909
vt 0.068599 0.500000
vt 0.018841 0.500000
vt 0.068599 0.980676
vt 0.018841 0.500000
vt 0.068599 0.500000
vt 0.127229 0.980676
vt 0.006039 0.980676
vt 0.006039 0.500000
vt 0.127229 0.500000
vt 0.006039 0.980676
vt 0.127229 0.980676
vt 0.378458 0.500000
vt 0.127229 0.500000
vt 0.127229 0.980676
vt 0.378458 0.005179
vt 0.127229 0.500000
vt 0.378458 0.500000
vt 0.378458 0.005179
vt 0.378458 0.500000
vt 0.127413 0.500000
vt 0.378458 0.005179
vt 0.127413 0.500000
vt 0.127413 0.005179
vt 0.127413 0.005179
vt 0.127413 0.500000
vt 0.006039 0.500000
vt 0.127413 0.005179
vt 0.006039 0.500000
vt 0.006039 0.005179
vt 0.127229 0.500000
vt 0.006039 0.500000
vt 0.006039 0.980676
vt 0.127229 0.005179
vt 0.006039 0.500000
vt 0.127229 0.500000
vt 0.378458 0.005179
vt 0.127229 0.005179
vt 0.127229 0.500000
vt 0.378458 0.309343
vt 0.127229 0.005179
vt 0.378458 0.005179
vt 0.378458 0.309343
vt 0.378458 0.005179
vt 0.127413 0.005179
vt 0.378458 0.309343
vt 0.127413 0.005179
vt 0.127413 0.309343
vt 0.127413 0.309343
vt 0.127413 0.005179
vt 0.006039 0.005179
vt 0.127413 0.309343
vt 0.006039 0.005179
vt 0.006039 0.309343
vt 0.127229 0.005179
vt 0.006039 0.005179
vt 0.006039 0.500000
vt 0.127229 0.309343
vt 0.006039 0.005179
vt 0.127229 0.005179
vt 0.378458 0.309343
vt 0.127229 0.309343
vt 0.127229 0.005179
vt 0.378458 0.625774
vt 0.127229 0.309343
vt 0.378458 0.309343
vt 0.378458 0.625774
vt 0.378458 0.309343
vt 0.127413 0.309343
vt 0.378458 0.625774
vt 0.127413 0.309343
vt 0.127413 0.625774
vt 0.127413 0.625774
vt 0.127413 0.309343
vt 0.006039 0.309343
vt 0.127413 0.625774
vt 0.006039 0.309343
vt 0.006039 0.625774
vt 0.127229 0.309343
vt 0.006039 0.309343
vt 0.006039 0.005179
vt 0.127229 0.625774
vt 0.006039 0.309343
vt 0.127229 0.309343
vt 0.378458 0.625774
vt 0.127229 0.625774
vt 0.127229 0.309343
vt 0.378458 0.309343
vt 0.127229 0.625774
vt 0.378458 0.625774
vt 0.378458 0.309343
vt 0.378458 0.625774
vt 0.127413 0.625774
vt 0.378458 0.309343
vt 0.127413 0.625774
vt 0.127413 0.309343
vt 0.127413 0.309343
vt 0.127413 0.625774
vt 0.006039 0.625774
vt 0.127413 0.309343
vt 0.006039 0.625774
vt 0.006039 0.309343
vt 0.127229 0.625774
vt 0.006039 0.625774
vt 0.006039 0.309343
vt 0.127229 0.309343
vt 0.006039 0.625774
vt 0.127229 0.625774
vt 0.378458 0.309343
vt 0.127229 0.309343
vt 0.127229 0.625774
vt 0.378458 0.005179
vt 0.127229 0.309343
vt 0.378458 0.309343
vt 0.378458 0.005179
vt 0.378458 0.309343
vt 0.127413 0.309343
vt 0.378458 0.005179
vt 0.127413 0.309343
vt 0.127413 0.005179
vt 0.127413 0.005179
vt 0.127413 0.309343
vt 0.006039 0.309343
vt 0.127413 0.005179
vt 0.006039 0.309343
vt 0.006039 0.005179
vt 0.127229 0.309343
vt 0.006039 0.309343
vt 0.006039 0.625774
vt 0.127229 0.005179
vt 0.006039 0.309343
vt 0.127229 0.309343
vt 0.378458 0.005179
vt 0.127229 0.005179
vt 0.127229 0.309343
vt 0.378458 0.500000
vt 0.127229 0.005179
vt 0.378458 0.005179
vt 0.378458 0.500000
vt 0.378458 0.005179
vt 0.127413 0.005179
vt 0.378458 0.500000
vt 0.127413 0.005179
vt 0.127413 0.500000
vt 0.127413 0.500000
vt 0.127413 0.005179
vt 0.006039 0.005179
vt 0.127413 0.500000
vt 0.006039 0.005179
vt 0.006039 0.500000
vt 0.127229 0.005179
vt 0.006039 0.005179
vt 0.006039 0.309343
vt 0.127229 0.500000
vt 0.006039 0.005179
vt 0.127229 0.005179
vt 0.378458 0.500000
vt 0.127229 0.500000
vt 0.127229 0.005179
vt 0.378458 0.980676
vt 0.127229 0.500000
vt 0.378458 0.500000
vt 0.378458 0.980676
vt 0.378458 0.500000
vt 0.127413 0.500000
vt 0.378458 0.980676
vt 0.127413 0.500000
vt 0.127413 0.980676
vt 0.127413 0.980676
vt 0.127413 0.500000
vt 0.006039 0.500000
vt 0.127413 0.980676
vt 0.006039 0.500000
vt 0.006039 0.980676
vt 0.127413 0.500000
vt 0.006039 0.980676
vt 0.006039 0.500000
vt 0.127413 0.500000
vt 0.127413 0.980676
vt 0.006039 0.980676
vt 0.378458 0.500000
vt 0.127413 0.980676
vt 0.127413 0.500000
vt 0.378458 0.500000
vt 0.378458 0.980676
vt 0.127413 0.980676
vt 0.378458 0.500000
vt 0.127229 0.980676
vt 0.378458 0.980676
vt 0.378458 0.980676
vt 0.127229 0.980676
vt 0.127229 0.500000
vt 0.127229 0.980676
vt 0.006039 0.500000
vt 0.127229 0.500000
vt 0.127229 0.500000
vt 0.006039 0.500000
vt 0.006039 0.005179
vt 0.443183 0.500000
vt 0.499569 0.980676
vt 0.443183 0.980676
vt 0.499569 0.500000
vt 0.443183 0.980676
vt 0.499569 0.980676
vt 0.499569 0.980676
vt 0.443183 0.500000
vt 0.499569 0.500000
vt 0.443183 0.002909
vt 0.499569 0.500000
vt 0.443183 0.500000
vt 0.499569 0.500000
vt 0.443183 0.002909
vt 0.499569 0.002909
vt 0.443284 0.320906
vt 0.499569 0.002909
vt 0.443183 0.002909
vt 0.499569 0.002909
vt 0.443284 0.320906
vt 0.499237 0.316075
vt 0.442980 0.618791
vt 0.499237 0.316075
vt 0.443284 0.320906
vt 0.499237 0.316075
vt 0.442980 0.618791
vt 0.499348 0.618791
vt 0.443284 0.320906
vt 0.499348 0.618791
vt 0.442980 0.618791
vt 0.499348 0.618791
vt 0.443284 0.320906
vt 0.499237 0.316075
vt 0.443183 0.002909
vt 0.499237 0.316075
vt 0.443284 0.320906
vt 0.499237 0.316075
vt 0.443183 0.002909
vt 0.499569 0.002909
vt 0.443183 0.500000
vt 0.499569 0.002909
vt 0.443183 0.002909
vt 0.499569 0.002909
vt 0.443183 0.500000
vt 0.499569 0.500000
# 648 texture coordinates

vn -0.833029 -0.533278 -0.147233
vn -0.745496 0.398175 -0.534502
vn -0.832382 -0.457380 0.312959
vn 0.637784 -0.517421 -0.570532
vn 0.432870 -0.145287 -0.889672
vn 1.000000 -0.000001 -0.000000
vn 0.385975 -0.921566 -0.041707
vn 0.637784 -0.517421 -0.570532
vn 1.000000 -0.000001 -0.000000
vn 0.462499 -0.490697 0.738452
vn 0.385975 -0.921566 -0.041707
vn 1.000000 -0.000001 -0.000000
vn 0.425851 0.144338 0.893206
vn 0.462499 -0.490697 0.738452
vn 1.000000 -0.000001 -0.000000
vn 0.425693 0.685283 0.590909
vn 0.425851 0.144338 0.893206
vn 1.000000 -0.000001 -0.000000
vn 0.432870 -0.145287 -0.889672
vn 0.423038 0.500427 -0.755388
vn 1.000000 -0.000001 -0.000000
vn 0.423038 0.500427 -0.755388
vn 0.433582 0.896229 -0.093708
vn 1.000000 -0.000001 -0.000000
vn 0.433582 0.896229 -0.093708
vn 0.425693 0.685283 0.590909
vn 1.000000 -0.000001 -0.000000
vn 0.755571 -0.090605 0.648771
vn 0.780012 -0.516675 0.353029
vn 0.576109 -0.449609 0.682605
vn 0.576109 -0.449609 0.682605
vn 0.567511 0.134014 0.812387
vn 0.755571 -0.090605 0.648771
vn 0.760598 0.341039 0.552434
vn 0.755571 -0.090605 0.648771
vn 0.567511 0.134014 0.812387
vn 0.567511 0.134014 0.812387
vn 0.595288 0.610513 0.522405
vn 0.760598 0.341039 0.552434
vn 0.800368 0.577819 0.159800
vn 0.760598 0.341039 0.552434
vn 0.595288 0.610513 0.522405
vn 0.595288 0.610513 0.522405
vn 0.621786 0.778549 -0.085109
vn 0.800368 0.577819 0.159800
vn 0.795551 0.500102 -0.342047
vn 0.800368 0.577819 0.159800
vn 0.621786 0.778549 -0.085109
vn 0.621786 0.778549 -0.085109
vn 0.596003 0.441143 -0.670949
vn 0.795551 0.500102 -0.342047
vn 0.764337 0.101675 -0.636750
vn 0.795551 0.500102 -0.342047
vn 0.596003 0.441143 -0.670949
vn 0.596003 0.441143 -0.670949
vn 0.563233 -0.135250 -0.815154
vn 0.764337 0.101675 -0.636750
vn 0.763048 -0.337473 -0.551244
vn 0.764337 0.101675 -0.636750
vn 0.563233 -0.135250 -0.815154
vn 0.563233 -0.135250 -0.815154
vn 0.570302 -0.624428 -0.533709
vn 0.763048 -0.337473 -0.551244
vn 0.782138 -0.600698 -0.165598
vn 0.763048 -0.337473 -0.551244
vn 0.570302 -0.624428 -0.533709
vn 0.570302 -0.624428 -0.533709
vn 0.589657 -0.802857 0.087895
vn 0.782138 -0.600698 -0.165598
vn 0.780012 -0.516675 0.353029
vn 0.782138 -0.600698 -0.165598
vn 0.589657 -0.802857 0.087895
vn 0.589657 -0.802857 0.087895
vn 0.576109 -0.449609 0.682605
vn 0.780012 -0.516675 0.353029
vn -0.396510 0.185121 -0.899172
vn -0.546612 -0.807084 -0.223229
vn -0.845654 0.515414 0.138627
vn 0.393217 0.642092 0.658102
vn 0.430539 0.535736 -0.726377
vn -0.277621 0.810062 -0.516456
vn 0.430539 0.535736 -0.726377
vn 0.393217 0.642092 0.658102
vn 0.910431 -0.212894 -0.354671
vn -0.546612 -0.807084 -0.223229
vn 0.910431 -0.212894 -0.354671
vn 0.393217 0.642092 0.658102
vn 0.221510 -0.049528 -0.973900
vn 0.910431 -0.212894 -0.354671
vn -0.546612 -0.807084 -0.223229
vn -0.546612 -0.807084 -0.223229
vn -0.396510 0.185121 -0.899172
vn 0.221510 -0.049528 -0.973900
vn 0.910431 -0.212894 -0.354671
vn 0.221510 -0.049528 -0.973900
vn 0.430539 0.535736 -0.726377
vn 0.430539 0.535736 -0.726377
vn 0.221510 -0.049528 -0.973900
vn -0.396510 0.185121 -0.899172
vn -0.396510 0.185121 -0.899172
vn -0.277621 0.810062 -0.516456
vn 0.430539 0.535736 -0.726377
vn -0.845654 0.515414 0.138627
vn -0.277621 0.810062 -0.516456
vn -0.396510 0.185121 -0.899172
vn -0.277621 0.810062 -0.516456
vn -0.845654 0.515414 0.138627
vn 0.393217 0.642092 0.658102
vn 0.393217 0.642092 0.658102
vn -0.845654 0.515414 0.138627
vn -0.546612 -0.807084 -0.223229
vn 0.567511 0.134014 0.812387
vn 0.576109 -0.449609 0.682605
vn 1.000000 -0.000009 -0.000001
vn 0.595288 0.610513 0.522405
vn 0.567511 0.134014 0.812387
vn 1.000000 -0.000009 -0.000001
vn 0.621786 0.778549 -0.085109
vn 0.595288 0.610513 0.522405
vn 1.000000 -0.000009 -0.000001
vn 0.596003 0.441143 -0.670949
vn 0.621786 0.778549 -0.085109
vn 1.000000 -0.000009 -0.000001
vn 0.563233 -0.135250 -0.815154
vn 0.596003 0.441143 -0.670949
vn 1.000000 -0.000009 -0.000001
vn 0.576109 -0.449609 0.682605
vn 0.589657 -0.802857 0.087895
vn 1.000000 -0.000009 -0.000001
vn 0.589657 -0.802857 0.087895
vn 0.570302 -0.624428 -0.533709
vn 1.000000 -0.000009 -0.000001
vn 0.570302 -0.624428 -0.533709
vn 0.563233 -0.135250 -0.815154
vn 1.000000 -0.000009 -0.000001
vn -0.657518 0.572732 0.489539
vn -1.000000 0.000417 -0.000576
vn -0.642765 0.125674 0.755685
vn -0.678412 0.734296 -0.023793
vn -1.000000 0.000417 -0.000576
vn -0.657518 0.572732 0.489539
vn -0.681689 0.384061 -0.622734
vn -1.000000 0.000417 -0.000576
vn -0.678412 0.734296 -0.023793
vn -0.638550 -0.143855 -0.756016
vn -1.000000 0.000417 -0.000576
vn -0.681689 0.384061 -0.622734
vn -0.657520 -0.572731 -0.489537
vn -1.000000 0.000417 -0.000576
vn -0.638550 -0.143855 -0.756016
vn -0.682823 -0.726307 0.078933
vn -1.000000 0.000417 -0.000576
vn -0.657520 -0.572731 -0.489537
vn -0.666226 -0.410043 0.622902
vn -1.000000 0.000417 -0.000576
vn -0.682823 -0.726307 0.078933
vn -0.642765 0.125674 0.755685
vn -1.000000 0.000417 -0.000576
vn -0.666226 -0.410043 0.622902
vn 0.536324 -0.841047 -0.070686
vn 0.431846 0.134418 -0.891875
vn 0.868300 0.449664 0.209422
vn -0.454652 0.562512 -0.690559
vn -0.353626 0.586557 0.728628
vn 0.275733 0.850460 -0.447984
vn -0.353626 0.586557 0.728628
vn -0.454652 0.562512 -0.690559
vn -0.905013 -0.265662 -0.332228
vn -0.905013 -0.265662 -0.332228
vn 0.536324 -0.841047 -0.070686
vn -0.353626 0.586557 0.728628
vn -0.905013 -0.265662 -0.332228
vn -0.223418 -0.116036 -0.967791
vn 0.536324 -0.841047 -0.070686
vn 0.431846 0.134418 -0.891875
vn 0.536324 -0.841047 -0.070686
vn -0.223418 -0.116036 -0.967791
vn -0.223418 -0.116036 -0.967791
vn -0.905013 -0.265662 -0.332228
vn -0.454652 0.562512 -0.690559
vn -0.223418 -0.116036 -0.967791
vn -0.454652 0.562512 -0.690559
vn 0.431846 0.134418 -0.891875
vn 0.275733 0.850460 -0.447984
vn 0.431846 0.134418 -0.891875
vn -0.454652 0.562512 -0.690559
vn 0.275733 0.850460 -0.447984
vn 0.868300 0.449664 0.209422
vn 0.431846 0.134418 -0.891875
vn 0.868300 0.449664 0.209422
vn 0.275733 0.850460 -0.447984
vn -0.353626 0.586557 0.728628
vn 0.868300 0.449664 0.209422
vn -0.353626 0.586557 0.728628
vn 0.536324 -0.841047 -0.070686
vn -0.546522 -0.773872 0.320054
vn -0.386311 0.242724 0.889859
vn -0.854079 0.518386 -0.042728
vn 0.413783 0.556330 0.720611
vn 0.446994 0.663494 -0.599977
vn -0.260892 0.789296 0.555830
vn 0.446994 0.663494 -0.599977
vn 0.413783 0.556330 0.720611
vn 0.899846 -0.163903 0.404244
vn 0.899846 -0.163903 0.404244
vn -0.546522 -0.773872 0.320054
vn 0.446994 0.663494 -0.599977
vn 0.899846 -0.163903 0.404244
vn 0.216091 0.023266 0.976096
vn -0.546522 -0.773872 0.320054
vn -0.386311 0.242724 0.889859
vn -0.546522 -0.773872 0.320054
vn 0.216091 0.023266 0.976096
vn 0.216091 0.023266 0.976096
vn 0.899846 -0.163903 0.404244
vn 0.413783 0.556330 0.720611
vn 0.216091 0.023266 0.976096
vn 0.413783 0.556330 0.720611
vn -0.386311 0.242724 0.889859
vn -0.260892 0.789296 0.555830
vn -0.386311 0.242724 0.889859
vn 0.413783 0.556330 0.720611
vn -0.260892 0.789296 0.555830
vn -0.854079 0.518386 -0.042728
vn -0.386311 0.242724 0.889859
vn -0.854079 0.518386 -0.042728
vn -0.260892 0.789296 0.555830
vn 0.446994 0.663494 -0.599977
vn -0.854079 0.518386 -0.042728
vn 0.446994 0.663494 -0.599977
vn -0.546522 -0.773872 0.320054
vn 0.533916 -0.833543 0.141918
vn -0.895732 -0.221150 0.385690
vn -0.404213 0.614618 -0.677389
vn -0.404213 0.614618 -0.677389
vn 0.883908 0.453115 -0.115733
vn 0.533916 -0.833543 0.141918
vn 0.258331 0.828645 0.496601
vn 0.883908 0.453115 -0.115733
vn -0.404213 0.614618 -0.677389
vn 0.883908 0.453115 -0.115733
vn 0.258331 0.828645 0.496601
vn 0.426711 0.185025 0.885259
vn 0.426711 0.185025 0.885259
vn 0.258331 0.828645 0.496601
vn -0.434422 0.583260 0.686356
vn -0.434422 0.583260 0.686356
vn -0.218688 -0.054904 0.974249
vn 0.426711 0.185025 0.885259
vn -0.404213 0.614618 -0.677389
vn -0.434422 0.583260 0.686356
vn 0.258331 0.828645 0.496601
vn -0.434422 0.583260 0.686356
vn -0.404213 0.614618 -0.677389
vn -0.895732 -0.221150 0.385690
vn -0.895732 -0.221150 0.385690
vn -0.218688 -0.054904 0.974249
vn -0.434422 0.583260 0.686356
vn -0.218688 -0.054904 0.974249
vn -0.895732 -0.221150 0.385690
vn 0.533916 -0.833543 0.141918
vn 0.533916 -0.833543 0.141918
vn 0.426711 0.185025 0.885259
vn -0.218688 -0.054904 0.974249
vn 0.426711 0.185025 0.885259
vn 0.533916 -0.833543 0.141918
vn 0.883908 0.453115 -0.115733
vn 0.462499 -0.490697 0.738452
vn -0.072999 -0.776391 0.626010
vn 0.385975 -0.921566 -0.041707
vn -0.062607 -0.997018 -0.045121
vn 0.385975 -0.921566 -0.041707
vn -0.072999 -0.776391 0.626010
vn 0.385975 -0.921566 -0.041707
vn -0.062607 -0.997018 -0.045121
vn -0.069644 -0.670156 -0.738945
vn -0.069644 -0.670156 -0.738945
vn 0.637784 -0.517421 -0.570532
vn 0.385975 -0.921566 -0.041707
vn 0.637784 -0.517421 -0.570532
vn -0.069644 -0.670156 -0.738945
vn 0.432870 -0.145287 -0.889672
vn -0.109103 0.086874 -0.990227
vn 0.432870 -0.145287 -0.889672
vn -0.069644 -0.670156 -0.738945
vn 0.432870 -0.145287 -0.889672
vn -0.109103 0.086874 -0.990227
vn 0.423038 0.500427 -0.755388
vn -0.151911 0.768502 -0.621553
vn 0.423038 0.500427 -0.755388
vn -0.109103 0.086874 -0.990227
vn 0.423038 0.500427 -0.755388
vn -0.151911 0.768502 -0.621553
vn 0.433582 0.896229 -0.093708
vn -0.155200 0.969170 0.191370
vn 0.433582 0.896229 -0.093708
vn -0.151911 0.768502 -0.621553
vn 0.433582 0.896229 -0.093708
vn -0.155200 0.969170 0.191370
vn 0.425693 0.685283 0.590909
vn -0.124319 0.572687 0.810293
vn 0.425693 0.685283 0.590909
vn -0.155200 0.969170 0.191370
vn 0.425693 0.685283 0.590909
vn -0.124319 0.572687 0.810293
vn 0.425851 0.144338 0.893206
vn -0.094982 -0.088645 0.991524
vn 0.425851 0.144338 0.893206
vn -0.124319 0.572687 0.810293
vn 0.425851 0.144338 0.893206
vn -0.094982 -0.088645 0.991524
vn 0.462499 -0.490697 0.738452
vn -0.072999 -0.776391 0.626010
vn 0.462499 -0.490697 0.738452
vn -0.094982 -0.088645 0.991524
vn 0.729958 -0.066795 -0.680220
vn 0.767565 0.384470 -0.512861
vn 0.780012 -0.516675 0.353029
vn 0.780012 -0.516675 0.353029
vn 0.755571 -0.090605 0.648771
vn 0.729958 -0.066795 -0.680220
vn 0.751045 -0.480102 -0.453249
vn 0.729958 -0.066795 -0.680220
vn 0.755571 -0.090605 0.648771
vn 0.755571 -0.090605 0.648771
vn 0.760598 0.341039 0.552434
vn 0.751045 -0.480102 -0.453249
vn 0.785613 -0.616746 0.049374
vn 0.751045 -0.480102 -0.453249
vn 0.760598 0.341039 0.552434
vn 0.760598 0.341039 0.552434
vn 0.800368 0.577819 0.159800
vn 0.785613 -0.616746 0.049374
vn 0.773181 -0.379841 0.507850
vn 0.785613 -0.616746 0.049374
vn 0.800368 0.577819 0.159800
vn 0.800368 0.577819 0.159800
vn 0.795551 0.500102 -0.342047
vn 0.773181 -0.379841 0.507850
vn 0.743142 0.079661 0.664375
vn 0.773181 -0.379841 0.507850
vn 0.795551 0.500102 -0.342047
vn 0.795551 0.500102 -0.342047
vn 0.764337 0.101675 -0.636750
vn 0.743142 0.079661 0.664375
vn 0.745644 0.483724 0.458286
vn 0.743142 0.079661 0.664375
vn 0.764337 0.101675 -0.636750
vn 0.764337 0.101675 -0.636750
vn 0.763048 -0.337473 -0.551244
vn 0.745644 0.483724 0.458286
vn 0.772130 0.634925 -0.026182
vn 0.745644 0.483724 0.458286
vn 0.763048 -0.337473 -0.551244
vn 0.763048 -0.337473 -0.551244
vn 0.782138 -0.600698 -0.165598
vn 0.772130 0.634925 -0.026182
vn 0.767565 0.384470 -0.512861
vn 0.772130 0.634925 -0.026182
vn 0.782138 -0.600698 -0.165598
vn 0.782138 -0.600698 -0.165598
vn 0.780012 -0.516675 0.353029
vn 0.767565 0.384470 -0.512861
vn -0.657520 -0.572731 -0.489537
vn -0.833029 -0.533278 -0.147233
vn -0.682823 -0.726307 0.078933
vn -0.832382 -0.457380 0.312959
vn -0.682823 -0.726307 0.078933
vn -0.833029 -0.533278 -0.147233
vn -0.682823 -0.726307 0.078933
vn -0.832382 -0.457380 0.312959
vn -0.666226 -0.410043 0.622902
vn -0.810182 -0.091783 0.578948
vn -0.666226 -0.410043 0.622902
vn -0.832382 -0.457380 0.312959
vn -0.666226 -0.410043 0.622902
vn -0.810182 -0.091783 0.578948
vn -0.642765 0.125674 0.755685
vn -0.812890 0.304429 0.496521
vn -0.642765 0.125674 0.755685
vn -0.810182 -0.091783 0.578948
vn -0.642765 0.125674 0.755685
vn -0.812890 0.304429 0.496521
vn -0.657518 0.572732 0.489539
vn -0.838893 0.513912 0.179314
vn -0.657518 0.572732 0.489539
vn -0.812890 0.304429 0.496521
vn -0.657518 0.572732 0.489539
vn -0.838893 0.513912 0.179314
vn -0.678412 0.734296 -0.023793
vn -0.863642 0.435533 -0.253838
vn -0.678412 0.734296 -0.023793
vn -0.838893 0.513912 0.179314
vn -0.678412 0.734296 -0.023793
vn -0.863642 0.435533 -0.253838
vn -0.681689 0.384061 -0.622734
vn -0.807014 0.057655 -0.587711
vn -0.681689 0.384061 -0.622734
vn -0.863642 0.435533 -0.253838
vn -0.681689 0.384061 -0.622734
vn -0.807014 0.057655 -0.587711
vn -0.638550 -0.143855 -0.756016
vn -0.812894 -0.304426 -0.496517
vn -0.638550 -0.143855 -0.756016
vn -0.807014 0.057655 -0.587711
vn -0.638550 -0.143855 -0.756016
vn -0.812894 -0.304426 -0.496517
vn -0.657520 -0.572731 -0.489537
vn -0.833029 -0.533278 -0.147233
vn -0.657520 -0.572731 -0.489537
vn -0.812894 -0.304426 -0.496517
vn -0.209404 0.977002 0.040221
vn -0.749682 0.661118 -0.029994
vn -0.723817 0.502196 0.473168
vn -0.214958 0.652102 -0.727019
vn -0.749682 0.661118 -0.029994
vn -0.209404 0.977002 0.040221
vn -0.000000 0.778123 -0.628112
vn -0.214958 0.652102 -0.727019
vn -0.209404 0.977002 0.040221
vn -0.000000 0.088350 -0.996089
vn -0.214958 0.652102 -0.727019
vn -0.000000 0.778123 -0.628112
vn -0.000000 0.088350 -0.996089
vn -0.000000 0.778123 -0.628112
vn 0.249228 0.644599 -0.722757
vn -0.000000 0.088350 -0.996089
vn 0.249228 0.644599 -0.722757
vn 0.233590 -0.042846 -0.971391
vn 0.233590 -0.042846 -0.971391
vn 0.249228 0.644599 -0.722757
vn 0.767565 0.384470 -0.512861
vn 0.233590 -0.042846 -0.971391
vn 0.767565 0.384470 -0.512861
vn 0.729958 -0.066795 -0.680220
vn -0.214958 0.652102 -0.727019
vn -0.745496 0.398175 -0.534502
vn -0.749682 0.661118 -0.029994
vn -0.204934 -0.040638 -0.977932
vn -0.745496 0.398175 -0.534502
vn -0.214958 0.652102 -0.727019
vn -0.000000 0.088350 -0.996089
vn -0.204934 -0.040638 -0.977932
vn -0.214958 0.652102 -0.727019
vn -0.000000 -0.577675 -0.816267
vn -0.204934 -0.040638 -0.977932
vn -0.000000 0.088350 -0.996089
vn -0.000000 -0.577675 -0.816267
vn -0.000000 0.088350 -0.996089
vn 0.233590 -0.042846 -0.971391
vn -0.000000 -0.577675 -0.816267
vn 0.233590 -0.042846 -0.971391
vn 0.201170 -0.654114 -0.729154
vn 0.201170 -0.654114 -0.729154
vn 0.233590 -0.042846 -0.971391
vn 0.729958 -0.066795 -0.680220
vn 0.201170 -0.654114 -0.729154
vn 0.729958 -0.066795 -0.680220
vn 0.751045 -0.480102 -0.453249
vn -0.204934 -0.040638 -0.977932
vn -0.725796 -0.081671 -0.683045
vn -0.745496 0.398175 -0.534502
vn -0.210323 -0.659876 -0.721338
vn -0.725796 -0.081671 -0.683045
vn -0.204934 -0.040638 -0.977932
vn -0.000000 -0.577675 -0.816267
vn -0.210323 -0.659876 -0.721338
vn -0.204934 -0.040638 -0.977932
vn -0.000000 -0.981128 -0.193362
vn -0.210323 -0.659876 -0.721338
vn -0.000000 -0.577675 -0.816267
vn -0.000000 -0.981128 -0.193362
vn -0.000000 -0.577675 -0.816267
vn 0.201170 -0.654114 -0.729154
vn -0.000000 -0.981128 -0.193362
vn 0.201170 -0.654114 -0.729154
vn 0.240996 -0.970170 -0.026293
vn 0.240996 -0.970170 -0.026293
vn 0.201170 -0.654114 -0.729154
vn 0.751045 -0.480102 -0.453249
vn 0.240996 -0.970170 -0.026293
vn 0.751045 -0.480102 -0.453249
vn 0.785613 -0.616746 0.049374
vn -0.210323 -0.659876 -0.721338
vn -0.738251 -0.489922 -0.463640
vn -0.725796 -0.081671 -0.683045
vn -0.233878 -0.971499 -0.038622
vn -0.738251 -0.489922 -0.463640
vn -0.210323 -0.659876 -0.721338
vn -0.000000 -0.981128 -0.193362
vn -0.233878 -0.971499 -0.038622
vn -0.210323 -0.659876 -0.721338
vn -0.000000 -0.778123 0.628111
vn -0.233878 -0.971499 -0.038622
vn -0.000000 -0.981128 -0.193362
vn -0.000000 -0.778123 0.628111
vn -0.000000 -0.981128 -0.193362
vn 0.240996 -0.970170 -0.026293
vn -0.000000 -0.778123 0.628111
vn 0.240996 -0.970170 -0.026293
vn 0.259805 -0.641415 0.721864
vn 0.259805 -0.641415 0.721864
vn 0.240996 -0.970170 -0.026293
vn 0.785613 -0.616746 0.049374
vn 0.259805 -0.641415 0.721864
vn 0.785613 -0.616746 0.049374
vn 0.773181 -0.379841 0.507850
vn -0.233878 -0.971499 -0.038622
vn -0.767007 -0.641022 0.028136
vn -0.738251 -0.489922 -0.463640
vn -0.234212 -0.647099 0.725539
vn -0.767007 -0.641022 0.028136
vn -0.233878 -0.971499 -0.038622
vn -0.000000 -0.778123 0.628111
vn -0.234212 -0.647099 0.725539
vn -0.233878 -0.971499 -0.038622
vn 0.000000 -0.088350 0.996089
vn -0.234212 -0.647099 0.725539
vn -0.000000 -0.778123 0.628111
vn 0.000000 -0.088350 0.996089
vn -0.000000 -0.778123 0.628111
vn 0.259805 -0.641415 0.721864
vn 0.000000 -0.088350 0.996089
vn 0.259805 -0.641415 0.721864
vn 0.234979 0.043899 0.971009
vn 0.234979 0.043899 0.971009
vn 0.259805 -0.641415 0.721864
vn 0.773181 -0.379841 0.507850
vn 0.234979 0.043899 0.971009
vn 0.773181 -0.379841 0.507850
vn 0.743142 0.079661 0.664375
vn -0.234212 -0.647099 0.725539
vn -0.733025 -0.416077 0.538102
vn -0.767007 -0.641022 0.028136
vn -0.207706 0.042279 0.977277
vn -0.733025 -0.416077 0.538102
vn -0.234212 -0.647099 0.725539
vn 0.000000 -0.088350 0.996089
vn -0.207706 0.042279 0.977277
vn -0.234212 -0.647099 0.725539
vn 0.000000 0.577675 0.816267
vn -0.207706 0.042279 0.977277
vn 0.000000 -0.088350 0.996089
vn 0.000000 0.577675 0.816267
vn 0.000000 -0.088350 0.996089
vn 0.234979 0.043899 0.971009
vn 0.000000 0.577675 0.816267
vn 0.234979 0.043899 0.971009
vn 0.227008 0.658684 0.717358
vn 0.227008 0.658684 0.717358
vn 0.234979 0.043899 0.971009
vn 0.743142 0.079661 0.664375
vn 0.227008 0.658684 0.717358
vn 0.743142 0.079661 0.664375
vn 0.745644 0.483724 0.458286
vn -0.207706 0.042279 0.977277
vn -0.712107 0.080220 0.697472
vn -0.733025 -0.416077 0.538102
vn -0.196036 0.661953 0.723456
vn -0.712107 0.080220 0.697472
vn -0.207706 0.042279 0.977277
vn 0.000000 0.577675 0.816267
vn -0.196036 0.661953 0.723456
vn -0.207706 0.042279 0.977277
vn 0.000000 0.981128 0.193362
vn -0.196036 0.661953 0.723456
vn 0.000000 0.577675 0.816267
vn 0.000000 0.981128 0.193362
vn 0.000000 0.577675 0.816267
vn 0.227008 0.658684 0.717358
vn 0.000000 0.981128 0.193362
vn 0.227008 0.658684 0.717358
vn 0.244715 0.968854 0.037904
vn 0.244715 0.968854 0.037904
vn 0.227008 0.658684 0.717358
vn 0.745644 0.483724 0.458286
vn 0.244715 0.968854 0.037904
vn 0.745644 0.483724 0.458286
vn 0.772130 0.634925 -0.026182
vn 0.249228 0.644599 -0.722757
vn 0.772130 0.634925 -0.026182
vn 0.767565 0.384470 -0.512861
vn 0.249228 0.644599 -0.722757
vn 0.244715 0.968854 0.037904
vn 0.772130 0.634925 -0.026182
vn -0.000000 0.778123 -0.628112
vn 0.244715 0.968854 0.037904
vn 0.249228 0.644599 -0.722757
vn -0.000000 0.778123 -0.628112
vn 0.000000 0.981128 0.193362
vn 0.244715 0.968854 0.037904
vn -0.000000 0.778123 -0.628112
vn -0.209404 0.977002 0.040221
vn 0.000000 0.981128 0.193362
vn 0.000000 0.981128 0.193362
vn -0.209404 0.977002 0.040221
vn -0.196036 0.661953 0.723456
vn -0.209404 0.977002 0.040221
vn -0.723817 0.502196 0.473168
vn -0.196036 0.661953 0.723456
vn -0.196036 0.661953 0.723456
vn -0.723817 0.502196 0.473168
vn -0.712107 0.080220 0.697472
vn -0.812894 -0.304426 -0.496517
vn -0.749682 0.661118 -0.029994
vn -0.833029 -0.533278 -0.147233
vn -0.745496 0.398175 -0.534502
vn -0.833029 -0.533278 -0.147233
vn -0.749682 0.661118 -0.029994
vn -0.749682 0.661118 -0.029994
vn -0.812894 -0.304426 -0.496517
vn -0.723817 0.502196 0.473168
vn -0.807014 0.057655 -0.587711
vn -0.723817 0.502196 0.473168
vn -0.812894 -0.304426 -0.496517
vn -0.723817 0.502196 0.473168
vn -0.807014 0.057655 -0.587711
vn -0.712107 0.080220 0.697472
vn -0.863642 0.435533 -0.253838
vn -0.712107 0.080220 0.697472
vn -0.807014 0.057655 -0.587711
vn -0.712107 0.080220 0.697472
vn -0.863642 0.435533 -0.253838
vn -0.733025 -0.416077 0.538102
vn -0.838893 0.513912 0.179314
vn -0.733025 -0.416077 0.538102
vn -0.863642 0.435533 -0.253838
vn -0.733025 -0.416077 0.538102
vn -0.838893 0.513912 0.179314
vn -0.767007 -0.641022 0.028136
vn -0.812890 0.304429 0.496521
vn -0.767007 -0.641022 0.028136
vn -0.838893 0.513912 0.179314
vn -0.767007 -0.641022 0.028136
vn -0.812890 0.304429 0.496521
vn -0.738251 -0.489922 -0.463640
vn -0.810182 -0.091783 0.578948
vn -0.738251 -0.489922 -0.463640
vn -0.812890 0.304429 0.496521
vn -0.738251 -0.489922 -0.463640
vn -0.810182 -0.091783 0.578948
vn -0.725796 -0.081671 -0.683045
vn -0.832382 -0.457380 0.312959
vn -0.725796 -0.081671 -0.683045
vn -0.810182 -0.091783 0.578948
vn -0.725796 -0.081671 -0.683045
vn -0.832382 -0.457380 0.312959
vn -0.745496 0.398175 -0.534502
# 648 normals

g Geoset_000
usemtl DARKIRONKEG
s 1
f 1/1/1 2/2/2 3/3/3
f 4/4/4 5/5/5 6/6/6
f 7/7/7 8/8/8 9/9/9
f 10/10/10 11/11/11 12/12/12
f 13/13/13 14/14/14 15/15/15
f 16/16/16 17/17/17 18/18/18
f 19/19/19 20/20/20 21/21/21
f 22/22/22 23/23/23 24/24/24
f 25/25/25 26/26/26 27/27/27
f 28/28/28 29/29/29 30/30/30
f 31/31/31 32/32/32 33/33/33
f 34/34/34 35/35/35 36/36/36
f 37/37/37 38/38/38 39/39/39
f 40/40/40 41/41/41 42/42/42
f 43/43/43 44/44/44 45/45/45
f 46/46/46 47/47/47 48/48/48
f 49/49/49 50/50/50 51/51/51
f 52/52/52 53/53/53 54/54/54
f 55/55/55 56/56/56 57/57/57
f 58/58/58 59/59/59 60/60/60
f 61/61/61 62/62/62 63/63/63
f 64/64/64 65/65/65 66/66/66
f 67/67/67 68/68/68 69/69/69
f 70/70/70 71/71/71 72/72/72
f 73/73/73 74/74/74 75/75/75
f 76/76/76 77/77/77 78/78/78
f 79/79/79 80/80/80 81/81/81
f 82/82/82 83/83/83 84/84/84
f 85/85/85 86/86/86 87/87/87
f 88/88/88 89/89/89 90/90/90
f 91/91/91 92/92/92 93/93/93
f 94/94/94 95/95/95 96/96/96
f 97/97/97 98/98/98 99/99/99
f 100/100/100 101/101/101 102/102/102
f 103/103/103 104/104/104 105/105/105
f 106/106/106 107/107/107 108/108/108
f 109/109/109 110/110/110 111/111/111
f 112/112/112 113/113/113 114/114/114
f 115/115/115 116/116/116 117/117/117
f 118/118/118 119/119/119 120/120/120
f 121/121/121 122/122/122 123/123/123
f 124/124/124 125/125/125 126/126/126
f 127/127/127 128/128/128 129/129/129
f 130/130/130 131/131/131 132/132/132
f 133/133/133 134/134/134 135/135/135
f 136/136/136 137/137/137 138/138/138
f 139/139/139 140/140/140 141/141/141
f 142/142/142 143/143/143 144/144/144
f 145/145/145 146/146/146 147/147/147
f 148/148/148 149/149/149 150/150/150
f 151/151/151 152/152/152 153/153/153
f 154/154/154 155/155/155 156/156/156
f 157/157/157 158/158/158 159/159/159
f 160/160/160 161/161/161 162/162/162
f 163/163/163 164/164/164 165/165/165
f 166/166/166 167/167/167 168/168/168
f 169/169/169 170/170/170 171/171/171
f 172/172/172 173/173/173 174/174/174
f 175/175/175 176/176/176 177/177/177
f 178/178/178 179/179/179 180/180/180
f 181/181/181 182/182/182 183/183/183
f 184/184/184 185/185/185 186/186/186
f 187/187/187 188/188/188 189/189/189
f 190/190/190 191/191/191 192/192/192
f 193/193/193 194/194/194 195/195/195
f 196/196/196 197/197/197 198/198/198
f 199/199/199 200/200/200 201/201/201
f 202/202/202 203/203/203 204/204/204
f 205/205/205 206/206/206 207/207/207
f 208/208/208 209/209/209 210/210/210
f 211/211/211 212/212/212 213/213/213
f 214/214/214 215/215/215 216/216/216
f 217/217/217 218/218/218 219/219/219
f 220/220/220 221/221/221 222/222/222
f 223/223/223 224/224/224 225/225/225
f 226/226/226 227/227/227 228/228/228
f 229/229/229 230/230/230 231/231/231
f 232/232/232 233/233/233 234/234/234
f 235/235/235 236/236/236 237/237/237
f 238/238/238 239/239/239 240/240/240
f 241/241/241 242/242/242 243/243/243
f 244/244/244 245/245/245 246/246/246
f 247/247/247 248/248/248 249/249/249
f 250/250/250 251/251/251 252/252/252
f 253/253/253 254/254/254 255/255/255
f 256/256/256 257/257/257 258/258/258
f 259/259/259 260/260/260 261/261/261
f 262/262/262 263/263/263 264/264/264
f 265/265/265 266/266/266 267/267/267
f 268/268/268 269/269/269 270/270/270
f 271/271/271 272/272/272 273/273/273
f 274/274/274 275/275/275 276/276/276
f 277/277/277 278/278/278 279/279/279
f 280/280/280 281/281/281 282/282/282
f 283/283/283 284/284/284 285/285/285
f 286/286/286 287/287/287 288/288/288
f 289/289/289 290/290/290 291/291/291
f 292/292/292 293/293/293 294/294/294
f 295/295/295 296/296/296 297/297/297
f 298/298/298 299/299/299 300/300/300
f 301/301/301 302/302/302 303/303/303
f 304/304/304 305/305/305 306/306/306
f 307/307/307 308/308/308 309/309/309
f 310/310/310 311/311/311 312/312/312
f 313/313/313 314/314/314 315/315/315
f 316/316/316 317/317/317 318/318/318
f 319/319/319 320/320/320 321/321/321
f 322/322/322 323/323/323 324/324/324
f 325/325/325 326/326/326 327/327/327
f 328/328/328 329/329/329 330/330/330
f 331/331/331 332/332/332 333/333/333
f 334/334/334 335/335/335 336/336/336
f 337/337/337 338/338/338 339/339/339
f 340/340/340 341/341/341 342/342/342
f 343/343/343 344/344/344 345/345/345
f 346/346/346 347/347/347 348/348/348
f 349/349/349 350/350/350 351/351/351
f 352/352/352 353/353/353 354/354/354
f 355/355/355 356/356/356 357/357/357
f 358/358/358 359/359/359 360/360/360
f 361/361/361 362/362/362 363/363/363
f 364/364/364 365/365/365 366/366/366
f 367/367/367 368/368/368 369/369/369
f 370/370/370 371/371/371 372/372/372
f 373/373/373 374/374/374 375/375/375
f 376/376/376 377/377/377 378/378/378
f 379/379/379 380/380/380 381/381/381
f 382/382/382 383/383/383 384/384/384
f 385/385/385 386/386/386 387/387/387
f 388/388/388 389/389/389 390/390/390
f 391/391/391 392/392/392 393/393/393
f 394/394/394 395/395/395 396/396/396
f 397/397/397 398/398/398 399/399/399
f 400/400/400 401/401/401 402/402/402
f 403/403/403 404/404/404 405/405/405
f 406/406/406 407/407/407 408/408/408
f 409/409/409 410/410/410 411/411/411
f 412/412/412 413/413/413 414/414/414
f 415/415/415 416/416/416 417/417/417
f 418/418/418 419/419/419 420/420/420
f 421/421/421 422/422/422 423/423/423
f 424/424/424 425/425/425 426/426/426
f 427/427/427 428/428/428 429/429/429
f 430/430/430 431/431/431 432/432/432
f 433/433/433 434/434/434 435/435/435
f 436/436/436 437/437/437 438/438/438
f 439/439/439 440/440/440 441/441/441
f 442/442/442 443/443/443 444/444/444
f 445/445/445 446/446/446 447/447/447
f 448/448/448 449/449/449 450/450/450
f 451/451/451 452/452/452 453/453/453
f 454/454/454 455/455/455 456/456/456
f 457/457/457 458/458/458 459/459/459
f 460/460/460 461/461/461 462/462/462
f 463/463/463 464/464/464 465/465/465
f 466/466/466 467/467/467 468/468/468
f 469/469/469 470/470/470 471/471/471
f 472/472/472 473/473/473 474/474/474
f 475/475/475 476/476/476 477/477/477
f 478/478/478 479/479/479 480/480/480
f 481/481/481 482/482/482 483/483/483
f 484/484/484 485/485/485 486/486/486
f 487/487/487 488/488/488 489/489/489
f 490/490/490 491/491/491 492/492/492
f 493/493/493 494/494/494 495/495/495
f 496/496/496 497/497/497 498/498/498
f 499/499/499 500/500/500 501/501/501
f 502/502/502 503/503/503 504/504/504
f 505/505/505 506/506/506 507/507/507
f 508/508/508 509/509/509 510/510/510
f 511/511/511 512/512/512 513/513/513
f 514/514/514 515/515/515 516/516/516
f 517/517/517 518/518/518 519/519/519
f 520/520/520 521/521/521 522/522/522
f 523/523/523 524/524/524 525/525/525
f 526/526/526 527/527/527 528/528/528
f 529/529/529 530/530/530 531/531/531
f 532/532/532 533/533/533 534/534/534
f 535/535/535 536/536/536 537/537/537
f 538/538/538 539/539/539 540/540/540
f 541/541/541 542/542/542 543/543/543
f 544/544/544 545/545/545 546/546/546
f 547/547/547 548/548/548 549/549/549
f 550/550/550 551/551/551 552/552/552
f 553/553/553 554/554/554 555/555/555
f 556/556/556 557/557/557 558/558/558
f 559/559/559 560/560/560 561/561/561
f 562/562/562 563/563/563 564/564/564
f 565/565/565 566/566/566 567/567/567
f 568/568/568 569/569/569 570/570/570
f 571/571/571 572/572/572 573/573/573
f 574/574/574 575/575/575 576/576/576
f 577/577/577 578/578/578 579/579/579
f 580/580/580 581/581/581 582/582/582
f 583/583/583 584/584/584 585/585/585
f 586/586/586 587/587/587 588/588/588
f 589/589/589 590/590/590 591/591/591
f 592/592/592 593/593/593 594/594/594
f 595/595/595 596/596/596 597/597/597
f 598/598/598 599/599/599 600/600/600
f 601/601/601 602/602/602 603/603/603
f 604/604/604 605/605/605 606/606/606
f 607/607/607 608/608/608 609/609/609
f 610/610/610 611/611/611 612/612/612
f 613/613/613 614/614/614 615/615/615
f 616/616/616 617/617/617 618/618/618
f 619/619/619 620/620/620 621/621/621
f 622/622/622 623/623/623 624/624/624
f 625/625/625 626/626/626 627/627/627
f 628/628/628 629/629/629 630/630/630
f 631/631/631 632/632/632 633/633/633
f 634/634/634 635/635/635 636/636/636
f 637/637/637 638/638/638 639/639/639
f 640/640/640 641/641/641 642/642/642
f 643/643/643 644/644/644 645/645/645
f 646/646/646 647/647/647 648/648/648
# 216 triangles in group

# 216 triangles total

