{ 
"positions": 
[[-253.3572074,241.6646405,84.05611434],
[-242.0684298,205.4195902,84.05611434],
[-227.5546695,267.3416925,84.05611434],
[-237.0903992,296.7772393,84.05611434],
[-258.3246241,308.3782874,84.05611434],
[165.2969054,72.75771612,121.6438769]
]
}