# Wavefront OBJ exported by WoW Model Viewer v0.7.0.5

mtllib generaloutpost02.mtl

v -2.481138 6.035886 -0.335535
v -2.884914 5.304888 -0.637855
v -2.964591 5.307579 0.051880
v -3.375171 6.256485 -0.447800
v -2.884914 5.304888 -0.637855
v -3.941631 5.262750 -0.942732
v -3.375171 6.256485 -0.447800
v -3.954438 5.303079 0.314187
v -2.964591 5.307579 0.051880
v -3.375171 6.256485 -0.447800
v -2.964591 5.307579 0.051880
v -2.884914 5.304888 -0.637855
v -3.375171 6.256485 -0.447800
v -3.941631 5.262750 -0.942732
v -3.954438 5.303079 0.314187
v -4.426722 6.857910 -0.352513
v -3.941631 5.262750 -0.942732
v -4.777074 5.587740 -0.655140
v -4.426722 6.857910 -0.352513
v -4.782762 5.587758 -0.100900
v -3.954438 5.303079 0.314187
v -4.426722 6.857910 -0.352513
v -3.954438 5.303079 0.314187
v -3.941631 5.262750 -0.942732
v -4.426722 6.857910 -0.352513
v -4.777074 5.587740 -0.655140
v -4.782762 5.587758 -0.100900
v 3.447279 5.873922 -0.909639
v 3.925854 7.516917 -0.324475
v 4.444470 5.363541 -0.572642
v 4.444470 5.363541 -0.572642
v 3.925854 7.516917 -0.324475
v 4.438638 5.363541 0.095382
v 4.438638 5.363541 0.095382
v 3.925854 7.516917 -0.324475
v 3.464334 5.875254 0.229784
v 3.464334 5.875254 0.229784
v 3.925854 7.516917 -0.324475
v 3.447279 5.873922 -0.909639
v 2.091060 6.175673 -0.595200
v 2.782926 6.817842 -0.334447
v 3.447279 5.873922 -0.909639
v 3.447279 5.873922 -0.909639
v 2.782926 6.817842 -0.334447
v 3.464334 5.875254 0.229784
v 3.464334 5.875254 0.229784
v 2.782926 6.817842 -0.334447
v 2.132676 5.786694 0.108904
v 2.132676 5.786694 0.108904
v 2.782926 6.817842 -0.334447
v 2.091060 6.175673 -0.595200
v 1.131030 5.753898 -0.880585
v 1.613466 6.639417 -0.344652
v 2.091060 6.175673 -0.595200
v 2.091060 6.175673 -0.595200
v 1.613466 6.639417 -0.344652
v 2.132676 5.786694 0.108904
v 2.132676 5.786694 0.108904
v 1.613466 6.639417 -0.344652
v 1.152045 5.756292 0.286145
v 1.152045 5.756292 0.286145
v 1.613466 6.639417 -0.344652
v 1.131030 5.753898 -0.880585
v -0.081865 6.180147 -0.799807
v 0.455735 7.145082 -0.354755
v 1.131030 5.753898 -0.880585
v 1.131030 5.753898 -0.880585
v 0.455735 7.145082 -0.354755
v 1.152045 5.756292 0.286145
v 1.152045 5.756292 0.286145
v 0.455735 7.145082 -0.354755
v -0.090024 6.183306 0.146373
v -0.090024 6.183306 0.146373
v 0.455735 7.145082 -0.354755
v -0.081865 6.180147 -0.799807
v -0.256497 -0.328415 -0.881833
v -1.060749 6.131574 -0.808487
v -0.081865 6.180147 -0.799807
v -1.060749 6.131574 -0.808487
v -0.256497 -0.328415 -0.881833
v -2.017620 5.299065 -0.630958
v -2.017620 5.299065 -0.630958
v -0.256497 -0.328415 -0.881833
v -4.954221 -0.313890 -0.622650
v -2.884914 5.304888 -0.637855
v -2.017620 5.299065 -0.630958
v -4.954221 -0.313890 -0.622650
v -3.941631 5.262750 -0.942732
v -2.884914 5.304888 -0.637855
v -4.954221 -0.313890 -0.622650
v -4.777074 5.587740 -0.655140
v -3.941631 5.262750 -0.942732
v -4.954221 -0.313890 -0.622650
v 1.152045 5.756292 0.286145
v -0.090024 6.183306 0.146373
v -0.266060 -0.328415 0.214404
v 2.132676 5.786694 0.108904
v 1.152045 5.756292 0.286145
v -0.266060 -0.328415 0.214404
v -0.266060 -0.328415 0.214404
v 4.615380 -0.313890 -0.052923
v 2.132676 5.786694 0.108904
v 3.464334 5.875254 0.229784
v 2.132676 5.786694 0.108904
v 4.615380 -0.313890 -0.052923
v 4.438638 5.363541 0.095382
v 3.464334 5.875254 0.229784
v 4.615380 -0.313890 -0.052923
v -0.546272 7.849800 -0.363503
v -0.081865 6.180147 -0.799807
v -1.060749 6.131574 -0.808487
v -0.546272 7.849800 -0.363503
v -1.060749 6.131574 -0.808487
v -1.058085 6.131619 0.137926
v -0.546272 7.849800 -0.363503
v -1.058085 6.131619 0.137926
v -0.090024 6.183306 0.146373
v -0.546272 7.849800 -0.363503
v -0.090024 6.183306 0.146373
v -0.081865 6.180147 -0.799807
v -1.605465 7.145091 -0.327890
v -2.016909 5.298804 0.282873
v -1.058085 6.131619 0.137926
v -1.605465 7.145091 -0.327890
v -1.060749 6.131574 -0.808487
v -2.017620 5.299065 -0.630958
v -1.605465 7.145091 -0.327890
v -1.058085 6.131619 0.137926
v -1.060749 6.131574 -0.808487
v -1.605465 7.145091 -0.327890
v -2.017620 5.299065 -0.630958
v -2.016909 5.298804 0.282873
v -2.481138 6.035886 -0.335535
v -2.017620 5.299065 -0.630958
v -2.884914 5.304888 -0.637855
v -0.081865 6.180147 -0.799807
v 1.131030 5.753898 -0.880585
v -0.256497 -0.328415 -0.881833
v 1.131030 5.753898 -0.880585
v 2.091060 6.175673 -0.595200
v -0.256497 -0.328415 -0.881833
v 4.619619 -0.313890 -0.539103
v -0.256497 -0.328415 -0.881833
v 2.091060 6.175673 -0.595200
v 2.091060 6.175673 -0.595200
v 3.447279 5.873922 -0.909639
v 4.619619 -0.313890 -0.539103
v 3.447279 5.873922 -0.909639
v 4.444470 5.363541 -0.572642
v 4.619619 -0.313890 -0.539103
v -0.090024 6.183306 0.146373
v -1.058085 6.131619 0.137926
v -0.266060 -0.328415 0.214404
v -4.958460 -0.313890 -0.136472
v -3.954438 5.303079 0.314187
v -4.782762 5.587758 -0.100900
v -3.954438 5.303079 0.314187
v -4.958460 -0.313890 -0.136472
v -2.964591 5.307579 0.051880
v -2.964591 5.307579 0.051880
v -4.958460 -0.313890 -0.136472
v -0.266060 -0.328415 0.214404
v -2.016909 5.298804 0.282873
v -2.964591 5.307579 0.051880
v -0.266060 -0.328415 0.214404
v -1.058085 6.131619 0.137926
v -2.016909 5.298804 0.282873
v -0.266060 -0.328415 0.214404
v 6.341841 5.065767 -0.003821
v 6.346673 5.065767 -0.558062
v 6.401079 -0.313890 -0.037339
v 6.346673 5.065767 -0.558062
v 6.341841 5.065767 -0.003821
v 6.824250 6.584760 -0.276753
v 6.829092 5.065767 -0.831000
v 6.828498 -0.313890 -0.762935
v 6.405327 -0.313890 -0.523517
v 7.306659 5.065767 -0.549685
v 7.247412 -0.313890 -0.516167
v 6.828498 -0.313890 -0.762935
v 6.829092 5.065767 -0.831000
v 7.306659 5.065767 -0.549685
v 6.828498 -0.313890 -0.762935
v 7.306659 5.065767 -0.549685
v 7.301826 5.065767 0.004556
v 7.247412 -0.313890 -0.516167
v 7.301826 5.065767 0.004556
v 7.306659 5.065767 -0.549685
v 6.824250 6.584760 -0.276753
v 7.306659 5.065767 -0.549685
v 6.829092 5.065767 -0.831000
v 6.824250 6.584760 -0.276753
v 6.829092 5.065767 -0.831000
v 6.346673 5.065767 -0.558062
v 6.824250 6.584760 -0.276753
v 6.346673 5.065767 -0.558062
v 6.829092 5.065767 -0.831000
v 6.405327 -0.313890 -0.523517
v 6.346673 5.065767 -0.558062
v 6.405327 -0.313890 -0.523517
v 6.401079 -0.313890 -0.037339
v 6.819417 5.065767 0.277487
v 6.820002 -0.313890 0.209425
v 7.243173 -0.313890 -0.029991
v 6.819417 5.065767 0.277487
v 6.341841 5.065767 -0.003821
v 6.820002 -0.313890 0.209425
v 6.341841 5.065767 -0.003821
v 6.401079 -0.313890 -0.037339
v 6.820002 -0.313890 0.209425
v 6.341841 5.065767 -0.003821
v 6.819417 5.065767 0.277487
v 6.824250 6.584760 -0.276753
v 6.819417 5.065767 0.277487
v 7.301826 5.065767 0.004556
v 6.824250 6.584760 -0.276753
v 7.301826 5.065767 0.004556
v 6.819417 5.065767 0.277487
v 7.243173 -0.313890 -0.029991
v 7.301826 5.065767 0.004556
v 7.243173 -0.313890 -0.029991
v 7.247412 -0.313890 -0.516167
v -4.782762 5.587758 -0.100900
v -4.777074 5.587740 -0.655140
v -5.260896 6.423831 -0.382220
v -5.738472 5.363541 -0.663530
v -5.743314 5.363541 -0.109286
v -5.260896 6.423831 -0.382220
v -5.256063 5.363541 -0.936459
v -5.738472 5.363541 -0.663530
v -5.260896 6.423831 -0.382220
v -4.777074 5.587740 -0.655140
v -5.256063 5.363541 -0.936459
v -5.260896 6.423831 -0.382220
v -5.743314 5.363541 -0.109286
v -5.265738 5.363541 0.172025
v -5.260896 6.423831 -0.382220
v -5.265738 5.363541 0.172025
v -4.782762 5.587758 -0.100900
v -5.260896 6.423831 -0.382220
v -4.958460 -0.313890 -0.136472
v -4.782762 5.587758 -0.100900
v -5.381631 -0.313890 0.102943
v -4.782762 5.587758 -0.100900
v -5.265738 5.363541 0.172025
v -5.381631 -0.313890 0.102943
v -5.381631 -0.313890 0.102943
v -5.265738 5.363541 0.172025
v -5.800554 -0.313890 -0.143821
v -5.265738 5.363541 0.172025
v -5.743314 5.363541 -0.109286
v -5.800554 -0.313890 -0.143821
v -5.800554 -0.313890 -0.143821
v -5.743314 5.363541 -0.109286
v -5.796306 -0.313890 -0.630000
v -5.743314 5.363541 -0.109286
v -5.738472 5.363541 -0.663530
v -5.796306 -0.313890 -0.630000
v -5.796306 -0.313890 -0.630000
v -5.738472 5.363541 -0.663530
v -5.373144 -0.313890 -0.869415
v -5.738472 5.363541 -0.663530
v -5.256063 5.363541 -0.936459
v -5.373144 -0.313890 -0.869415
v -5.373144 -0.313890 -0.869415
v -5.256063 5.363541 -0.936459
v -4.954221 -0.313890 -0.622650
v -5.256063 5.363541 -0.936459
v -4.777074 5.587740 -0.655140
v -4.954221 -0.313890 -0.622650
v 4.444470 5.363541 -0.572642
v 4.438638 5.363541 0.095382
v 4.922064 6.423831 -0.293352
v 4.438638 5.363541 0.095382
v 4.917222 5.363541 0.260890
v 4.922064 6.423831 -0.293352
v 4.917222 5.363541 0.260890
v 5.399631 5.363541 -0.012044
v 4.922064 6.423831 -0.293352
v 5.399631 5.363541 -0.012044
v 5.404464 5.363541 -0.566287
v 4.922064 6.423831 -0.293352
v 5.404464 5.363541 -0.566287
v 4.926897 5.363541 -0.847597
v 4.922064 6.423831 -0.293352
v 4.926897 5.363541 -0.847597
v 4.444470 5.363541 -0.572642
v 4.922064 6.423831 -0.293352
v 4.444470 5.363541 -0.572642
v 4.926897 5.363541 -0.847597
v 4.619619 -0.313890 -0.539103
v 4.926897 5.363541 -0.847597
v 5.042790 -0.313890 -0.778515
v 4.619619 -0.313890 -0.539103
v 4.926897 5.363541 -0.847597
v 5.404464 5.363541 -0.566287
v 5.042790 -0.313890 -0.778515
v 5.404464 5.363541 -0.566287
v 5.461704 -0.313890 -0.531755
v 5.042790 -0.313890 -0.778515
v 5.404464 5.363541 -0.566287
v 5.399631 5.363541 -0.012044
v 5.461704 -0.313890 -0.531755
v 5.399631 5.363541 -0.012044
v 5.457465 -0.313890 -0.045574
v 5.461704 -0.313890 -0.531755
v 5.399631 5.363541 -0.012044
v 4.917222 5.363541 0.260890
v 5.457465 -0.313890 -0.045574
v 4.917222 5.363541 0.260890
v 5.034303 -0.313890 0.193841
v 5.457465 -0.313890 -0.045574
v 4.917222 5.363541 0.260890
v 4.438638 5.363541 0.095382
v 5.034303 -0.313890 0.193841
v 4.438638 5.363541 0.095382
v 4.615380 -0.313890 -0.052923
v 5.034303 -0.313890 0.193841
v -6.685524 5.065767 -0.117509
v -6.680682 5.065767 -0.671753
v -7.163091 6.584760 -0.398818
v -6.744168 -0.313890 -0.152056
v -6.685524 5.065767 -0.117509
v -7.167330 -0.313890 0.087360
v -6.685524 5.065767 -0.117509
v -7.167924 5.065767 0.155425
v -7.167330 -0.313890 0.087360
v -7.645500 5.065767 -0.125886
v -7.167924 5.065767 0.155425
v -7.163091 6.584760 -0.398818
v -7.167924 5.065767 0.155425
v -6.685524 5.065767 -0.117509
v -7.163091 6.584760 -0.398818
v -7.640658 5.065767 -0.680130
v -7.645500 5.065767 -0.125886
v -7.163091 6.584760 -0.398818
v -7.158258 5.065767 -0.953064
v -7.640658 5.065767 -0.680130
v -7.163091 6.584760 -0.398818
v -6.680682 5.065767 -0.671753
v -7.158258 5.065767 -0.953064
v -7.163091 6.584760 -0.398818
v -7.167330 -0.313890 0.087360
v -7.167924 5.065767 0.155425
v -7.586262 -0.313890 -0.159404
v -7.167924 5.065767 0.155425
v -7.645500 5.065767 -0.125886
v -7.586262 -0.313890 -0.159404
v -7.586262 -0.313890 -0.159404
v -7.645500 5.065767 -0.125886
v -7.582014 -0.313890 -0.645585
v -7.645500 5.065767 -0.125886
v -7.640658 5.065767 -0.680130
v -7.582014 -0.313890 -0.645585
v -7.582014 -0.313890 -0.645585
v -7.640658 5.065767 -0.680130
v -7.158852 -0.313890 -0.885000
v -7.640658 5.065767 -0.680130
v -7.158258 5.065767 -0.953064
v -7.158852 -0.313890 -0.885000
v -7.158852 -0.313890 -0.885000
v -7.158258 5.065767 -0.953064
v -6.739929 -0.313890 -0.638232
v -7.158258 5.065767 -0.953064
v -6.680682 5.065767 -0.671753
v -6.739929 -0.313890 -0.638232
v -6.739929 -0.313890 -0.638232
v -6.680682 5.065767 -0.671753
v -6.744168 -0.313890 -0.152056
v -6.680682 5.065767 -0.671753
v -6.685524 5.065767 -0.117509
v -6.744168 -0.313890 -0.152056
v -5.748147 5.363541 0.444955
v -5.743314 5.363541 -0.109286
v -6.210117 7.380539 0.412657
v -5.800554 -0.313890 -0.143821
v -5.748147 5.363541 0.444955
v -6.223716 -0.313890 0.095594
v -5.748147 5.363541 0.444955
v -6.208344 5.219199 0.718085
v -6.223716 -0.313890 0.095594
v -6.663699 5.074857 0.436967
v -6.208344 5.219199 0.718085
v -6.210117 7.380539 0.412657
v -6.208344 5.219199 0.718085
v -5.748147 5.363541 0.444955
v -6.210117 7.380539 0.412657
v -6.685524 5.065767 -0.117509
v -6.663699 5.074857 0.436967
v -6.210117 7.380539 0.412657
v -6.198669 5.219199 -0.390403
v -6.685524 5.065767 -0.117509
v -6.210117 7.380539 0.412657
v -5.743314 5.363541 -0.109286
v -6.198669 5.219199 -0.390403
v -6.210117 7.380539 0.412657
v -6.223716 -0.313890 0.095594
v -6.208344 5.219199 0.718085
v -6.744168 -0.313890 -0.152056
v -6.208344 5.219199 0.718085
v -6.663699 5.074857 0.436967
v -6.744168 -0.313890 -0.152056
v -6.744168 -0.313890 -0.152056
v -6.663699 5.074857 0.436967
v -6.739929 -0.313890 -0.638232
v -6.663699 5.074857 0.436967
v -6.685524 5.065767 -0.117509
v -6.739929 -0.313890 -0.638232
v -6.739929 -0.313890 -0.638232
v -6.685524 5.065767 -0.117509
v -6.215238 -0.313890 -0.876763
v -6.685524 5.065767 -0.117509
v -6.198669 5.219199 -0.390403
v -6.215238 -0.313890 -0.876763
v -6.215238 -0.313890 -0.876763
v -6.198669 5.219199 -0.390403
v -5.796306 -0.313890 -0.630000
v -6.198669 5.219199 -0.390403
v -5.743314 5.363541 -0.109286
v -5.796306 -0.313890 -0.630000
v -5.796306 -0.313890 -0.630000
v -5.743314 5.363541 -0.109286
v -5.800554 -0.313890 -0.143821
v -5.743314 5.363541 -0.109286
v -5.748147 5.363541 0.444955
v -5.800554 -0.313890 -0.143821
v 5.394789 5.363541 0.542198
v 5.399631 5.363541 -0.012044
v 5.457465 -0.313890 -0.045574
v 5.399631 5.363541 -0.012044
v 5.461704 -0.313890 -0.531755
v 5.457465 -0.313890 -0.045574
v 6.341841 5.065767 -0.003821
v 5.859828 5.219199 -0.285170
v 5.857254 6.064902 0.517967
v 5.859828 5.219199 -0.285170
v 5.399631 5.363541 -0.012044
v 5.857254 6.064902 0.517967
v 5.399631 5.363541 -0.012044
v 5.394789 5.363541 0.542198
v 5.857254 6.064902 0.517967
v 5.394789 5.363541 0.542198
v 5.848803 5.219199 0.976932
v 5.857254 6.064902 0.517967
v 5.848803 5.219199 0.976932
v 6.309000 5.074848 0.703805
v 5.857254 6.064902 0.517967
v 6.309000 5.074848 0.703805
v 6.341841 5.065767 -0.003821
v 5.857254 6.064902 0.517967
v 5.399631 5.363541 -0.012044
v 5.859828 5.219199 -0.285170
v 5.461704 -0.313890 -0.531755
v 5.859828 5.219199 -0.285170
v 5.884875 -0.313890 -0.771168
v 5.461704 -0.313890 -0.531755
v 5.859828 5.219199 -0.285170
v 6.341841 5.065767 -0.003821
v 5.884875 -0.313890 -0.771168
v 6.341841 5.065767 -0.003821
v 6.405327 -0.313890 -0.523517
v 5.884875 -0.313890 -0.771168
v 6.341841 5.065767 -0.003821
v 6.309000 5.074848 0.703805
v 6.405327 -0.313890 -0.523517
v 6.309000 5.074848 0.703805
v 6.401079 -0.313890 -0.037339
v 6.405327 -0.313890 -0.523517
v 6.309000 5.074848 0.703805
v 5.848803 5.219199 0.976932
v 6.401079 -0.313890 -0.037339
v 5.848803 5.219199 0.976932
v 5.876388 -0.313890 0.201190
v 6.401079 -0.313890 -0.037339
v 5.848803 5.219199 0.976932
v 5.394789 5.363541 0.542198
v 5.876388 -0.313890 0.201190
v 5.394789 5.363541 0.542198
v 5.457465 -0.313890 -0.045574
v 5.876388 -0.313890 0.201190
v -2.481138 6.035886 -0.335535
v -2.964591 5.307579 0.051880
v -2.016909 5.298804 0.282873
v -2.481138 6.035886 -0.335535
v -2.016909 5.298804 0.282873
v -2.017620 5.299065 -0.630958
# 486 vertices

vt 0.387162 1.000000
vt 0.486365 0.882560
vt 0.272138 0.882560
vt 0.612597 1.000000
vt 0.480934 0.874396
vt 0.759983 0.874396
vt 0.649758 1.000000
vt 0.757125 0.870108
vt 0.494083 0.872967
vt 0.649758 1.000000
vt 0.765700 0.874396
vt 0.485507 0.874396
vt 0.649758 1.000000
vt 0.765700 0.874396
vt 0.485507 0.874396
vt 0.867150 1.000000
vt 0.756039 0.874396
vt 0.973430 0.874396
vt 0.891304 1.000000
vt 0.978261 0.874396
vt 0.756039 0.874396
vt 0.891304 1.000000
vt 0.978261 0.874396
vt 0.768116 0.874396
vt 0.891304 1.000000
vt 0.978261 0.874396
vt 0.768116 0.874396
vt 0.763471 0.874396
vt 0.850427 1.000000
vt 0.975474 0.874396
vt 0.978261 0.874396
vt 0.891304 1.000000
vt 0.768116 0.874396
vt 0.978261 0.874396
vt 0.891304 1.000000
vt 0.768116 0.874396
vt 0.978261 0.874396
vt 0.891304 1.000000
vt 0.768116 0.874396
vt 0.481172 0.874396
vt 0.597114 1.000000
vt 0.761365 0.874396
vt 0.765700 0.874396
vt 0.649758 1.000000
vt 0.485507 0.874396
vt 0.765700 0.874396
vt 0.649758 1.000000
vt 0.485507 0.874396
vt 0.765700 0.874396
vt 0.649758 1.000000
vt 0.485507 0.874396
vt 0.269793 0.882560
vt 0.359706 1.000000
vt 0.474730 0.882560
vt 0.486365 0.882560
vt 0.387162 1.000000
vt 0.272138 0.882560
vt 0.486365 0.882560
vt 0.387162 1.000000
vt 0.272138 0.882560
vt 0.486365 0.882560
vt 0.387162 1.000000
vt 0.272138 0.882560
vt 0.008423 0.879227
vt 0.144989 1.000000
vt 0.265762 0.876812
vt 0.274247 0.879227
vt 0.137681 1.000000
vt 0.012077 0.879227
vt 0.274247 0.879227
vt 0.137681 1.000000
vt 0.012077 0.879227
vt 0.274247 0.879227
vt 0.137681 1.000000
vt 0.012077 0.879227
vt -0.254455 0.012804
vt 0.000675 0.878026
vt -0.255959 0.878094
vt 0.000675 0.878026
vt -0.254455 0.012804
vt 0.251781 0.877961
vt 0.251781 0.877961
vt -0.254455 0.012804
vt 0.986906 0.012481
vt 0.479389 0.877901
vt 0.251781 0.877961
vt 0.986906 0.012481
vt 0.757447 0.877828
vt 0.479389 0.877901
vt 0.986906 0.012481
vt 0.976434 0.877770
vt 0.757447 0.877828
vt 0.986906 0.012481
vt 0.274779 0.878005
vt 0.009380 0.878094
vt 0.010883 0.012804
vt 0.483993 0.877935
vt 0.274779 0.878005
vt 0.010883 0.012804
vt 0.010883 0.012804
vt 0.986906 0.012481
vt 0.483993 0.877935
vt 0.768655 0.877840
vt 0.483993 0.877935
vt 0.986906 0.012481
vt 0.976434 0.877770
vt 0.768655 0.877840
vt 0.986906 0.012481
vt 0.867150 1.000000
vt 0.743961 0.874396
vt 1.000000 0.871981
vt 0.891304 1.000000
vt 0.978261 0.874396
vt 0.768116 0.874396
vt 0.891304 1.000000
vt 1.000000 0.869565
vt 0.743961 0.871981
vt 0.891304 1.000000
vt 0.978261 0.874396
vt 0.768116 0.874396
vt 0.122602 1.000000
vt 0.250007 0.879227
vt -0.000443 0.879227
vt 0.129534 1.000000
vt 0.002130 0.881642
vt 0.252580 0.881642
vt 0.110525 1.000000
vt 0.211360 0.879227
vt 0.009219 0.879227
vt 0.110525 1.000000
vt 0.211360 0.879227
vt 0.009219 0.879227
vt 0.345027 1.000000
vt 0.249541 0.882560
vt 0.478632 0.882560
vt 0.009380 0.878094
vt 0.268258 0.878007
vt 0.010883 0.012804
vt 0.268258 0.878007
vt 0.474006 0.877938
vt 0.010883 0.012804
vt 0.986906 0.012481
vt 0.010883 0.012804
vt 0.474006 0.877938
vt 0.474006 0.877938
vt 0.762849 0.877842
vt 0.986906 0.012481
vt 0.762849 0.877842
vt 0.976434 0.877770
vt 0.986906 0.012481
vt -0.255959 0.878094
vt -0.001858 0.878027
vt -0.254455 0.012804
vt 0.986906 0.012481
vt 0.757849 0.877828
vt 0.976434 0.877770
vt 0.757849 0.877828
vt 0.986906 0.012481
vt 0.498737 0.877896
vt 0.498737 0.877896
vt 0.986906 0.012481
vt -0.254455 0.012804
vt 0.249464 0.877961
vt 0.498737 0.877896
vt -0.254455 0.012804
vt -0.001858 0.878027
vt 0.249464 0.877961
vt -0.254455 0.012804
vt 0.017565 0.866573
vt 0.098598 0.866573
vt 0.025542 0.108910
vt 0.098598 0.866573
vt 0.017565 0.866573
vt 0.119920 0.988655
vt 0.166317 0.866573
vt 0.168750 0.108910
vt 0.103554 0.108910
vt 0.234036 0.866573
vt 0.233945 0.108910
vt 0.168750 0.108910
vt 0.166317 0.866573
vt 0.234036 0.866573
vt 0.168750 0.108910
vt 0.234036 0.866573
vt 0.161618 0.866573
vt 0.233945 0.108910
vt 0.161618 0.866573
vt 0.234036 0.866573
vt 0.119920 0.988655
vt 0.234036 0.866573
vt 0.166317 0.866573
vt 0.119920 0.988655
vt 0.166317 0.866573
vt 0.098598 0.866573
vt 0.119920 0.988655
vt 0.098598 0.866573
vt 0.166317 0.866573
vt 0.103554 0.108910
vt 0.098598 0.866573
vt 0.103554 0.108910
vt 0.025542 0.108910
vt 0.093898 0.866573
vt 0.099030 0.108910
vt 0.164226 0.108910
vt 0.093898 0.866573
vt 0.026179 0.866573
vt 0.099030 0.108910
vt 0.026179 0.866573
vt 0.033835 0.108910
vt 0.099030 0.108910
vt 0.026179 0.866573
vt 0.093898 0.866573
vt 0.119920 0.988655
vt 0.093898 0.866573
vt 0.161618 0.866573
vt 0.119920 0.988655
vt 0.161618 0.866573
vt 0.093898 0.866573
vt 0.164226 0.108910
vt 0.161618 0.866573
vt 0.164226 0.108910
vt 0.233945 0.108910
vt 0.485487 0.866573
vt 0.586777 0.866573
vt 0.615846 0.993486
vt 0.756075 0.866573
vt 0.665552 0.866573
vt 0.615846 0.993486
vt 0.671426 0.866573
vt 0.756075 0.866573
vt 0.615846 0.993486
vt 0.586777 0.866573
vt 0.671426 0.866573
vt 0.615846 0.993486
vt 0.665552 0.866573
vt 0.580903 0.866573
vt 0.615846 0.993486
vt 0.580903 0.866573
vt 0.496254 0.866573
vt 0.615846 0.993486
vt 0.505823 0.009876
vt 0.496254 0.866573
vt 0.587318 0.009876
vt 0.496254 0.866573
vt 0.580903 0.866573
vt 0.587318 0.009876
vt 0.587318 0.009876
vt 0.580903 0.866573
vt 0.668812 0.009876
vt 0.580903 0.866573
vt 0.665552 0.866573
vt 0.668812 0.009876
vt 0.668812 0.009876
vt 0.665552 0.866573
vt 0.755961 0.009876
vt 0.665552 0.866573
vt 0.756075 0.866573
vt 0.755961 0.009876
vt 0.755961 0.009876
vt 0.756075 0.866573
vt 0.674467 0.009876
vt 0.756075 0.866573
vt 0.671426 0.866573
vt 0.674467 0.009876
vt 0.674467 0.009876
vt 0.671426 0.866573
vt 0.592973 0.009876
vt 0.671426 0.866573
vt 0.586777 0.866573
vt 0.592973 0.009876
vt 0.586777 0.866573
vt 0.485487 0.866573
vt 0.613430 0.986240
vt 0.496254 0.866573
vt 0.580903 0.866573
vt 0.613430 0.986240
vt 0.580903 0.866573
vt 0.665552 0.866573
vt 0.613430 0.986240
vt 0.665552 0.866573
vt 0.756075 0.866573
vt 0.613430 0.986240
vt 0.756075 0.866573
vt 0.671426 0.866573
vt 0.613430 0.986240
vt 0.671426 0.866573
vt 0.586777 0.866573
vt 0.613430 0.986240
vt 0.586777 0.866573
vt 0.671426 0.866573
vt 0.592973 0.009876
vt 0.671426 0.866573
vt 0.674467 0.009876
vt 0.592973 0.009876
vt 0.671426 0.866573
vt 0.756075 0.866573
vt 0.674467 0.009876
vt 0.756075 0.866573
vt 0.755961 0.009876
vt 0.674467 0.009876
vt 0.756075 0.866573
vt 0.665552 0.866573
vt 0.755961 0.009876
vt 0.665552 0.866573
vt 0.668812 0.009876
vt 0.755961 0.009876
vt 0.665552 0.866573
vt 0.580903 0.866573
vt 0.668812 0.009876
vt 0.580903 0.866573
vt 0.587318 0.009876
vt 0.668812 0.009876
vt 0.580903 0.866573
vt 0.496254 0.866573
vt 0.587318 0.009876
vt 0.496254 0.866573
vt 0.505823 0.009876
vt 0.587318 0.009876
vt 0.017565 0.866573
vt 0.098598 0.866573
vt 0.119920 0.988655
vt 0.033835 0.094417
vt 0.026179 0.866573
vt 0.099030 0.094417
vt 0.026179 0.866573
vt 0.093898 0.866573
vt 0.099030 0.094417
vt 0.161618 0.866573
vt 0.093898 0.866573
vt 0.119920 0.988655
vt 0.093898 0.866573
vt 0.026179 0.866573
vt 0.119920 0.988655
vt 0.234036 0.866573
vt 0.161618 0.866573
vt 0.119920 0.988655
vt 0.166317 0.866573
vt 0.234036 0.866573
vt 0.119920 0.988655
vt 0.098598 0.866573
vt 0.166317 0.866573
vt 0.119920 0.988655
vt 0.099030 0.094417
vt 0.093898 0.866573
vt 0.164226 0.094417
vt 0.093898 0.866573
vt 0.161618 0.866573
vt 0.164226 0.094417
vt 0.164226 0.094417
vt 0.161618 0.866573
vt 0.233945 0.094417
vt 0.161618 0.866573
vt 0.234036 0.866573
vt 0.233945 0.094417
vt 0.233945 0.094417
vt 0.234036 0.866573
vt 0.168750 0.094417
vt 0.234036 0.866573
vt 0.166317 0.866573
vt 0.168750 0.094417
vt 0.168750 0.094417
vt 0.166317 0.866573
vt 0.103554 0.094417
vt 0.166317 0.866573
vt 0.098598 0.866573
vt 0.103554 0.094417
vt 0.103554 0.094417
vt 0.098598 0.866573
vt 0.025542 0.094417
vt 0.098598 0.866573
vt 0.017565 0.866573
vt 0.025542 0.094417
vt 0.250771 0.866573
vt 0.335045 0.866573
vt 0.357220 0.988655
vt 0.259066 0.094417
vt 0.259730 0.866573
vt 0.330259 0.094417
vt 0.259730 0.866573
vt 0.330157 0.866573
vt 0.330259 0.094417
vt 0.400585 0.866573
vt 0.330157 0.866573
vt 0.357220 0.988655
vt 0.330157 0.866573
vt 0.259730 0.866573
vt 0.357220 0.988655
vt 0.475900 0.866573
vt 0.400585 0.866573
vt 0.357220 0.988655
vt 0.405472 0.866573
vt 0.475900 0.866573
vt 0.357220 0.988655
vt 0.335045 0.866573
vt 0.405472 0.866573
vt 0.357220 0.988655
vt 0.330259 0.094417
vt 0.330157 0.866573
vt 0.401453 0.094417
vt 0.330157 0.866573
vt 0.400585 0.866573
vt 0.401453 0.094417
vt 0.401453 0.094417
vt 0.400585 0.866573
vt 0.477586 0.094417
vt 0.400585 0.866573
vt 0.475900 0.866573
vt 0.477586 0.094417
vt 0.477586 0.094417
vt 0.475900 0.866573
vt 0.406393 0.094417
vt 0.475900 0.866573
vt 0.405472 0.866573
vt 0.406393 0.094417
vt 0.406393 0.094417
vt 0.405472 0.866573
vt 0.335200 0.094417
vt 0.405472 0.866573
vt 0.335045 0.866573
vt 0.335200 0.094417
vt 0.335200 0.094417
vt 0.335045 0.866573
vt 0.250010 0.094417
vt 0.335045 0.866573
vt 0.250771 0.866573
vt 0.250010 0.094417
vt 0.250771 0.866573
vt 0.335045 0.866573
vt 0.250010 0.108910
vt 0.335045 0.866573
vt 0.335200 0.108910
vt 0.250010 0.108910
vt 0.475900 0.866573
vt 0.405472 0.866573
vt 0.357220 0.988655
vt 0.405472 0.866573
vt 0.335045 0.866573
vt 0.357220 0.988655
vt 0.335045 0.866573
vt 0.250771 0.866573
vt 0.357220 0.988655
vt 0.259730 0.866573
vt 0.330157 0.866573
vt 0.357220 0.988655
vt 0.330157 0.866573
vt 0.400585 0.866573
vt 0.357220 0.988655
vt 0.400585 0.866573
vt 0.475900 0.866573
vt 0.357220 0.988655
vt 0.335045 0.866573
vt 0.405472 0.866573
vt 0.335200 0.108910
vt 0.405472 0.866573
vt 0.406393 0.108910
vt 0.335200 0.108910
vt 0.405472 0.866573
vt 0.475900 0.866573
vt 0.406393 0.108910
vt 0.475900 0.866573
vt 0.477586 0.108910
vt 0.406393 0.108910
vt 0.475900 0.866573
vt 0.400585 0.866573
vt 0.477586 0.108910
vt 0.400585 0.866573
vt 0.401453 0.108910
vt 0.477586 0.108910
vt 0.400585 0.866573
vt 0.330157 0.866573
vt 0.401453 0.108910
vt 0.330157 0.866573
vt 0.330259 0.108910
vt 0.401453 0.108910
vt 0.330157 0.866573
vt 0.259730 0.866573
vt 0.330259 0.108910
vt 0.259730 0.866573
vt 0.259066 0.108910
vt 0.330259 0.108910
vt 0.387162 1.000000
vt 0.500657 0.879702
vt 0.252128 0.879702
vt 0.387162 1.000000
vt 0.486365 0.882560
vt 0.272138 0.882560
# 486 texture coordinates

vn -0.109454 0.989528 0.094095
vn -0.917922 0.370315 -0.142428
vn 0.928579 0.371131 -0.001425
vn -0.009195 0.963275 -0.268359
vn -0.917922 0.370315 -0.142428
vn -0.946203 0.322812 -0.022179
vn -0.009195 0.963275 -0.268359
vn 0.920850 0.385115 0.061003
vn 0.928579 0.371131 -0.001425
vn -0.009195 0.963275 -0.268359
vn 0.928579 0.371131 -0.001425
vn -0.917922 0.370315 -0.142428
vn -0.009195 0.963275 -0.268359
vn -0.946203 0.322812 -0.022179
vn 0.920850 0.385115 0.061003
vn -0.040820 0.889189 0.455715
vn -0.946203 0.322812 -0.022179
vn -0.923834 0.380282 -0.043783
vn -0.040820 0.889189 0.455715
vn 0.945918 0.314319 -0.080262
vn 0.920850 0.385115 0.061003
vn -0.040820 0.889189 0.455715
vn 0.920850 0.385115 0.061003
vn -0.946203 0.322812 -0.022179
vn -0.040820 0.889189 0.455715
vn -0.923834 0.380282 -0.043783
vn 0.945918 0.314319 -0.080262
vn -0.931281 0.359546 -0.058668
vn 0.055914 0.815643 -0.575847
vn -0.941573 0.334094 0.042683
vn -0.941573 0.334094 0.042683
vn 0.055914 0.815643 -0.575847
vn 0.954629 0.261553 0.142386
vn 0.954629 0.261553 0.142386
vn 0.055914 0.815643 -0.575847
vn 0.933182 0.359281 -0.009379
vn 0.933182 0.359281 -0.009379
vn 0.055914 0.815643 -0.575847
vn -0.931281 0.359546 -0.058668
vn -0.891513 0.452331 -0.024516
vn 0.172821 0.983854 0.046524
vn -0.931281 0.359546 -0.058668
vn -0.931281 0.359546 -0.058668
vn 0.172821 0.983854 0.046524
vn 0.933182 0.359281 -0.009379
vn 0.933182 0.359281 -0.009379
vn 0.172821 0.983854 0.046524
vn 0.932366 0.359660 -0.036592
vn 0.932366 0.359660 -0.036592
vn 0.172821 0.983854 0.046524
vn -0.891513 0.452331 -0.024516
vn -0.902271 0.421495 -0.090829
vn 0.131909 0.991164 -0.013924
vn -0.891513 0.452331 -0.024516
vn -0.891513 0.452331 -0.024516
vn 0.131909 0.991164 -0.013924
vn 0.932366 0.359660 -0.036592
vn 0.932366 0.359660 -0.036592
vn 0.131909 0.991164 -0.013924
vn 0.893894 0.443456 -0.065583
vn 0.893894 0.443456 -0.065583
vn 0.131909 0.991164 -0.013924
vn -0.902271 0.421495 -0.090829
vn -0.939137 0.342542 -0.026220
vn -0.028216 0.996030 -0.084426
vn -0.902271 0.421495 -0.090829
vn -0.902271 0.421495 -0.090829
vn -0.028216 0.996030 -0.084426
vn 0.893894 0.443456 -0.065583
vn 0.893894 0.443456 -0.065583
vn -0.028216 0.996030 -0.084426
vn 0.931223 0.364451 -0.000459
vn 0.931223 0.364451 -0.000459
vn -0.028216 0.996030 -0.084426
vn -0.939137 0.342542 -0.026220
vn -0.999853 -0.001525 -0.017051
vn -0.940855 0.303791 0.150009
vn -0.939137 0.342542 -0.026220
vn -0.940855 0.303791 0.150009
vn -0.999853 -0.001525 -0.017051
vn -0.952305 0.271071 0.140125
vn -0.952305 0.271071 0.140125
vn -0.999853 -0.001525 -0.017051
vn -0.986373 -0.021090 -0.163167
vn -0.917922 0.370315 -0.142428
vn -0.952305 0.271071 0.140125
vn -0.986373 -0.021090 -0.163167
vn -0.946203 0.322812 -0.022179
vn -0.917922 0.370315 -0.142428
vn -0.986373 -0.021090 -0.163167
vn -0.923834 0.380282 -0.043783
vn -0.946203 0.322812 -0.022179
vn -0.986373 -0.021090 -0.163167
vn 0.893894 0.443456 -0.065583
vn 0.931223 0.364451 -0.000459
vn 0.999851 -0.014244 0.009767
vn 0.932366 0.359660 -0.036592
vn 0.893894 0.443456 -0.065583
vn 0.999851 -0.014244 0.009767
vn 0.999851 -0.014244 0.009767
vn 0.993746 -0.032550 0.106818
vn 0.932366 0.359660 -0.036592
vn 0.933182 0.359281 -0.009379
vn 0.932366 0.359660 -0.036592
vn 0.993746 -0.032550 0.106818
vn 0.954629 0.261553 0.142386
vn 0.933182 0.359281 -0.009379
vn 0.993746 -0.032550 0.106818
vn 0.000102 0.999800 0.020018
vn -0.939137 0.342542 -0.026220
vn -0.940855 0.303791 0.150009
vn 0.000102 0.999800 0.020018
vn -0.940855 0.303791 0.150009
vn 0.937924 0.345158 0.034116
vn 0.000102 0.999800 0.020018
vn 0.937924 0.345158 0.034116
vn 0.931223 0.364451 -0.000459
vn 0.000102 0.999800 0.020018
vn 0.931223 0.364451 -0.000459
vn -0.939137 0.342542 -0.026220
vn 0.016957 0.897779 0.440120
vn 0.908808 0.391308 0.144725
vn 0.937924 0.345158 0.034116
vn 0.016957 0.897779 0.440120
vn -0.940855 0.303791 0.150009
vn -0.952305 0.271071 0.140125
vn 0.016957 0.897779 0.440120
vn 0.937924 0.345158 0.034116
vn -0.940855 0.303791 0.150009
vn 0.016957 0.897779 0.440120
vn -0.952305 0.271071 0.140125
vn 0.908808 0.391308 0.144725
vn -0.109454 0.989528 0.094095
vn -0.952305 0.271071 0.140125
vn -0.917922 0.370315 -0.142428
vn -0.939137 0.342542 -0.026220
vn -0.902271 0.421495 -0.090829
vn -0.999853 -0.001525 -0.017051
vn -0.902271 0.421495 -0.090829
vn -0.891513 0.452331 -0.024516
vn -0.999853 -0.001525 -0.017051
vn -0.983651 -0.025922 0.178213
vn -0.999853 -0.001525 -0.017051
vn -0.891513 0.452331 -0.024516
vn -0.891513 0.452331 -0.024516
vn -0.931281 0.359546 -0.058668
vn -0.983651 -0.025922 0.178213
vn -0.931281 0.359546 -0.058668
vn -0.941573 0.334094 0.042683
vn -0.983651 -0.025922 0.178213
vn 0.931223 0.364451 -0.000459
vn 0.937924 0.345158 0.034116
vn 0.999851 -0.014244 0.009767
vn 0.997433 -0.037917 -0.060745
vn 0.920850 0.385115 0.061003
vn 0.945918 0.314319 -0.080262
vn 0.920850 0.385115 0.061003
vn 0.997433 -0.037917 -0.060745
vn 0.928579 0.371131 -0.001425
vn 0.928579 0.371131 -0.001425
vn 0.997433 -0.037917 -0.060745
vn 0.999851 -0.014244 0.009767
vn 0.908808 0.391308 0.144725
vn 0.928579 0.371131 -0.001425
vn 0.999851 -0.014244 0.009767
vn 0.937924 0.345158 0.034116
vn 0.908808 0.391308 0.144725
vn 0.999851 -0.014244 0.009767
vn 0.142669 0.989227 0.032786
vn -0.399852 0.131996 0.907026
vn 0.969336 -0.093384 0.227305
vn -0.399852 0.131996 0.907026
vn 0.142669 0.989227 0.032786
vn 0.000000 1.000000 -0.000005
vn -0.985433 0.131996 0.107229
vn -0.980218 -0.012424 -0.197531
vn -0.985311 0.031246 -0.167888
vn -0.585580 0.131995 -0.799796
vn -0.319044 -0.012423 -0.947659
vn -0.980218 -0.012424 -0.197531
vn -0.985433 0.131996 0.107229
vn -0.585580 0.131995 -0.799796
vn -0.980218 -0.012424 -0.197531
vn -0.585580 0.131995 -0.799796
vn 0.399851 0.131995 -0.907026
vn -0.319044 -0.012423 -0.947659
vn 0.399851 0.131995 -0.907026
vn -0.585580 0.131995 -0.799796
vn 0.000000 1.000000 -0.000005
vn -0.585580 0.131995 -0.799796
vn -0.985433 0.131996 0.107229
vn 0.000000 1.000000 -0.000005
vn -0.985433 0.131996 0.107229
vn -0.399852 0.131996 0.907026
vn 0.000000 1.000000 -0.000005
vn -0.399852 0.131996 0.907026
vn -0.985433 0.131996 0.107229
vn -0.985311 0.031246 -0.167888
vn -0.399852 0.131996 0.907026
vn -0.985311 0.031246 -0.167888
vn 0.969336 -0.093384 0.227305
vn 0.985433 0.131995 -0.107233
vn 0.980219 -0.012424 0.197527
vn 0.661174 -0.012424 -0.750130
vn 0.985433 0.131995 -0.107233
vn 0.142669 0.989227 0.032786
vn 0.980219 -0.012424 0.197527
vn 0.142669 0.989227 0.032786
vn 0.969336 -0.093384 0.227305
vn 0.980219 -0.012424 0.197527
vn 0.142669 0.989227 0.032786
vn 0.985433 0.131995 -0.107233
vn 0.000000 1.000000 -0.000005
vn 0.985433 0.131995 -0.107233
vn 0.399851 0.131995 -0.907026
vn 0.000000 1.000000 -0.000005
vn 0.399851 0.131995 -0.907026
vn 0.985433 0.131995 -0.107233
vn 0.661174 -0.012424 -0.750130
vn 0.399851 0.131995 -0.907026
vn 0.661174 -0.012424 -0.750130
vn -0.319044 -0.012423 -0.947659
vn 0.945918 0.314319 -0.080262
vn -0.923834 0.380282 -0.043783
vn -0.000826 0.989144 0.146946
vn -0.594777 0.194675 0.779963
vn -0.041864 0.998987 -0.016527
vn -0.000826 0.989144 0.146946
vn -0.978310 0.188695 -0.085465
vn -0.594777 0.194675 0.779963
vn -0.000826 0.989144 0.146946
vn -0.923834 0.380282 -0.043783
vn -0.978310 0.188695 -0.085465
vn -0.000826 0.989144 0.146946
vn -0.041864 0.998987 -0.016527
vn 0.968210 0.191444 0.160996
vn -0.000826 0.989144 0.146946
vn 0.968210 0.191444 0.160996
vn 0.945918 0.314319 -0.080262
vn -0.000826 0.989144 0.146946
vn 0.997433 -0.037917 -0.060745
vn 0.945918 0.314319 -0.080262
vn 0.982974 -0.015420 -0.183096
vn 0.945918 0.314319 -0.080262
vn 0.968210 0.191444 0.160996
vn 0.982974 -0.015420 -0.183096
vn 0.982974 -0.015420 -0.183096
vn 0.968210 0.191444 0.160996
vn 0.982922 -0.039630 -0.179702
vn 0.968210 0.191444 0.160996
vn -0.041864 0.998987 -0.016527
vn 0.982922 -0.039630 -0.179702
vn 0.982922 -0.039630 -0.179702
vn -0.041864 0.998987 -0.016527
vn -0.981631 0.059743 0.181196
vn -0.041864 0.998987 -0.016527
vn -0.594777 0.194675 0.779963
vn -0.981631 0.059743 0.181196
vn -0.981631 0.059743 0.181196
vn -0.594777 0.194675 0.779963
vn -0.983552 -0.007894 0.180452
vn -0.594777 0.194675 0.779963
vn -0.978310 0.188695 -0.085465
vn -0.983552 -0.007894 0.180452
vn -0.983552 -0.007894 0.180452
vn -0.978310 0.188695 -0.085465
vn -0.986373 -0.021090 -0.163167
vn -0.978310 0.188695 -0.085465
vn -0.923834 0.380282 -0.043783
vn -0.986373 -0.021090 -0.163167
vn -0.941573 0.334094 0.042683
vn 0.954629 0.261553 0.142386
vn 0.025103 0.997475 -0.066437
vn 0.954629 0.261553 0.142386
vn 0.965402 0.187097 -0.181639
vn 0.025103 0.997475 -0.066437
vn 0.965402 0.187097 -0.181639
vn 0.040527 0.988318 -0.146916
vn 0.025103 0.997475 -0.066437
vn 0.040527 0.988318 -0.146916
vn -0.581074 0.194674 -0.790225
vn 0.025103 0.997475 -0.066437
vn -0.581074 0.194674 -0.790225
vn -0.976955 0.183142 0.109623
vn 0.025103 0.997475 -0.066437
vn -0.976955 0.183142 0.109623
vn -0.941573 0.334094 0.042683
vn 0.025103 0.997475 -0.066437
vn -0.941573 0.334094 0.042683
vn -0.976955 0.183142 0.109623
vn -0.983651 -0.025922 0.178213
vn -0.976955 0.183142 0.109623
vn -0.980253 -0.007894 -0.197591
vn -0.983651 -0.025922 0.178213
vn -0.976955 0.183142 0.109623
vn -0.581074 0.194674 -0.790225
vn -0.980253 -0.007894 -0.197591
vn -0.581074 0.194674 -0.790225
vn -0.978319 0.059743 -0.198301
vn -0.980253 -0.007894 -0.197591
vn -0.581074 0.194674 -0.790225
vn 0.040527 0.988318 -0.146916
vn -0.978319 0.059743 -0.198301
vn 0.040527 0.988318 -0.146916
vn 0.979637 -0.039630 0.196828
vn -0.978319 0.059743 -0.198301
vn 0.040527 0.988318 -0.146916
vn 0.965402 0.187097 -0.181639
vn 0.979637 -0.039630 0.196828
vn 0.965402 0.187097 -0.181639
vn 0.991740 -0.020863 0.126558
vn 0.979637 -0.039630 0.196828
vn 0.965402 0.187097 -0.181639
vn 0.954629 0.261553 0.142386
vn 0.991740 -0.020863 0.126558
vn 0.954629 0.261553 0.142386
vn 0.993746 -0.032550 0.106818
vn 0.991740 -0.020863 0.126558
vn 0.084449 0.996206 0.021022
vn -0.383961 0.131995 -0.913866
vn 0.000000 1.000000 0.000000
vn 0.975309 -0.075199 -0.207646
vn 0.084449 0.996206 0.021022
vn 0.983516 -0.012424 -0.180392
vn 0.084449 0.996206 0.021022
vn 0.983412 0.131995 0.124413
vn 0.983516 -0.012424 -0.180392
vn 0.383961 0.131996 0.913866
vn 0.983412 0.131995 0.124413
vn 0.000000 1.000000 0.000000
vn 0.983412 0.131995 0.124413
vn 0.084449 0.996206 0.021022
vn 0.000000 1.000000 0.000000
vn -0.599451 0.131996 0.789453
vn 0.383961 0.131996 0.913866
vn 0.000000 1.000000 0.000000
vn -0.983412 0.131996 -0.124413
vn -0.599451 0.131996 0.789453
vn 0.000000 1.000000 0.000000
vn -0.383961 0.131995 -0.913866
vn -0.983412 0.131996 -0.124413
vn 0.000000 1.000000 0.000000
vn 0.983516 -0.012424 -0.180392
vn 0.983412 0.131995 0.124413
vn 0.647982 -0.012424 0.761554
vn 0.983412 0.131995 0.124413
vn 0.383961 0.131996 0.913866
vn 0.647982 -0.012424 0.761554
vn 0.647982 -0.012424 0.761554
vn 0.383961 0.131996 0.913866
vn -0.335534 -0.012424 0.941946
vn 0.383961 0.131996 0.913866
vn -0.599451 0.131996 0.789453
vn -0.335534 -0.012424 0.941946
vn -0.335534 -0.012424 0.941946
vn -0.599451 0.131996 0.789453
vn -0.983516 -0.012424 0.180392
vn -0.599451 0.131996 0.789453
vn -0.983412 0.131996 -0.124413
vn -0.983516 -0.012424 0.180392
vn -0.983516 -0.012424 0.180392
vn -0.983412 0.131996 -0.124413
vn -0.988029 0.030984 0.151128
vn -0.983412 0.131996 -0.124413
vn -0.383961 0.131995 -0.913866
vn -0.988029 0.030984 0.151128
vn -0.988029 0.030984 0.151128
vn -0.383961 0.131995 -0.913866
vn 0.975309 -0.075199 -0.207646
vn -0.383961 0.131995 -0.913866
vn 0.084449 0.996206 0.021022
vn 0.975309 -0.075199 -0.207646
vn 0.598413 0.033639 -0.800481
vn -0.041864 0.998987 -0.016527
vn 0.078771 0.985936 0.147398
vn 0.982922 -0.039630 -0.179702
vn 0.598413 0.033639 -0.800481
vn 0.969405 -0.108016 -0.220425
vn 0.598413 0.033639 -0.800481
vn 0.993994 -0.009874 0.108992
vn 0.969405 -0.108016 -0.220425
vn 0.398325 0.055775 0.915547
vn 0.993994 -0.009874 0.108992
vn 0.078771 0.985936 0.147398
vn 0.993994 -0.009874 0.108992
vn 0.598413 0.033639 -0.800481
vn 0.078771 0.985936 0.147398
vn 0.084449 0.996206 0.021022
vn 0.398325 0.055775 0.915547
vn 0.078771 0.985936 0.147398
vn -0.976903 0.193188 -0.091314
vn 0.084449 0.996206 0.021022
vn 0.078771 0.985936 0.147398
vn -0.041864 0.998987 -0.016527
vn -0.976903 0.193188 -0.091314
vn 0.078771 0.985936 0.147398
vn 0.969405 -0.108016 -0.220425
vn 0.993994 -0.009874 0.108992
vn 0.975309 -0.075199 -0.207646
vn 0.993994 -0.009874 0.108992
vn 0.398325 0.055775 0.915547
vn 0.975309 -0.075199 -0.207646
vn 0.975309 -0.075199 -0.207646
vn 0.398325 0.055775 0.915547
vn -0.988029 0.030984 0.151128
vn 0.398325 0.055775 0.915547
vn 0.084449 0.996206 0.021022
vn -0.988029 0.030984 0.151128
vn -0.988029 0.030984 0.151128
vn 0.084449 0.996206 0.021022
vn -0.983811 0.091062 0.154348
vn 0.084449 0.996206 0.021022
vn -0.976903 0.193188 -0.091314
vn -0.983811 0.091062 0.154348
vn -0.983811 0.091062 0.154348
vn -0.976903 0.193188 -0.091314
vn -0.981631 0.059743 0.181196
vn -0.976903 0.193188 -0.091314
vn -0.041864 0.998987 -0.016527
vn -0.981631 0.059743 0.181196
vn -0.981631 0.059743 0.181196
vn -0.041864 0.998987 -0.016527
vn 0.982922 -0.039630 -0.179702
vn -0.041864 0.998987 -0.016527
vn 0.598413 0.033639 -0.800481
vn 0.982922 -0.039630 -0.179702
vn 0.523824 0.171399 0.834404
vn 0.040527 0.988318 -0.146916
vn 0.979637 -0.039630 0.196828
vn 0.040527 0.988318 -0.146916
vn -0.978319 0.059743 -0.198301
vn 0.979637 -0.039630 0.196828
vn 0.142669 0.989227 0.032786
vn -0.934743 0.353926 0.031487
vn 0.054340 0.990095 -0.129453
vn -0.934743 0.353926 0.031487
vn 0.040527 0.988318 -0.146916
vn 0.054340 0.990095 -0.129453
vn 0.040527 0.988318 -0.146916
vn 0.523824 0.171399 0.834404
vn 0.054340 0.990095 -0.129453
vn 0.523824 0.171399 0.834404
vn 0.992445 0.114054 -0.045208
vn 0.054340 0.990095 -0.129453
vn 0.992445 0.114054 -0.045208
vn 0.389024 0.166357 -0.906083
vn 0.054340 0.990095 -0.129453
vn 0.389024 0.166357 -0.906083
vn 0.142669 0.989227 0.032786
vn 0.054340 0.990095 -0.129453
vn 0.040527 0.988318 -0.146916
vn -0.934743 0.353926 0.031487
vn -0.978319 0.059743 -0.198301
vn -0.934743 0.353926 0.031487
vn -0.980967 0.091062 -0.171496
vn -0.978319 0.059743 -0.198301
vn -0.934743 0.353926 0.031487
vn 0.142669 0.989227 0.032786
vn -0.980967 0.091062 -0.171496
vn 0.142669 0.989227 0.032786
vn -0.985311 0.031246 -0.167888
vn -0.980967 0.091062 -0.171496
vn 0.142669 0.989227 0.032786
vn 0.389024 0.166357 -0.906083
vn -0.985311 0.031246 -0.167888
vn 0.389024 0.166357 -0.906083
vn 0.969336 -0.093384 0.227305
vn -0.985311 0.031246 -0.167888
vn 0.389024 0.166357 -0.906083
vn 0.992445 0.114054 -0.045208
vn 0.969336 -0.093384 0.227305
vn 0.992445 0.114054 -0.045208
vn 0.943945 -0.122987 0.306336
vn 0.969336 -0.093384 0.227305
vn 0.992445 0.114054 -0.045208
vn 0.523824 0.171399 0.834404
vn 0.943945 -0.122987 0.306336
vn 0.523824 0.171399 0.834404
vn 0.979637 -0.039630 0.196828
vn 0.943945 -0.122987 0.306336
vn -0.109454 0.989528 0.094095
vn 0.928579 0.371131 -0.001425
vn 0.908808 0.391308 0.144725
vn -0.109454 0.989528 0.094095
vn 0.908808 0.391308 0.144725
vn -0.952305 0.271071 0.140125
# 486 normals

g Geoset_000
usemtl PalasadeGateWood02
s 1
f 1/1/1 2/2/2 3/3/3
f 4/4/4 5/5/5 6/6/6
f 7/7/7 8/8/8 9/9/9
f 10/10/10 11/11/11 12/12/12
f 13/13/13 14/14/14 15/15/15
f 16/16/16 17/17/17 18/18/18
f 19/19/19 20/20/20 21/21/21
f 22/22/22 23/23/23 24/24/24
f 25/25/25 26/26/26 27/27/27
f 28/28/28 29/29/29 30/30/30
f 31/31/31 32/32/32 33/33/33
f 34/34/34 35/35/35 36/36/36
f 37/37/37 38/38/38 39/39/39
f 40/40/40 41/41/41 42/42/42
f 43/43/43 44/44/44 45/45/45
f 46/46/46 47/47/47 48/48/48
f 49/49/49 50/50/50 51/51/51
f 52/52/52 53/53/53 54/54/54
f 55/55/55 56/56/56 57/57/57
f 58/58/58 59/59/59 60/60/60
f 61/61/61 62/62/62 63/63/63
f 64/64/64 65/65/65 66/66/66
f 67/67/67 68/68/68 69/69/69
f 70/70/70 71/71/71 72/72/72
f 73/73/73 74/74/74 75/75/75
f 76/76/76 77/77/77 78/78/78
f 79/79/79 80/80/80 81/81/81
f 82/82/82 83/83/83 84/84/84
f 85/85/85 86/86/86 87/87/87
f 88/88/88 89/89/89 90/90/90
f 91/91/91 92/92/92 93/93/93
f 94/94/94 95/95/95 96/96/96
f 97/97/97 98/98/98 99/99/99
f 100/100/100 101/101/101 102/102/102
f 103/103/103 104/104/104 105/105/105
f 106/106/106 107/107/107 108/108/108
f 109/109/109 110/110/110 111/111/111
f 112/112/112 113/113/113 114/114/114
f 115/115/115 116/116/116 117/117/117
f 118/118/118 119/119/119 120/120/120
f 121/121/121 122/122/122 123/123/123
f 124/124/124 125/125/125 126/126/126
f 127/127/127 128/128/128 129/129/129
f 130/130/130 131/131/131 132/132/132
f 133/133/133 134/134/134 135/135/135
f 136/136/136 137/137/137 138/138/138
f 139/139/139 140/140/140 141/141/141
f 142/142/142 143/143/143 144/144/144
f 145/145/145 146/146/146 147/147/147
f 148/148/148 149/149/149 150/150/150
f 151/151/151 152/152/152 153/153/153
f 154/154/154 155/155/155 156/156/156
f 157/157/157 158/158/158 159/159/159
f 160/160/160 161/161/161 162/162/162
f 163/163/163 164/164/164 165/165/165
f 166/166/166 167/167/167 168/168/168
f 169/169/169 170/170/170 171/171/171
f 172/172/172 173/173/173 174/174/174
f 175/175/175 176/176/176 177/177/177
f 178/178/178 179/179/179 180/180/180
f 181/181/181 182/182/182 183/183/183
f 184/184/184 185/185/185 186/186/186
f 187/187/187 188/188/188 189/189/189
f 190/190/190 191/191/191 192/192/192
f 193/193/193 194/194/194 195/195/195
f 196/196/196 197/197/197 198/198/198
f 199/199/199 200/200/200 201/201/201
f 202/202/202 203/203/203 204/204/204
f 205/205/205 206/206/206 207/207/207
f 208/208/208 209/209/209 210/210/210
f 211/211/211 212/212/212 213/213/213
f 214/214/214 215/215/215 216/216/216
f 217/217/217 218/218/218 219/219/219
f 220/220/220 221/221/221 222/222/222
f 223/223/223 224/224/224 225/225/225
f 226/226/226 227/227/227 228/228/228
f 229/229/229 230/230/230 231/231/231
f 232/232/232 233/233/233 234/234/234
f 235/235/235 236/236/236 237/237/237
f 238/238/238 239/239/239 240/240/240
f 241/241/241 242/242/242 243/243/243
f 244/244/244 245/245/245 246/246/246
f 247/247/247 248/248/248 249/249/249
f 250/250/250 251/251/251 252/252/252
f 253/253/253 254/254/254 255/255/255
f 256/256/256 257/257/257 258/258/258
f 259/259/259 260/260/260 261/261/261
f 262/262/262 263/263/263 264/264/264
f 265/265/265 266/266/266 267/267/267
f 268/268/268 269/269/269 270/270/270
f 271/271/271 272/272/272 273/273/273
f 274/274/274 275/275/275 276/276/276
f 277/277/277 278/278/278 279/279/279
f 280/280/280 281/281/281 282/282/282
f 283/283/283 284/284/284 285/285/285
f 286/286/286 287/287/287 288/288/288
f 289/289/289 290/290/290 291/291/291
f 292/292/292 293/293/293 294/294/294
f 295/295/295 296/296/296 297/297/297
f 298/298/298 299/299/299 300/300/300
f 301/301/301 302/302/302 303/303/303
f 304/304/304 305/305/305 306/306/306
f 307/307/307 308/308/308 309/309/309
f 310/310/310 311/311/311 312/312/312
f 313/313/313 314/314/314 315/315/315
f 316/316/316 317/317/317 318/318/318
f 319/319/319 320/320/320 321/321/321
f 322/322/322 323/323/323 324/324/324
f 325/325/325 326/326/326 327/327/327
f 328/328/328 329/329/329 330/330/330
f 331/331/331 332/332/332 333/333/333
f 334/334/334 335/335/335 336/336/336
f 337/337/337 338/338/338 339/339/339
f 340/340/340 341/341/341 342/342/342
f 343/343/343 344/344/344 345/345/345
f 346/346/346 347/347/347 348/348/348
f 349/349/349 350/350/350 351/351/351
f 352/352/352 353/353/353 354/354/354
f 355/355/355 356/356/356 357/357/357
f 358/358/358 359/359/359 360/360/360
f 361/361/361 362/362/362 363/363/363
f 364/364/364 365/365/365 366/366/366
f 367/367/367 368/368/368 369/369/369
f 370/370/370 371/371/371 372/372/372
f 373/373/373 374/374/374 375/375/375
f 376/376/376 377/377/377 378/378/378
f 379/379/379 380/380/380 381/381/381
f 382/382/382 383/383/383 384/384/384
f 385/385/385 386/386/386 387/387/387
f 388/388/388 389/389/389 390/390/390
f 391/391/391 392/392/392 393/393/393
f 394/394/394 395/395/395 396/396/396
f 397/397/397 398/398/398 399/399/399
f 400/400/400 401/401/401 402/402/402
f 403/403/403 404/404/404 405/405/405
f 406/406/406 407/407/407 408/408/408
f 409/409/409 410/410/410 411/411/411
f 412/412/412 413/413/413 414/414/414
f 415/415/415 416/416/416 417/417/417
f 418/418/418 419/419/419 420/420/420
f 421/421/421 422/422/422 423/423/423
f 424/424/424 425/425/425 426/426/426
f 427/427/427 428/428/428 429/429/429
f 430/430/430 431/431/431 432/432/432
f 433/433/433 434/434/434 435/435/435
f 436/436/436 437/437/437 438/438/438
f 439/439/439 440/440/440 441/441/441
f 442/442/442 443/443/443 444/444/444
f 445/445/445 446/446/446 447/447/447
f 448/448/448 449/449/449 450/450/450
f 451/451/451 452/452/452 453/453/453
f 454/454/454 455/455/455 456/456/456
f 457/457/457 458/458/458 459/459/459
f 460/460/460 461/461/461 462/462/462
f 463/463/463 464/464/464 465/465/465
f 466/466/466 467/467/467 468/468/468
f 469/469/469 470/470/470 471/471/471
f 472/472/472 473/473/473 474/474/474
f 475/475/475 476/476/476 477/477/477
f 478/478/478 479/479/479 480/480/480
f 481/481/481 482/482/482 483/483/483
f 484/484/484 485/485/485 486/486/486
# 162 triangles in group

# 162 triangles total

