{
"Direct":{
	"options_dialog" : {
	    "inherit" : "map/drive_game/default_gui/dialogx.json",
	    "dialogName" : "Options Dialog",
	    "fadeScreen" : 0.8,
	    "gui_scripts" : {
	      "init" : ["script/drive_script/options.py", "options_init"]  
	    },
	    "childs" : {
	        "ok_button" : {
	            "inherit" : "map/drive_game/default_gui/dialog_button.json",
	            "text" : "ok",
	            "command" : ["script/drive_script/options.py", "ok_clicked"],
	            "pos": [0, 0, -0.38]
	        },
	        "options_title" : {
	            "type" : "OnscreenText",
	            "fg" : [1, 1, 1, 1],
	            "scale" : [0.020, 0.035],
	            "text" : "Options",
	            "pos" : [-0.15, 0.34]
	        },
	        "fullscreen_text" : {
	            "inherit" : "map/drive_game/default_gui/dialog_text.json",
	            "text" : "Fullscreen",
	            "pos" : [-0.18, 0.28]	           
	        },
	        "fullscreen" : {
	            "type" : "DirectCheckButton",
	            "boxRelief" : null,
	            "relief" : null,
	            "boxImage" :["image/drive_image/dialog/check-off.png", "image/drive_image/dialog/check-on.png", null],
	            "scale" : 0.015,
	            "boxPlacement": "right",
	            "pos" : [-0.07, 0, 0.285]	
	    	},
	        "sfxeffect_text" : {
	            "inherit" : "map/drive_game/default_gui/dialog_text.json",
	            "text" : "SFX effect",
	            "pos" : [-0.18, 0.22]	           
	        },
	        "sfxeffect" : {
	            "type" : "DirectCheckButton",
	            "boxRelief" : null,
	            "relief" : null,
	            "boxImage" :["image/drive_image/dialog/check-off.png", "image/drive_image/dialog/check-on.png", null],
	            "scale" : 0.015,
	            "boxPlacement": "right",
	            "pos" : [-0.07, 0, 0.225]	
	    	},
	        "antialiasing_text" : {
	            "inherit" : "map/drive_game/default_gui/dialog_text.json",
	            "text" : "Antialiasing",
	            "pos" : [0, 0.22]	           
	        },
	        "antialiasing" : {
	            "type" : "DirectCheckButton",
	            "boxRelief" : null,
	            "relief" : null,
	            "boxImage" :["image/drive_image/dialog/check-off.png", "image/drive_image/dialog/check-on.png", null],
	            "scale" : 0.015,
	            "boxPlacement": "right",
	            "pos" : [0.11, 0, 0.225]	
	    	},
	        "sound_volume_text" : {
	            "inherit" : "map/drive_game/default_gui/dialog_text.json",
	            "text" : "Sound Volume:",
	            "pos" : [-0.18, 0.15]	           
	        },
	        "sound_volume": {
	            "inherit" : "map/drive_game/default_gui/dialog_slider.json",
	            "pos" : [0, 0, 0.11],
	            "command" : ["script/drive_script/options.py", "sound_slide"]
	        },
	        "music_volume_text" : {
	            "inherit" : "map/drive_game/default_gui/dialog_text.json",
	            "text" : "Music Volume:",
	            "pos" : [-0.18, 0.04]	           
	        },
	        "music_volume": {
	            "inherit" : "map/drive_game/default_gui/dialog_slider.json",
	            "pos" : [0, 0, 0],
	            "command" : ["script/drive_script/options.py", "music_slide"]
	        },
	        "graphic_text" : {
	            "inherit" : "map/drive_game/default_gui/dialog_text.json",
	            "text" : "Graphic:",
	            "pos" : [-0.18, -0.15]	           
	        },
	        "graphic_high" : {	 
	        	"inherit" : "map/drive_game/default_gui/dialog_radio.json",
	        	"text" : "High",
	        	"value" : "high",
		        "pos" : [-0.14, 0, -0.19],    
		        "command" : ["script/drive_script/options.py", "graphic_switch"],
		        "extraArgs" : ["high"]         
			},
	        "graphic_medium" : {	 
	        	"inherit" : "map/drive_game/default_gui/dialog_radio.json",
	        	"text" : "Medium",
	        	"value" : "medium",
		        "pos" : [-0.04, 0, -0.19],    
		        "command" : ["script/drive_script/options.py", "graphic_switch"],
		        "extraArgs" : ["medium"]         
			},
	        "graphic_low" : {	 
	        	"inherit" : "map/drive_game/default_gui/dialog_radio.json",
	        	"text" : "Low",
	        	"value" : "low",
		        "pos" : [0.06, 0, -0.19],    
		        "command" : ["script/drive_script/options.py", "graphic_switch"],
		        "extraArgs" : ["low"]    
			}
		}
	}
}
}