# Wavefront OBJ exported by WoW Model Viewer v0.7.0.5

mtllib kalidarbush03.mtl

v -3.556823 1.593849 -1.340523
v -2.324160 2.111832 -0.743693
v -3.638197 2.185451 -1.600458
v 5.953809 -0.090287 0.238996
v 4.769957 1.878124 -0.014761
v 4.990281 2.588046 0.226668
v 4.769957 1.878124 -0.014761
v 3.428456 2.499703 -0.038720
v 4.990281 2.588046 0.226668
v 1.419122 -0.090287 0.118793
v 1.715018 1.426240 0.112628
v 1.206052 2.763923 0.112725
v 1.715018 1.426240 0.112628
v 3.428456 2.499703 -0.038720
v 1.206052 2.763923 0.112725
v 3.614252 -0.090287 -1.358853
v 1.715018 1.426240 0.112628
v 3.109477 1.172709 -0.971044
v 3.614252 -0.090287 -1.358853
v 1.419122 -0.090287 0.118793
v 1.715018 1.426240 0.112628
v 3.109477 1.172709 -0.971044
v 1.715018 1.426240 0.112628
v 3.428456 2.499703 -0.038720
v 1.715018 1.426240 0.112628
v 2.774794 1.426240 0.765906
v 3.428456 2.499703 -0.038720
v 1.419122 -0.090287 0.118793
v 2.774794 1.426240 0.765906
v 1.715018 1.426240 0.112628
v 1.419122 -0.090287 0.118793
v 2.316754 -0.090287 1.670054
v 2.774794 1.426240 0.765906
v 2.316754 -0.090287 1.670054
v 2.774794 1.426240 0.765906
v 2.108496 2.408502 1.418007
v 2.774794 1.426240 0.765906
v 3.428456 2.499703 -0.038720
v 2.108496 2.408502 1.418007
v 5.953809 -0.090287 0.238996
v 3.109477 1.172709 -0.971044
v 4.769957 1.878124 -0.014761
v 5.953809 -0.090287 0.238996
v 3.614252 -0.090287 -1.358853
v 3.109477 1.172709 -0.971044
v 2.316754 -0.090287 1.670054
v 5.953809 -0.090287 0.238996
v 2.774794 1.426240 0.765906
v 2.774794 1.426240 0.765906
v 5.953809 -0.090287 0.238996
v 4.769957 1.878124 -0.014761
v 2.774794 1.426240 0.765906
v 4.769957 1.878124 -0.014761
v 3.428456 2.499703 -0.038720
v 4.769957 1.878124 -0.014761
v 3.109477 1.172709 -0.971044
v 3.428456 2.499703 -0.038720
v 3.109477 1.172709 -0.971044
v 3.428456 2.499703 -0.038720
v 3.235447 2.949803 -1.599985
v 3.614252 -0.090287 -1.358853
v 3.109477 1.172709 -0.971044
v 3.235447 2.949803 -1.599985
v -2.929411 -0.046493 0.187911
v -0.751125 -0.046493 -0.155005
v -0.976774 1.217279 -0.254558
v -2.929411 -0.046493 0.187911
v -0.976774 1.217279 -0.254558
v -2.824601 1.006004 -0.156936
v -0.751125 -0.046493 -0.155005
v -0.976774 1.217279 -0.254558
v -0.592339 2.332015 -0.075383
v -0.976774 1.217279 -0.254558
v -2.324160 2.111832 -0.743693
v -0.592339 2.332015 -0.075383
v -2.824601 1.006004 -0.156936
v -0.976774 1.217279 -0.254558
v -2.324160 2.111832 -0.743693
v -0.976774 1.217279 -0.254558
v -2.065832 1.217279 -1.363072
v -2.324160 2.111832 -0.743693
v -0.751125 -0.046493 -0.155005
v -2.065832 1.217279 -1.363072
v -0.976774 1.217279 -0.254558
v -0.751125 -0.046493 -0.155005
v -1.953960 -0.046493 -1.821085
v -2.065832 1.217279 -1.363072
v 2.596319 3.760918 -0.239227
v 2.144715 2.040363 0.025122
v 2.907902 -0.099688 -0.200727
v 2.596319 3.760918 -0.239227
v -0.163964 3.782782 0.013051
v 2.144715 2.040363 0.025122
v -2.405717 3.776423 0.021056
v -1.734259 2.097119 0.025121
v -2.900162 -0.099688 0.013051
v -2.405717 3.776423 0.021056
v -0.163964 3.782782 0.013051
v -1.734259 2.097119 0.025121
v 0.377579 1.989131 1.440806
v -1.734259 2.097119 0.025121
v 0.230824 -0.099689 2.475704
v -1.734259 2.097119 0.025121
v -2.900162 -0.099688 0.013051
v 0.230824 -0.099689 2.475704
v -0.163964 3.782782 0.013051
v -1.734259 2.097119 0.025121
v 0.377579 1.989131 1.440806
v -0.163964 3.782782 0.013051
v 0.268695 2.097119 -1.799383
v -1.734259 2.097119 0.025121
v -1.734259 2.097119 0.025121
v 0.268695 2.097119 -1.799383
v -2.900162 -0.099688 0.013051
v 0.268695 2.097119 -1.799383
v 0.281399 -0.099688 -2.629793
v -2.900162 -0.099688 0.013051
v 0.234531 3.118480 -2.717883
v 0.268695 2.097119 -1.799383
v 0.281399 -0.099688 -2.629793
v 0.268695 2.097119 -1.799383
v 2.907902 -0.099688 -0.200727
v 0.281399 -0.099688 -2.629793
v 0.158411 3.190863 2.557141
v -0.163964 3.782782 0.013051
v 0.377579 1.989131 1.440806
v -0.163964 3.782782 0.013051
v 0.377579 1.989131 1.440806
v 2.144715 2.040363 0.025122
v 0.234531 3.118480 -2.717883
v -0.163964 3.782782 0.013051
v 0.268695 2.097119 -1.799383
v -0.163964 3.782782 0.013051
v 2.144715 2.040363 0.025122
v 0.268695 2.097119 -1.799383
v 2.144715 2.040363 0.025122
v 2.907902 -0.099688 -0.200727
v 0.268695 2.097119 -1.799383
v 2.144715 2.040363 0.025122
v 0.377579 1.989131 1.440806
v 2.907902 -0.099688 -0.200727
v 0.377579 1.989131 1.440806
v 0.230824 -0.099689 2.475704
v 2.907902 -0.099688 -0.200727
v 0.158411 3.190863 2.557141
v 0.377579 1.989131 1.440806
v 0.230824 -0.099689 2.475704
v -1.953960 -0.046493 -1.821085
v -2.065832 1.217279 -1.363072
v -1.948920 2.035831 -1.643631
v -1.953960 -0.046493 -1.821085
v -4.576058 -0.046493 -1.760805
v -2.065832 1.217279 -1.363072
v -2.065832 1.217279 -1.363072
v -2.324160 2.111832 -0.743693
v -1.948920 2.035831 -1.643631
v -2.065832 1.217279 -1.363072
v -3.556823 1.593849 -1.340523
v -2.324160 2.111832 -0.743693
v -2.065832 1.217279 -1.363072
v -4.576058 -0.046493 -1.760805
v -3.556823 1.593849 -1.340523
v -4.576058 -0.046493 -1.760805
v -2.824601 1.006004 -0.156936
v -3.556823 1.593849 -1.340523
v -4.576058 -0.046493 -1.760805
v -2.929411 -0.046493 0.187911
v -2.824601 1.006004 -0.156936
v -2.929411 -0.046493 0.187911
v -2.824601 1.006004 -0.156936
v -2.728239 2.486915 0.503436
v -2.824601 1.006004 -0.156936
v -2.324160 2.111832 -0.743693
v -2.728239 2.486915 0.503436
v -3.556823 1.593849 -1.340523
v -2.824601 1.006004 -0.156936
v -2.324160 2.111832 -0.743693
v -4.576058 -0.046493 -1.760805
v -3.556823 1.593849 -1.340523
v -3.638197 2.185451 -1.600458
# 180 vertices

vt 0.747059 0.501961
vt 0.525643 0.999403
vt 0.843137 0.874016
vt 0.992157 0.011765
vt 0.747059 0.501961
vt 0.843137 0.874016
vt 0.747059 0.501961
vt 0.525643 0.999403
vt 0.843137 0.874016
vt 0.992157 0.011765
vt 0.747059 0.501961
vt 0.843137 0.874016
vt 0.747059 0.501961
vt 0.525643 0.999403
vt 0.843137 0.874016
vt 0.003922 0.011765
vt 0.747059 0.501961
vt 0.327936 0.504376
vt 0.003922 0.011765
vt 0.992157 0.011765
vt 0.747059 0.501961
vt 0.327936 0.504376
vt 0.747059 0.501961
vt 0.525643 0.999403
vt 0.747059 0.501961
vt 0.327936 0.504376
vt 0.525643 0.999403
vt 0.992157 0.011765
vt 0.327936 0.504376
vt 0.747059 0.501961
vt 0.992157 0.011765
vt 0.003922 0.011765
vt 0.327936 0.504376
vt 0.992157 0.011765
vt 0.747059 0.501961
vt 0.843137 0.874016
vt 0.747059 0.501961
vt 0.525643 0.999403
vt 0.843137 0.874016
vt 0.003922 0.011765
vt 0.747059 0.501961
vt 0.327936 0.504376
vt 0.003922 0.011765
vt 0.992157 0.011765
vt 0.747059 0.501961
vt 0.992157 0.011765
vt 0.003922 0.011765
vt 0.747059 0.501961
vt 0.747059 0.501961
vt 0.003922 0.011765
vt 0.327936 0.504376
vt 0.747059 0.501961
vt 0.327936 0.504376
vt 0.525643 0.999403
vt 0.327936 0.504376
vt 0.747059 0.501961
vt 0.525643 0.999403
vt 0.747059 0.501961
vt 0.525643 0.999403
vt 0.843137 0.874016
vt 0.992157 0.011765
vt 0.747059 0.501961
vt 0.843137 0.874016
vt 0.003922 0.011765
vt 0.992157 0.011765
vt 0.747059 0.501961
vt 0.003922 0.011765
vt 0.747059 0.501961
vt 0.327936 0.504376
vt 0.992157 0.011765
vt 0.747059 0.501961
vt 0.843137 0.874016
vt 0.747059 0.501961
vt 0.525643 0.999403
vt 0.843137 0.874016
vt 0.327936 0.504376
vt 0.747059 0.501961
vt 0.525643 0.999403
vt 0.747059 0.501961
vt 0.327936 0.504376
vt 0.525643 0.999403
vt 0.992157 0.011765
vt 0.327936 0.504376
vt 0.747059 0.501961
vt 0.992157 0.011765
vt 0.003922 0.011765
vt 0.327936 0.504376
vt 0.843137 0.874016
vt 0.747059 0.501961
vt 0.992157 0.011765
vt 0.843137 0.874016
vt 0.525643 0.999403
vt 0.747059 0.501961
vt 0.843137 0.874016
vt 0.747059 0.501961
vt 0.992157 0.011765
vt 0.843137 0.874016
vt 0.525643 0.999403
vt 0.747059 0.501961
vt 0.327936 0.504376
vt 0.747059 0.501961
vt 0.003922 0.011765
vt 0.747059 0.501961
vt 0.992157 0.011765
vt 0.003922 0.011765
vt 0.525643 0.999403
vt 0.747059 0.501961
vt 0.327936 0.504376
vt 0.525643 0.999403
vt 0.327936 0.504376
vt 0.747059 0.501961
vt 0.747059 0.501961
vt 0.327936 0.504376
vt 0.992157 0.011765
vt 0.327936 0.504376
vt 0.003922 0.011765
vt 0.992157 0.011765
vt 0.843137 0.874016
vt 0.747059 0.501961
vt 0.992157 0.011765
vt 0.747059 0.501961
vt 0.003922 0.011765
vt 0.992157 0.011765
vt 0.843137 0.874016
vt 0.525643 0.999403
vt 0.747059 0.501961
vt 0.525643 0.999403
vt 0.747059 0.501961
vt 0.327936 0.504376
vt 0.843137 0.874016
vt 0.525643 0.999403
vt 0.747059 0.501961
vt 0.525643 0.999403
vt 0.327936 0.504376
vt 0.747059 0.501961
vt 0.327936 0.504376
vt 0.003922 0.011765
vt 0.747059 0.501961
vt 0.327936 0.504376
vt 0.747059 0.501961
vt 0.003922 0.011765
vt 0.747059 0.501961
vt 0.992157 0.011765
vt 0.003922 0.011765
vt 0.843137 0.874016
vt 0.747059 0.501961
vt 0.992157 0.011765
vt 0.992157 0.011765
vt 0.747059 0.501961
vt 0.843137 0.874016
vt 0.992157 0.011765
vt 0.003922 0.011765
vt 0.747059 0.501961
vt 0.747059 0.501961
vt 0.525643 0.999403
vt 0.843137 0.874016
vt 0.747059 0.501961
vt 0.327936 0.504376
vt 0.525643 0.999403
vt 0.747059 0.501961
vt 0.003922 0.011765
vt 0.327936 0.504376
vt 0.003922 0.011765
vt 0.747059 0.501961
vt 0.327936 0.504376
vt 0.003922 0.011765
vt 0.992157 0.011765
vt 0.747059 0.501961
vt 0.992157 0.011765
vt 0.747059 0.501961
vt 0.843137 0.874016
vt 0.747059 0.501961
vt 0.525643 0.999403
vt 0.843137 0.874016
vt 0.327936 0.504376
vt 0.747059 0.501961
vt 0.525643 0.999403
vt 0.992157 0.011765
vt 0.747059 0.501961
vt 0.843137 0.874016
# 180 texture coordinates

vn 0.297042 0.664722 0.685501
vn -0.009075 0.999956 -0.002461
vn 0.767382 0.256328 0.587725
vn -0.286489 0.554892 -0.781037
vn -0.562722 0.599185 -0.569493
vn -0.926975 0.221225 -0.302946
vn -0.562722 0.599185 -0.569493
vn 0.282663 0.951129 0.124316
vn -0.926975 0.221225 -0.302946
vn 0.597902 0.287588 0.748202
vn 0.375395 0.491791 0.785634
vn 0.999121 0.014841 -0.039196
vn 0.375395 0.491791 0.785634
vn 0.282663 0.951129 0.124316
vn 0.999121 0.014841 -0.039196
vn -0.888211 0.117517 0.444153
vn 0.375395 0.491791 0.785634
vn -0.881740 0.337581 0.329505
vn -0.888211 0.117517 0.444153
vn 0.597902 0.287588 0.748202
vn 0.375395 0.491791 0.785634
vn -0.881740 0.337581 0.329505
vn 0.375395 0.491791 0.785634
vn 0.282663 0.951129 0.124316
vn 0.375395 0.491791 0.785634
vn 0.902752 0.415798 -0.110232
vn 0.282663 0.951129 0.124316
vn 0.597902 0.287588 0.748202
vn 0.902752 0.415798 -0.110232
vn 0.375395 0.491791 0.785634
vn 0.597902 0.287588 0.748202
vn 0.868261 0.467553 -0.165883
vn 0.902752 0.415798 -0.110232
vn 0.868261 0.467553 -0.165883
vn 0.902752 0.415798 -0.110232
vn 0.641625 0.090683 -0.761639
vn 0.902752 0.415798 -0.110232
vn 0.282663 0.951129 0.124316
vn 0.641625 0.090683 -0.761639
vn -0.286489 0.554892 -0.781037
vn -0.881740 0.337581 0.329505
vn -0.562722 0.599185 -0.569493
vn -0.286489 0.554892 -0.781037
vn -0.888211 0.117517 0.444153
vn -0.881740 0.337581 0.329505
vn 0.868261 0.467553 -0.165883
vn -0.286489 0.554892 -0.781037
vn 0.902752 0.415798 -0.110232
vn 0.902752 0.415798 -0.110232
vn -0.286489 0.554892 -0.781037
vn -0.562722 0.599185 -0.569493
vn 0.902752 0.415798 -0.110232
vn -0.562722 0.599185 -0.569493
vn 0.282663 0.951129 0.124316
vn -0.562722 0.599185 -0.569493
vn -0.881740 0.337581 0.329505
vn 0.282663 0.951129 0.124316
vn -0.881740 0.337581 0.329505
vn 0.282663 0.951129 0.124316
vn -0.227194 -0.011380 0.973783
vn -0.888211 0.117517 0.444153
vn -0.881740 0.337581 0.329505
vn -0.227194 -0.011380 0.973783
vn 0.961336 0.224544 -0.159417
vn -0.490711 0.186849 -0.851053
vn -0.110841 0.568244 -0.815361
vn 0.961336 0.224544 -0.159417
vn -0.110841 0.568244 -0.815361
vn 0.928580 0.370435 0.022758
vn -0.490711 0.186849 -0.851053
vn -0.110841 0.568244 -0.815361
vn -0.922076 0.014841 -0.386723
vn -0.110841 0.568244 -0.815361
vn -0.009075 0.999956 -0.002461
vn -0.922076 0.014841 -0.386723
vn 0.928580 0.370435 0.022758
vn -0.110841 0.568244 -0.815361
vn -0.009075 0.999956 -0.002461
vn -0.110841 0.568244 -0.815361
vn -0.926726 0.370234 -0.064081
vn -0.009075 0.999956 -0.002461
vn -0.490711 0.186849 -0.851053
vn -0.926726 0.370234 -0.064081
vn -0.110841 0.568244 -0.815361
vn -0.490711 0.186849 -0.851053
vn -0.938320 0.331304 0.098958
vn -0.926726 0.370234 -0.064081
vn 0.966646 0.085113 -0.241562
vn 0.531121 0.486521 -0.693692
vn 0.297425 0.314493 -0.901461
vn 0.966646 0.085113 -0.241562
vn 0.166505 0.985861 -0.018826
vn 0.531121 0.486521 -0.693692
vn -0.999996 -0.001432 -0.002473
vn -0.294598 0.567921 0.768555
vn -0.635775 0.348603 0.688670
vn -0.999996 -0.001432 -0.002473
vn 0.166505 0.985861 -0.018826
vn -0.294598 0.567921 0.768555
vn 0.863389 0.414430 0.287764
vn -0.294598 0.567921 0.768555
vn 0.763345 0.375825 0.525414
vn -0.294598 0.567921 0.768555
vn -0.635775 0.348603 0.688670
vn 0.763345 0.375825 0.525414
vn 0.166505 0.985861 -0.018826
vn -0.294598 0.567921 0.768555
vn 0.863389 0.414430 0.287764
vn 0.166505 0.985861 -0.018826
vn -0.765806 0.505899 -0.396996
vn -0.294598 0.567921 0.768555
vn -0.294598 0.567921 0.768555
vn -0.765806 0.505899 -0.396996
vn -0.635775 0.348603 0.688670
vn -0.765806 0.505899 -0.396996
vn -0.779160 0.297718 -0.551610
vn -0.635775 0.348603 0.688670
vn 0.045023 0.073813 -0.996255
vn -0.765806 0.505899 -0.396996
vn -0.779160 0.297718 -0.551610
vn -0.765806 0.505899 -0.396996
vn 0.297425 0.314493 -0.901461
vn -0.779160 0.297718 -0.551610
vn -0.054478 -0.129950 0.990023
vn 0.166505 0.985861 -0.018826
vn 0.863389 0.414430 0.287764
vn 0.166505 0.985861 -0.018826
vn 0.863389 0.414430 0.287764
vn 0.531121 0.486521 -0.693692
vn 0.045023 0.073813 -0.996255
vn 0.166505 0.985861 -0.018826
vn -0.765806 0.505899 -0.396996
vn 0.166505 0.985861 -0.018826
vn 0.531121 0.486521 -0.693692
vn -0.765806 0.505899 -0.396996
vn 0.531121 0.486521 -0.693692
vn 0.297425 0.314493 -0.901461
vn -0.765806 0.505899 -0.396996
vn 0.531121 0.486521 -0.693692
vn 0.863389 0.414430 0.287764
vn 0.297425 0.314493 -0.901461
vn 0.863389 0.414430 0.287764
vn 0.763345 0.375825 0.525414
vn 0.297425 0.314493 -0.901461
vn -0.054478 -0.129950 0.990023
vn 0.863389 0.414430 0.287764
vn 0.763345 0.375825 0.525414
vn -0.938320 0.331304 0.098958
vn -0.926726 0.370234 -0.064081
vn -0.348523 0.014400 0.937190
vn -0.938320 0.331304 0.098958
vn 0.011851 0.543733 0.839174
vn -0.926726 0.370234 -0.064081
vn -0.926726 0.370234 -0.064081
vn -0.009075 0.999956 -0.002461
vn -0.348523 0.014400 0.937190
vn -0.926726 0.370234 -0.064081
vn 0.297042 0.664722 0.685501
vn -0.009075 0.999956 -0.002461
vn -0.926726 0.370234 -0.064081
vn 0.011851 0.543733 0.839174
vn 0.297042 0.664722 0.685501
vn 0.011851 0.543733 0.839174
vn 0.928580 0.370435 0.022758
vn 0.297042 0.664722 0.685501
vn 0.011851 0.543733 0.839174
vn 0.961336 0.224544 -0.159417
vn 0.928580 0.370435 0.022758
vn 0.961336 0.224544 -0.159417
vn 0.928580 0.370435 0.022758
vn 0.205367 -0.154462 -0.966419
vn 0.928580 0.370435 0.022758
vn -0.009075 0.999956 -0.002461
vn 0.205367 -0.154462 -0.966419
vn 0.297042 0.664722 0.685501
vn 0.928580 0.370435 0.022758
vn -0.009075 0.999956 -0.002461
vn 0.011851 0.543733 0.839174
vn 0.297042 0.664722 0.685501
vn 0.767382 0.256328 0.587725
# 180 normals

g Geoset_000
usemtl KALIDARSHRUB01_Dbl
s 1
f 1/1/1 2/2/2 3/3/3
f 4/4/4 5/5/5 6/6/6
f 7/7/7 8/8/8 9/9/9
f 10/10/10 11/11/11 12/12/12
f 13/13/13 14/14/14 15/15/15
f 16/16/16 17/17/17 18/18/18
f 19/19/19 20/20/20 21/21/21
f 22/22/22 23/23/23 24/24/24
f 25/25/25 26/26/26 27/27/27
f 28/28/28 29/29/29 30/30/30
f 31/31/31 32/32/32 33/33/33
f 34/34/34 35/35/35 36/36/36
f 37/37/37 38/38/38 39/39/39
f 40/40/40 41/41/41 42/42/42
f 43/43/43 44/44/44 45/45/45
f 46/46/46 47/47/47 48/48/48
f 49/49/49 50/50/50 51/51/51
f 52/52/52 53/53/53 54/54/54
f 55/55/55 56/56/56 57/57/57
f 58/58/58 59/59/59 60/60/60
f 61/61/61 62/62/62 63/63/63
f 64/64/64 65/65/65 66/66/66
f 67/67/67 68/68/68 69/69/69
f 70/70/70 71/71/71 72/72/72
f 73/73/73 74/74/74 75/75/75
f 76/76/76 77/77/77 78/78/78
f 79/79/79 80/80/80 81/81/81
f 82/82/82 83/83/83 84/84/84
f 85/85/85 86/86/86 87/87/87
f 88/88/88 89/89/89 90/90/90
f 91/91/91 92/92/92 93/93/93
f 94/94/94 95/95/95 96/96/96
f 97/97/97 98/98/98 99/99/99
f 100/100/100 101/101/101 102/102/102
f 103/103/103 104/104/104 105/105/105
f 106/106/106 107/107/107 108/108/108
f 109/109/109 110/110/110 111/111/111
f 112/112/112 113/113/113 114/114/114
f 115/115/115 116/116/116 117/117/117
f 118/118/118 119/119/119 120/120/120
f 121/121/121 122/122/122 123/123/123
f 124/124/124 125/125/125 126/126/126
f 127/127/127 128/128/128 129/129/129
f 130/130/130 131/131/131 132/132/132
f 133/133/133 134/134/134 135/135/135
f 136/136/136 137/137/137 138/138/138
f 139/139/139 140/140/140 141/141/141
f 142/142/142 143/143/143 144/144/144
f 145/145/145 146/146/146 147/147/147
f 148/148/148 149/149/149 150/150/150
f 151/151/151 152/152/152 153/153/153
f 154/154/154 155/155/155 156/156/156
f 157/157/157 158/158/158 159/159/159
f 160/160/160 161/161/161 162/162/162
f 163/163/163 164/164/164 165/165/165
f 166/166/166 167/167/167 168/168/168
f 169/169/169 170/170/170 171/171/171
f 172/172/172 173/173/173 174/174/174
f 175/175/175 176/176/176 177/177/177
f 178/178/178 179/179/179 180/180/180
# 60 triangles in group

# 60 triangles total

