#
# humantentmedium.mtl
#

newmtl HUMANTENTSDOOR_Dbl
illum 2
Kd 1.000000 1.000000 1.000000
Ka 0.250000 0.250000 0.250000
Ks 0.000000 0.000000 0.000000
Ke 0.000000 0.000000 0.000000
Ns 0.000000
map_Kd ../../../../../WORLD/ENVIRONMENT/BUILDING/STRANGLETHORN/HUMANTENTS/TEXTURES/BRIAN/HUMANTENTSDOOR.tga

newmtl ELWYNNFENCE_Dbl
illum 2
Kd 1.000000 1.000000 1.000000
Ka 0.250000 0.250000 0.250000
Ks 0.000000 0.000000 0.000000
Ke 0.000000 0.000000 0.000000
Ns 0.000000
map_Kd ../../../../../DUNGEONS/TEXTURES/WOOD/ELWYNNFENCE.tga

