{
	"type" : "DirectButton",
	"relief" : null,
	"geom" : {
		"MapPath": "image/drive_image/trans_button",
		"ImageNames": ["trans_button", "trans_button_hot", "trans_button_hot", "trans_button"]
	},
	"geom_scale" : [0.5, 1, 0.15],
	"text" : "Exit",
	"text_scale": [0.06, 0.06],
	"text_pos" : [0, -0.02],
	"text_fg" : [1, 1, 0.8, 1]
}