# Wavefront OBJ exported by WoW Model Viewer v0.7.0.5

mtllib kalidartreestump02.mtl

v 2.683500 5.596549 -2.402507
v 1.849733 5.605800 -1.632314
v 2.390351 8.814281 -2.185527
v -0.210521 9.360787 2.584716
v -0.126558 12.993774 3.567582
v -0.208403 12.601265 1.996027
v -0.126558 12.993774 3.567582
v -0.210521 9.360787 2.584716
v -0.149236 10.200777 6.381208
v -0.149236 10.200777 6.381208
v 0.004161 13.371392 6.077610
v -0.126558 12.993774 3.567582
v 3.573807 4.351024 -0.628208
v 4.051367 7.101875 0.448132
v 3.284644 6.652501 -0.628208
v 4.051367 7.101875 0.448132
v 3.573807 4.351024 -0.628208
v 5.593681 5.394841 1.311080
v 5.593681 5.394841 1.311080
v 5.573561 6.919958 1.399999
v 4.051367 7.101875 0.448132
v -2.482403 7.097739 -2.900089
v -3.394988 11.611975 -3.310174
v -2.060700 10.587166 -2.475810
v -3.394988 11.611975 -3.310174
v -2.482403 7.097739 -2.900089
v -5.686767 8.186677 -4.942580
v -5.686767 8.186677 -4.942580
v -5.526060 11.357292 -4.642789
v -3.394988 11.611975 -3.310174
v -2.686872 3.803586 -3.104556
v -0.493885 4.351024 -4.130295
v -0.320461 2.228472 -4.975475
v -0.320461 2.228472 -4.975475
v -0.766865 -0.882222 -6.549110
v -4.535437 -0.882222 -4.853224
v -2.686872 3.803586 -3.104556
v -0.320461 2.228472 -4.975475
v -4.535437 -0.882222 -4.853224
v -3.712609 4.951494 -0.628206
v -2.686872 3.803586 -3.104556
v -4.535437 -0.882222 -4.853224
v -0.269611 -0.882222 -3.707722
v 0.049092 -0.882222 -5.075910
v -0.224416 4.001539 -3.083651
v -0.746641 6.528804 -3.841132
v -0.155762 8.569299 -3.187603
v -0.519297 6.428566 -2.838389
v -0.493885 4.351024 -4.130295
v -0.746641 6.528804 -3.841132
v -0.519297 6.428566 -2.838389
v -0.224416 4.001539 -3.083651
v -0.493885 4.351024 -4.130295
v -0.519297 6.428566 -2.838389
v -0.320461 2.228472 -4.975475
v -0.493885 4.351024 -4.130295
v -0.224416 4.001539 -3.083651
v -0.224416 4.001539 -3.083651
v 0.049092 -0.882222 -5.075910
v -0.320461 2.228472 -4.975475
v 0.049092 -0.882222 -5.075910
v -0.766865 -0.882222 -6.549110
v -0.320461 2.228472 -4.975475
v 2.664864 -0.882222 -3.215334
v 3.169762 -0.882222 -1.323452
v 2.124114 4.001538 -2.218137
v 3.169762 -0.882222 -1.323452
v 2.364648 4.001536 -0.615900
v 2.124114 4.001538 -2.218137
v 3.169762 -0.882222 -1.323452
v 1.840733 -0.882222 1.416118
v 2.364648 4.001536 -0.615900
v 1.840733 -0.882222 1.416118
v 1.373163 4.001536 0.982800
v 2.364648 4.001536 -0.615900
v 2.124114 4.001538 -2.218137
v 2.364648 4.001536 -0.615900
v 1.849733 5.605800 -1.632314
v 2.364648 4.001536 -0.615900
v 2.177967 6.837743 -0.615900
v 1.849733 5.605800 -1.632314
v 2.364648 4.001536 -0.615900
v 1.373163 4.001536 0.982800
v 2.177967 6.837743 -0.615900
v 1.373163 4.001536 0.982800
v 1.241160 7.357187 0.850797
v 2.177967 6.837743 -0.615900
v 2.689102 8.863675 -0.623515
v 2.390351 8.814281 -2.185527
v 1.849733 5.605800 -1.632314
v 2.177967 6.837743 -0.615900
v 2.689102 8.863675 -0.623515
v 1.849733 5.605800 -1.632314
v 1.643891 10.068044 1.228780
v 2.689102 8.863675 -0.623515
v 2.177967 6.837743 -0.615900
v 1.241160 7.357187 0.850797
v 1.643891 10.068044 1.228780
v 2.177967 6.837743 -0.615900
v -0.208403 12.601265 1.996027
v 1.643891 10.068044 1.228780
v 1.241160 7.357187 0.850797
v -0.225536 8.951625 1.458324
v -0.208403 12.601265 1.996027
v 1.241160 7.357187 0.850797
v -2.036029 11.948583 1.040180
v -0.208403 12.601265 1.996027
v -0.225536 8.951625 1.458324
v -1.692234 9.219978 0.850798
v -2.036029 11.948583 1.040180
v -0.225536 8.951625 1.458324
v -2.827945 12.033946 -0.623514
v -2.036029 11.948583 1.040180
v -1.692234 9.219978 0.850798
v -2.770973 7.735629 -0.615899
v -2.827945 12.033946 -0.623514
v -1.692234 9.219978 0.850798
v -2.060700 10.587166 -2.475810
v -2.827945 12.033946 -0.623514
v -2.770973 7.735629 -0.615899
v -2.175846 7.415188 -2.082596
v -2.060700 10.587166 -2.475810
v -2.770973 7.735629 -0.615899
v -0.155762 8.569299 -3.187603
v -2.060700 10.587166 -2.475810
v -2.175846 7.415188 -2.082596
v -0.519297 6.428566 -2.838389
v -0.155762 8.569299 -3.187603
v -2.175846 7.415188 -2.082596
v 1.373163 4.001536 0.982800
v -0.225536 4.001536 1.645004
v 1.241160 7.357187 0.850797
v -0.225536 4.001536 1.645004
v -0.225536 8.951625 1.458324
v 1.241160 7.357187 0.850797
v -0.225536 4.001536 1.645004
v -1.866458 3.397272 0.742108
v -0.225536 8.951625 1.458324
v -1.866458 3.397272 0.742108
v -1.692234 9.219978 0.850798
v -0.225536 8.951625 1.458324
v -1.866458 3.397272 0.742108
v -2.486440 4.001536 -0.615899
v -1.692234 9.219978 0.850798
v -2.486440 4.001536 -0.615899
v -2.770973 7.735629 -0.615899
v -1.692234 9.219978 0.850798
v -2.486440 4.001536 -0.615899
v -1.824238 4.001536 -2.214599
v -2.770973 7.735629 -0.615899
v -1.824238 4.001536 -2.214599
v -2.175846 7.415188 -2.082596
v -2.770973 7.735629 -0.615899
v -1.824238 4.001536 -2.214599
v -0.224416 4.001539 -3.083651
v -2.175846 7.415188 -2.082596
v -0.224416 4.001539 -3.083651
v -0.519297 6.428566 -2.838389
v -2.175846 7.415188 -2.082596
v 1.840733 -0.882222 1.416118
v -0.195950 -0.882222 2.259740
v 1.373163 4.001536 0.982800
v -0.195950 -0.882222 2.259740
v -0.225536 4.001536 1.645004
v 1.373163 4.001536 0.982800
v -0.195950 -0.882222 2.259740
v -2.232635 -0.882222 1.416119
v -0.225536 4.001536 1.645004
v -2.232635 -0.882222 1.416119
v -1.866458 3.397272 0.742108
v -0.225536 4.001536 1.645004
v -2.232635 -0.882222 1.416119
v -3.615129 -0.882222 -0.620565
v -1.866458 3.397272 0.742108
v -3.615129 -0.882222 -0.620565
v -2.486440 4.001536 -0.615899
v -1.866458 3.397272 0.742108
v -3.615129 -0.882222 -0.620565
v -2.232637 -0.882222 -2.657250
v -2.486440 4.001536 -0.615899
v -2.232637 -0.882222 -2.657250
v -1.824238 4.001536 -2.214599
v -2.486440 4.001536 -0.615899
v -2.232637 -0.882222 -2.657250
v -0.269611 -0.882222 -3.707722
v -1.824238 4.001536 -2.214599
v -0.269611 -0.882222 -3.707722
v -0.224416 4.001539 -3.083651
v -1.824238 4.001536 -2.214599
v -0.210521 9.360787 2.584716
v 2.061359 7.097739 1.643672
v 1.643891 10.068044 1.228780
v -0.208403 12.601265 1.996027
v -0.210521 9.360787 2.584716
v 1.643891 10.068044 1.228780
v -2.482401 9.651347 1.643674
v -0.210521 9.360787 2.584716
v -0.208403 12.601265 1.996027
v -2.036029 11.948583 1.040180
v -2.482401 9.651347 1.643674
v -0.208403 12.601265 1.996027
v -3.423446 7.097740 -0.628206
v -2.482401 9.651347 1.643674
v -2.036029 11.948583 1.040180
v -2.827945 12.033946 -0.623514
v -3.423446 7.097740 -0.628206
v -2.036029 11.948583 1.040180
v -2.482403 7.097739 -2.900089
v -3.423446 7.097740 -0.628206
v -2.827945 12.033946 -0.623514
v -2.060700 10.587166 -2.475810
v -2.482403 7.097739 -2.900089
v -2.827945 12.033946 -0.623514
v -0.746641 6.528804 -3.841132
v -2.482403 7.097739 -2.900089
v -2.060700 10.587166 -2.475810
v -0.155762 8.569299 -3.187603
v -0.746641 6.528804 -3.841132
v -2.060700 10.587166 -2.475810
v 2.061359 7.097739 1.643672
v -0.210521 9.360787 2.584716
v 2.265829 3.425270 1.848142
v -0.210521 9.360787 2.584716
v -0.210521 4.351025 2.873879
v 2.265829 3.425270 1.848142
v -0.210521 9.360787 2.584716
v -2.482401 9.651347 1.643674
v -0.210521 4.351025 2.873879
v -2.482401 9.651347 1.643674
v -2.590376 5.484279 1.673915
v -0.210521 4.351025 2.873879
v -2.482401 9.651347 1.643674
v -3.423446 7.097740 -0.628206
v -2.590376 5.484279 1.673915
v -3.423446 7.097740 -0.628206
v -3.712609 4.951494 -0.628206
v -2.590376 5.484279 1.673915
v -3.423446 7.097740 -0.628206
v -2.482403 7.097739 -2.900089
v -3.712609 4.951494 -0.628206
v -2.482403 7.097739 -2.900089
v -2.686872 3.803586 -3.104556
v -3.712609 4.951494 -0.628206
v -2.482403 7.097739 -2.900089
v -0.746641 6.528804 -3.841132
v -2.686872 3.803586 -3.104556
v -0.746641 6.528804 -3.841132
v -0.493885 4.351024 -4.130295
v -2.686872 3.803586 -3.104556
v -7.414105 0.904065 -0.621516
v -8.358292 -0.882222 -0.620564
v -6.124414 -0.882222 1.533959
v -4.525857 2.551090 -0.623605
v -6.124414 -0.882222 1.533959
v -3.848220 -0.882222 2.706097
v -4.525857 2.551090 -0.623605
v -6.333614 1.842487 -0.622016
v -6.124414 -0.882222 1.533959
v -6.333614 1.842487 -0.622016
v -7.414105 0.904065 -0.621516
v -6.124414 -0.882222 1.533959
v -6.333614 1.842487 -0.622016
v -5.672709 -0.882222 -2.173840
v -7.414105 0.904065 -0.621516
v -7.414105 0.904065 -0.621516
v -5.672709 -0.882222 -2.173840
v -8.358292 -0.882222 -0.620564
v -4.525857 2.551090 -0.623605
v -5.672709 -0.882222 -2.173840
v -6.333614 1.842487 -0.622016
v -2.590376 5.484279 1.673915
v -2.701622 -0.882222 4.702146
v 0.440308 -0.882222 3.751863
v -2.590376 5.484279 1.673915
v -3.848220 -0.882222 2.706097
v -2.701622 -0.882222 4.702146
v -2.590376 5.484279 1.673915
v -3.712609 4.951494 -0.628206
v -3.848220 -0.882222 2.706097
v -3.712609 4.951494 -0.628206
v -4.525857 2.551090 -0.623605
v -3.848220 -0.882222 2.706097
v -3.712609 4.951494 -0.628206
v -4.535437 -0.882222 -4.853224
v -4.525857 2.551090 -0.623605
v -4.525857 2.551090 -0.623605
v -4.535437 -0.882222 -4.853224
v -5.672709 -0.882222 -2.173840
v 4.460278 1.282293 3.835952
v 0.440308 -0.882222 3.751863
v 5.352724 -0.882222 4.731354
v 3.545572 2.126806 3.028522
v 0.440308 -0.882222 3.751863
v 4.460278 1.282293 3.835952
v 4.460278 1.282293 3.835952
v 5.352724 -0.882222 4.731354
v 5.494573 -0.882222 -1.323453
v 3.545572 2.126806 3.028522
v 4.460278 1.282293 3.835952
v 5.494573 -0.882222 -1.323453
v 2.720379 2.127223 2.300109
v 3.545572 2.126806 3.028522
v 5.494573 -0.882222 -1.323453
v 2.720379 2.127223 2.300109
v 0.440308 -0.882222 3.751863
v 3.545572 2.126806 3.028522
v 2.720379 2.127223 2.300109
v -0.210521 4.351025 2.873879
v 0.440308 -0.882222 3.751863
v -0.210521 4.351025 2.873879
v -2.590376 5.484279 1.673915
v 0.440308 -0.882222 3.751863
v 3.376342 2.285012 -3.454398
v 4.092299 -0.882222 -5.426196
v 2.912844 -0.882222 -4.509965
v 3.376342 2.285012 -3.454398
v 5.494573 -0.882222 -1.323453
v 4.092299 -0.882222 -5.426196
v 3.376342 2.285012 -3.454398
v 3.573807 4.351024 -0.628208
v 5.494573 -0.882222 -1.323453
v 3.573807 4.351024 -0.628208
v 2.720379 2.127223 2.300109
v 5.494573 -0.882222 -1.323453
v 3.573807 4.351024 -0.628208
v 2.265829 3.425270 1.848142
v 2.720379 2.127223 2.300109
v 2.265829 3.425270 1.848142
v -0.210521 4.351025 2.873879
v 2.720379 2.127223 2.300109
v 2.124114 4.001538 -2.218137
v 2.912844 -0.882222 -4.509965
v 2.664864 -0.882222 -3.215334
v 2.124114 4.001538 -2.218137
v 3.376342 2.285012 -3.454398
v 2.912844 -0.882222 -4.509965
v 2.124114 4.001538 -2.218137
v 2.908221 4.351024 -2.744293
v 3.376342 2.285012 -3.454398
v 2.908221 4.351024 -2.744293
v 3.573807 4.351024 -0.628208
v 3.376342 2.285012 -3.454398
v 3.284644 6.652501 -0.628208
v 2.683500 5.596549 -2.402507
v 2.390351 8.814281 -2.185527
v 2.689102 8.863675 -0.623515
v 3.284644 6.652501 -0.628208
v 2.390351 8.814281 -2.185527
v 2.061359 7.097739 1.643672
v 3.284644 6.652501 -0.628208
v 2.689102 8.863675 -0.623515
v 1.643891 10.068044 1.228780
v 2.061359 7.097739 1.643672
v 2.689102 8.863675 -0.623515
v 1.849733 5.605800 -1.632314
v 2.683500 5.596549 -2.402507
v 2.124114 4.001538 -2.218137
v 2.683500 5.596549 -2.402507
v 2.908221 4.351024 -2.744293
v 2.124114 4.001538 -2.218137
v 2.683500 5.596549 -2.402507
v 3.284644 6.652501 -0.628208
v 2.908221 4.351024 -2.744293
v 3.284644 6.652501 -0.628208
v 3.573807 4.351024 -0.628208
v 2.908221 4.351024 -2.744293
v 3.284644 6.652501 -0.628208
v 2.061359 7.097739 1.643672
v 3.573807 4.351024 -0.628208
v 2.061359 7.097739 1.643672
v 2.265829 3.425270 1.848142
v 3.573807 4.351024 -0.628208
# 372 vertices

vt 0.608497 0.645191
vt 0.492563 0.625674
vt 0.412440 0.243048
vt 0.980676 0.758454
vt 0.604475 1.000000
vt 0.980676 1.000000
vt 0.604475 1.000000
vt 0.980676 0.758454
vt 0.003621 0.758454
vt 0.003621 0.758454
vt 0.003621 1.000000
vt 0.604475 1.000000
vt 0.980676 0.758454
vt 0.604475 1.000000
vt 0.980676 1.000000
vt 0.604475 1.000000
vt 0.980676 0.758454
vt 0.003621 0.758454
vt 0.003621 0.758454
vt 0.003621 1.000000
vt 0.604475 1.000000
vt 0.980676 0.758454
vt 0.604475 1.000000
vt 0.980676 1.000000
vt 0.604475 1.000000
vt 0.980676 0.758454
vt 0.003621 0.758454
vt 0.003621 0.758454
vt 0.003621 1.000000
vt 0.604475 1.000000
vt 0.655101 0.437678
vt 0.046598 0.416961
vt 0.045168 0.234423
vt 0.045168 0.234423
vt 0.043387 0.007206
vt 0.662150 0.007037
vt 0.655101 0.437678
vt 0.045168 0.234423
vt 0.662150 0.007037
vt 0.046598 0.416961
vt 0.655101 0.437678
vt 0.662150 0.007037
vt 0.289428 0.010926
vt 0.185629 0.014416
vt 0.339227 0.433468
vt 0.099524 0.657269
vt 0.052467 0.276400
vt 0.360085 0.721241
vt 0.052467 0.450313
vt 0.099524 0.657269
vt 0.360085 0.721241
vt 0.339227 0.433468
vt 0.052467 0.450313
vt 0.360085 0.721241
vt 0.049529 0.258221
vt 0.052467 0.450313
vt 0.339227 0.433468
vt 0.339227 0.433468
vt 0.185629 0.014416
vt 0.049529 0.258221
vt 0.185629 0.014416
vt 0.045871 0.019114
vt 0.049529 0.258221
vt 0.527656 0.023003
vt 0.152313 0.013959
vt 0.531480 0.445545
vt 0.152313 0.013959
vt 0.150362 0.457318
vt 0.531480 0.445545
vt 0.152313 0.013959
vt 0.527656 0.023003
vt 0.150362 0.457318
vt 0.527656 0.023003
vt 0.531480 0.445545
vt 0.150362 0.457318
vt 0.531480 0.445545
vt 0.150362 0.457318
vt 0.512575 0.733319
vt 0.150362 0.457318
vt 0.169782 0.733684
vt 0.512575 0.733319
vt 0.150362 0.457318
vt 0.531480 0.445545
vt 0.169782 0.733684
vt 0.531480 0.445545
vt 0.512575 0.733319
vt 0.169782 0.733684
vt 0.150362 0.283405
vt 0.531480 0.329603
vt 0.512575 0.733319
vt 0.169782 0.733684
vt 0.150362 0.283405
vt 0.512575 0.733319
vt 0.531480 0.329603
vt 0.150362 0.283405
vt 0.169782 0.733684
vt 0.512575 0.733319
vt 0.531480 0.329603
vt 0.169782 0.733684
vt 0.150362 0.283405
vt 0.531480 0.329603
vt 0.512575 0.733319
vt 0.169782 0.733684
vt 0.150362 0.283405
vt 0.512575 0.733319
vt 0.531480 0.329603
vt 0.150362 0.283405
vt 0.169782 0.733684
vt 0.512575 0.733319
vt 0.531480 0.329603
vt 0.169782 0.733684
vt 0.150362 0.283405
vt 0.531480 0.329603
vt 0.512575 0.733319
vt 0.169782 0.733684
vt 0.150362 0.283405
vt 0.512575 0.733319
vt 0.531480 0.329603
vt 0.150362 0.283405
vt 0.169782 0.733684
vt 0.512575 0.733319
vt 0.531480 0.329603
vt 0.169782 0.733684
vt 0.150362 0.283405
vt 0.531480 0.329603
vt 0.512575 0.733319
vt 0.169782 0.733684
vt 0.150362 0.283405
vt 0.512575 0.733319
vt 0.531480 0.445545
vt 0.150362 0.457318
vt 0.512575 0.733319
vt 0.150362 0.457318
vt 0.169782 0.733684
vt 0.512575 0.733319
vt 0.150362 0.457318
vt 0.531480 0.445545
vt 0.169782 0.733684
vt 0.531480 0.445545
vt 0.512575 0.733319
vt 0.169782 0.733684
vt 0.531480 0.445545
vt 0.150362 0.457318
vt 0.512575 0.733319
vt 0.150362 0.457318
vt 0.169782 0.733684
vt 0.512575 0.733319
vt 0.150362 0.457318
vt 0.531480 0.445545
vt 0.169782 0.733684
vt 0.531480 0.445545
vt 0.512575 0.733319
vt 0.169782 0.733684
vt 0.531480 0.445545
vt 0.150362 0.457318
vt 0.512575 0.733319
vt 0.150362 0.457318
vt 0.169782 0.733684
vt 0.512575 0.733319
vt 0.527656 0.023003
vt 0.152313 0.013959
vt 0.531480 0.445545
vt 0.152313 0.013959
vt 0.150362 0.457318
vt 0.531480 0.445545
vt 0.152313 0.013959
vt 0.527656 0.023003
vt 0.150362 0.457318
vt 0.527656 0.023003
vt 0.531480 0.445545
vt 0.150362 0.457318
vt 0.527656 0.023003
vt 0.152313 0.013959
vt 0.531480 0.445545
vt 0.152313 0.013959
vt 0.150362 0.457318
vt 0.531480 0.445545
vt 0.152313 0.013959
vt 0.527656 0.023003
vt 0.150362 0.457318
vt 0.527656 0.023003
vt 0.531480 0.445545
vt 0.150362 0.457318
vt 0.527656 0.023003
vt 0.152313 0.013959
vt 0.531480 0.445545
vt 0.152313 0.013959
vt 0.150362 0.457318
vt 0.531480 0.445545
vt 0.099524 0.657269
vt 0.608497 0.645191
vt 0.655101 0.321736
vt 0.046598 0.262372
vt 0.099524 0.657269
vt 0.655101 0.321736
vt 0.608497 0.645191
vt 0.099524 0.657269
vt 0.046598 0.262372
vt 0.655101 0.321736
vt 0.608497 0.645191
vt 0.046598 0.262372
vt 0.099524 0.657269
vt 0.608497 0.645191
vt 0.655101 0.321736
vt 0.046598 0.262372
vt 0.099524 0.657269
vt 0.655101 0.321736
vt 0.608497 0.645191
vt 0.099524 0.657269
vt 0.046598 0.262372
vt 0.655101 0.321736
vt 0.608497 0.645191
vt 0.046598 0.262372
vt 0.099524 0.657269
vt 0.608497 0.645191
vt 0.655101 0.321736
vt 0.046598 0.262372
vt 0.099524 0.657269
vt 0.655101 0.321736
vt 0.608497 0.645191
vt 0.099524 0.657269
vt 0.655101 0.437678
vt 0.099524 0.657269
vt 0.046598 0.416961
vt 0.655101 0.437678
vt 0.099524 0.657269
vt 0.608497 0.645191
vt 0.046598 0.416961
vt 0.608497 0.645191
vt 0.655101 0.437678
vt 0.046598 0.416961
vt 0.608497 0.645191
vt 0.099524 0.657269
vt 0.655101 0.437678
vt 0.099524 0.657269
vt 0.046598 0.416961
vt 0.655101 0.437678
vt 0.099524 0.657269
vt 0.608497 0.645191
vt 0.046598 0.416961
vt 0.608497 0.645191
vt 0.655101 0.437678
vt 0.046598 0.416961
vt 0.608497 0.645191
vt 0.099524 0.657269
vt 0.655101 0.437678
vt 0.099524 0.657269
vt 0.046598 0.416961
vt 0.655101 0.437678
vt 0.043787 0.058234
vt 0.043387 0.007206
vt 0.304506 0.007134
vt 0.044665 0.170280
vt 0.304506 0.007134
vt 0.662150 0.007037
vt 0.044665 0.170280
vt 0.043997 0.085042
vt 0.304506 0.007134
vt 0.043997 0.085042
vt 0.043787 0.058234
vt 0.304506 0.007134
vt 0.043997 0.085042
vt 0.269323 0.007144
vt 0.043787 0.058234
vt 0.043787 0.058234
vt 0.269323 0.007144
vt 0.043387 0.007206
vt 0.044665 0.170280
vt 0.269323 0.007144
vt 0.043997 0.085042
vt 0.655101 0.437678
vt 0.436799 0.007126
vt 0.043387 0.007206
vt 0.655101 0.437678
vt 0.662150 0.007037
vt 0.436799 0.007126
vt 0.655101 0.437678
vt 0.046598 0.416961
vt 0.662150 0.007037
vt 0.046598 0.416961
vt 0.044665 0.170280
vt 0.662150 0.007037
vt 0.046598 0.416961
vt 0.662150 0.007037
vt 0.044665 0.170280
vt 0.044665 0.170280
vt 0.662150 0.007037
vt 0.269323 0.007144
vt 0.660168 0.128137
vt 0.043387 0.007206
vt 0.662150 0.007037
vt 0.658886 0.206435
vt 0.043387 0.007206
vt 0.660168 0.128137
vt 0.660168 0.128137
vt 0.662150 0.007037
vt 0.043387 0.007206
vt 0.658886 0.206435
vt 0.660168 0.128137
vt 0.043387 0.007206
vt 0.657730 0.277070
vt 0.658886 0.206435
vt 0.043387 0.007206
vt 0.657730 0.277070
vt 0.043387 0.007206
vt 0.658886 0.206435
vt 0.657730 0.277070
vt 0.046598 0.416961
vt 0.043387 0.007206
vt 0.046598 0.416961
vt 0.655101 0.437678
vt 0.043387 0.007206
vt 0.658162 0.267763
vt 0.662150 0.007037
vt 0.522735 0.007129
vt 0.658162 0.267763
vt 0.043387 0.007206
vt 0.662150 0.007037
vt 0.658162 0.267763
vt 0.046598 0.416961
vt 0.043387 0.007206
vt 0.046598 0.416961
vt 0.657730 0.277070
vt 0.043387 0.007206
vt 0.046598 0.416961
vt 0.655101 0.437678
vt 0.657730 0.277070
vt 0.655101 0.437678
vt 0.046598 0.416961
vt 0.657730 0.277070
vt 0.412440 0.416961
vt 0.522735 0.007129
vt 0.409229 0.007206
vt 0.412440 0.416961
vt 0.658162 0.267763
vt 0.522735 0.007129
vt 0.412440 0.416961
vt 0.655101 0.437678
vt 0.658162 0.267763
vt 0.655101 0.437678
vt 0.046598 0.416961
vt 0.658162 0.267763
vt 0.099524 0.657269
vt 0.608497 0.645191
vt 0.655101 0.321736
vt 0.046598 0.262372
vt 0.099524 0.657269
vt 0.655101 0.321736
vt 0.608497 0.645191
vt 0.099524 0.657269
vt 0.046598 0.262372
vt 0.655101 0.321736
vt 0.608497 0.645191
vt 0.046598 0.262372
vt 0.492563 0.625674
vt 0.608497 0.645191
vt 0.412440 0.416961
vt 0.608497 0.645191
vt 0.655101 0.437678
vt 0.412440 0.416961
vt 0.608497 0.645191
vt 0.099524 0.657269
vt 0.655101 0.437678
vt 0.099524 0.657269
vt 0.046598 0.416961
vt 0.655101 0.437678
vt 0.099524 0.657269
vt 0.608497 0.645191
vt 0.046598 0.416961
vt 0.608497 0.645191
vt 0.655101 0.437678
vt 0.046598 0.416961
# 372 texture coordinates

vn -0.834855 0.547085 0.060943
vn -0.145248 0.177994 0.973253
vn -0.547922 0.831383 -0.092651
vn 0.030641 0.047952 0.998380
vn 0.035009 0.088378 0.995472
vn 0.049577 0.031328 0.998279
vn 0.035009 0.088378 0.995472
vn 0.030641 0.047952 0.998380
vn 0.027708 0.116679 0.992783
vn 0.027708 0.116679 0.992783
vn 0.043494 0.168048 0.984819
vn 0.035009 0.088378 0.995472
vn 0.625264 -0.424934 0.654581
vn 0.700930 -0.350294 0.621282
vn 0.577970 -0.307967 0.755716
vn 0.700930 -0.350294 0.621282
vn 0.625264 -0.424934 0.654581
vn 0.752921 -0.366777 0.546429
vn 0.752921 -0.366777 0.546429
vn 0.831085 -0.179682 0.526319
vn 0.700930 -0.350294 0.621282
vn -0.831483 0.111821 -0.544180
vn -0.834097 0.131994 -0.535592
vn -0.830117 0.113378 -0.545941
vn -0.834097 0.131994 -0.535592
vn -0.831483 0.111821 -0.544180
vn -0.835937 0.141257 -0.530336
vn -0.835937 0.141257 -0.530336
vn -0.838087 0.171907 -0.517743
vn -0.834097 0.131994 -0.535592
vn -0.620667 0.625614 0.472630
vn -0.578577 0.636871 -0.509553
vn -0.514910 0.801057 -0.305247
vn -0.514910 0.801057 -0.305247
vn -0.555844 0.785819 -0.271158
vn -0.337732 0.852838 0.398251
vn -0.620667 0.625614 0.472630
vn -0.514910 0.801057 -0.305247
vn -0.337732 0.852838 0.398251
vn -0.032140 0.641925 0.766094
vn -0.620667 0.625614 0.472630
vn -0.337732 0.852838 0.398251
vn 0.681769 -0.305120 -0.664901
vn -0.141177 0.222706 -0.964609
vn 0.407995 0.128486 -0.903898
vn -0.907945 0.400454 -0.123585
vn 0.332344 0.398818 -0.854688
vn 0.306099 0.088176 -0.947908
vn -0.578577 0.636871 -0.509553
vn -0.907945 0.400454 -0.123585
vn 0.306099 0.088176 -0.947908
vn 0.407995 0.128486 -0.903898
vn -0.578577 0.636871 -0.509553
vn 0.306099 0.088176 -0.947908
vn -0.514910 0.801057 -0.305247
vn -0.578577 0.636871 -0.509553
vn 0.407995 0.128486 -0.903898
vn 0.407995 0.128486 -0.903898
vn -0.141177 0.222706 -0.964609
vn -0.514910 0.801057 -0.305247
vn -0.141177 0.222706 -0.964609
vn -0.555844 0.785819 -0.271158
vn -0.514910 0.801057 -0.305247
vn 0.030036 -0.355403 0.934231
vn -0.013947 -0.436752 0.899474
vn -0.415049 0.046509 0.908609
vn -0.013947 -0.436752 0.899474
vn -0.139584 -0.390955 0.909764
vn -0.415049 0.046509 0.908609
vn -0.013947 -0.436752 0.899474
vn -0.619520 -0.353231 0.701015
vn -0.139584 -0.390955 0.909764
vn -0.619520 -0.353231 0.701015
vn -0.729634 -0.285694 0.621300
vn -0.139584 -0.390955 0.909764
vn -0.415049 0.046509 0.908609
vn -0.139584 -0.390955 0.909764
vn -0.145248 0.177994 0.973253
vn -0.139584 -0.390955 0.909764
vn -0.319020 0.257524 0.912090
vn -0.145248 0.177994 0.973253
vn -0.139584 -0.390955 0.909764
vn -0.729634 -0.285694 0.621300
vn -0.319020 0.257524 0.912090
vn -0.729634 -0.285694 0.621300
vn -0.844707 0.199001 0.496859
vn -0.319020 0.257524 0.912090
vn 0.058530 0.998277 0.004073
vn -0.547922 0.831383 -0.092651
vn -0.145248 0.177994 0.973253
vn -0.319020 0.257524 0.912090
vn 0.058530 0.998277 0.004073
vn -0.145248 0.177994 0.973253
vn -0.021205 0.997680 -0.064691
vn 0.058530 0.998277 0.004073
vn -0.319020 0.257524 0.912090
vn -0.844707 0.199001 0.496859
vn -0.021205 0.997680 -0.064691
vn -0.319020 0.257524 0.912090
vn -0.104736 0.990669 0.087206
vn -0.021205 0.997680 -0.064691
vn -0.844707 0.199001 0.496859
vn -0.965693 0.183597 -0.183656
vn -0.104736 0.990669 0.087206
vn -0.844707 0.199001 0.496859
vn -0.269774 0.946786 0.175550
vn -0.104736 0.990669 0.087206
vn -0.965693 0.183597 -0.183656
vn -0.674295 0.172282 -0.718085
vn -0.269774 0.946786 0.175550
vn -0.965693 0.183597 -0.183656
vn -0.518628 0.854940 0.010129
vn -0.269774 0.946786 0.175550
vn -0.674295 0.172282 -0.718085
vn 0.048382 0.149052 -0.987645
vn -0.518628 0.854940 0.010129
vn -0.674295 0.172282 -0.718085
vn -0.216402 0.895316 -0.389332
vn -0.518628 0.854940 0.010129
vn 0.048382 0.149052 -0.987645
vn 0.760497 0.130373 -0.636119
vn -0.216402 0.895316 -0.389332
vn 0.048382 0.149052 -0.987645
vn 0.332344 0.398818 -0.854688
vn -0.216402 0.895316 -0.389332
vn 0.760497 0.130373 -0.636119
vn 0.306099 0.088176 -0.947908
vn 0.332344 0.398818 -0.854688
vn 0.760497 0.130373 -0.636119
vn -0.729634 -0.285694 0.621300
vn -0.953133 -0.300356 -0.036377
vn -0.844707 0.199001 0.496859
vn -0.953133 -0.300356 -0.036377
vn -0.965693 0.183597 -0.183656
vn -0.844707 0.199001 0.496859
vn -0.953133 -0.300356 -0.036377
vn -0.682694 -0.307821 -0.662703
vn -0.965693 0.183597 -0.183656
vn -0.682694 -0.307821 -0.662703
vn -0.674295 0.172282 -0.718085
vn -0.965693 0.183597 -0.183656
vn -0.682694 -0.307821 -0.662703
vn -0.042386 -0.229201 -0.972456
vn -0.674295 0.172282 -0.718085
vn -0.042386 -0.229201 -0.972456
vn 0.048382 0.149052 -0.987645
vn -0.674295 0.172282 -0.718085
vn -0.042386 -0.229201 -0.972456
vn 0.663199 -0.101058 -0.741589
vn 0.048382 0.149052 -0.987645
vn 0.663199 -0.101058 -0.741589
vn 0.760497 0.130373 -0.636119
vn 0.048382 0.149052 -0.987645
vn 0.663199 -0.101058 -0.741589
vn 0.407995 0.128486 -0.903898
vn 0.760497 0.130373 -0.636119
vn 0.407995 0.128486 -0.903898
vn 0.306099 0.088176 -0.947908
vn 0.760497 0.130373 -0.636119
vn -0.619520 -0.353231 0.701015
vn -0.917517 -0.377076 0.126400
vn -0.729634 -0.285694 0.621300
vn -0.917517 -0.377076 0.126400
vn -0.953133 -0.300356 -0.036377
vn -0.729634 -0.285694 0.621300
vn -0.917517 -0.377076 0.126400
vn -0.716564 -0.449144 -0.533672
vn -0.953133 -0.300356 -0.036377
vn -0.716564 -0.449144 -0.533672
vn -0.682694 -0.307821 -0.662703
vn -0.953133 -0.300356 -0.036377
vn -0.716564 -0.449144 -0.533672
vn -0.157233 -0.570719 -0.805951
vn -0.682694 -0.307821 -0.662703
vn -0.157233 -0.570719 -0.805951
vn -0.042386 -0.229201 -0.972456
vn -0.682694 -0.307821 -0.662703
vn -0.157233 -0.570719 -0.805951
vn 0.573838 -0.429189 -0.697501
vn -0.042386 -0.229201 -0.972456
vn 0.573838 -0.429189 -0.697501
vn 0.663199 -0.101058 -0.741589
vn -0.042386 -0.229201 -0.972456
vn 0.573838 -0.429189 -0.697501
vn 0.681769 -0.305120 -0.664901
vn 0.663199 -0.101058 -0.741589
vn 0.681769 -0.305120 -0.664901
vn 0.407995 0.128486 -0.903898
vn 0.663199 -0.101058 -0.741589
vn 0.904023 0.377233 -0.201090
vn 0.549509 0.440162 -0.710139
vn -0.021205 0.997680 -0.064691
vn -0.104736 0.990669 0.087206
vn 0.904023 0.377233 -0.201090
vn -0.021205 0.997680 -0.064691
vn 0.677102 0.422774 0.602324
vn 0.904023 0.377233 -0.201090
vn -0.104736 0.990669 0.087206
vn -0.269774 0.946786 0.175550
vn 0.677102 0.422774 0.602324
vn -0.104736 0.990669 0.087206
vn 0.097771 0.382962 0.918576
vn 0.677102 0.422774 0.602324
vn -0.269774 0.946786 0.175550
vn -0.518628 0.854940 0.010129
vn 0.097771 0.382962 0.918576
vn -0.269774 0.946786 0.175550
vn -0.561322 0.382468 0.733918
vn 0.097771 0.382962 0.918576
vn -0.518628 0.854940 0.010129
vn -0.216402 0.895316 -0.389332
vn -0.561322 0.382468 0.733918
vn -0.518628 0.854940 0.010129
vn -0.907945 0.400454 -0.123585
vn -0.561322 0.382468 0.733918
vn -0.216402 0.895316 -0.389332
vn 0.332344 0.398818 -0.854688
vn -0.907945 0.400454 -0.123585
vn -0.216402 0.895316 -0.389332
vn 0.549509 0.440162 -0.710139
vn 0.904023 0.377233 -0.201090
vn 0.640005 0.572959 -0.511969
vn 0.904023 0.377233 -0.201090
vn 0.898514 0.438544 0.018755
vn 0.640005 0.572959 -0.511969
vn 0.904023 0.377233 -0.201090
vn 0.677102 0.422774 0.602324
vn 0.898514 0.438544 0.018755
vn 0.677102 0.422774 0.602324
vn 0.609246 0.513625 0.604159
vn 0.898514 0.438544 0.018755
vn 0.677102 0.422774 0.602324
vn 0.097771 0.382962 0.918576
vn 0.609246 0.513625 0.604159
vn 0.097771 0.382962 0.918576
vn -0.032140 0.641925 0.766094
vn 0.609246 0.513625 0.604159
vn 0.097771 0.382962 0.918576
vn -0.561322 0.382468 0.733918
vn -0.032140 0.641925 0.766094
vn -0.561322 0.382468 0.733918
vn -0.620667 0.625614 0.472630
vn -0.032140 0.641925 0.766094
vn -0.561322 0.382468 0.733918
vn -0.907945 0.400454 -0.123585
vn -0.620667 0.625614 0.472630
vn -0.907945 0.400454 -0.123585
vn -0.578577 0.636871 -0.509553
vn -0.620667 0.625614 0.472630
vn -0.076869 0.925774 0.370179
vn -0.088293 0.860384 0.501941
vn 0.384387 0.892735 0.235099
vn 0.036711 0.925111 0.377919
vn 0.384387 0.892735 0.235099
vn 0.354936 0.763924 0.538926
vn 0.036711 0.925111 0.377919
vn -0.060295 0.980367 0.187739
vn 0.384387 0.892735 0.235099
vn -0.060295 0.980367 0.187739
vn -0.076869 0.925774 0.370179
vn 0.384387 0.892735 0.235099
vn -0.060295 0.980367 0.187739
vn -0.483709 0.820467 0.304729
vn -0.076869 0.925774 0.370179
vn -0.076869 0.925774 0.370179
vn -0.483709 0.820467 0.304729
vn -0.088293 0.860384 0.501941
vn 0.036711 0.925111 0.377919
vn -0.483709 0.820467 0.304729
vn -0.060295 0.980367 0.187739
vn 0.609246 0.513625 0.604159
vn 0.520871 0.817506 0.245719
vn 0.608190 0.789305 0.084273
vn 0.609246 0.513625 0.604159
vn 0.354936 0.763924 0.538926
vn 0.520871 0.817506 0.245719
vn 0.609246 0.513625 0.604159
vn -0.032140 0.641925 0.766094
vn 0.354936 0.763924 0.538926
vn -0.032140 0.641925 0.766094
vn 0.036711 0.925111 0.377919
vn 0.354936 0.763924 0.538926
vn -0.032140 0.641925 0.766094
vn -0.337732 0.852838 0.398251
vn 0.036711 0.925111 0.377919
vn 0.036711 0.925111 0.377919
vn -0.337732 0.852838 0.398251
vn -0.483709 0.820467 0.304729
vn 0.282048 0.942302 -0.180325
vn 0.608190 0.789305 0.084273
vn 0.381549 0.881964 -0.276694
vn 0.119085 0.992520 -0.026885
vn 0.608190 0.789305 0.084273
vn 0.282048 0.942302 -0.180325
vn 0.282048 0.942302 -0.180325
vn 0.381549 0.881964 -0.276694
vn -0.056727 0.879503 -0.472501
vn 0.119085 0.992520 -0.026885
vn 0.282048 0.942302 -0.180325
vn -0.056727 0.879503 -0.472501
vn 0.331414 0.907239 -0.259003
vn 0.119085 0.992520 -0.026885
vn -0.056727 0.879503 -0.472501
vn 0.331414 0.907239 -0.259003
vn 0.608190 0.789305 0.084273
vn 0.119085 0.992520 -0.026885
vn 0.331414 0.907239 -0.259003
vn 0.898514 0.438544 0.018755
vn 0.608190 0.789305 0.084273
vn 0.898514 0.438544 0.018755
vn 0.609246 0.513625 0.604159
vn 0.608190 0.789305 0.084273
vn -0.481870 0.863974 -0.146118
vn -0.409996 0.905866 -0.106353
vn -0.540853 0.577324 0.611699
vn -0.481870 0.863974 -0.146118
vn -0.056727 0.879503 -0.472501
vn -0.409996 0.905866 -0.106353
vn -0.481870 0.863974 -0.146118
vn 0.127468 0.647466 -0.751359
vn -0.056727 0.879503 -0.472501
vn 0.127468 0.647466 -0.751359
vn 0.331414 0.907239 -0.259003
vn -0.056727 0.879503 -0.472501
vn 0.127468 0.647466 -0.751359
vn 0.640005 0.572959 -0.511969
vn 0.331414 0.907239 -0.259003
vn 0.640005 0.572959 -0.511969
vn 0.898514 0.438544 0.018755
vn 0.331414 0.907239 -0.259003
vn -0.415049 0.046509 0.908609
vn -0.540853 0.577324 0.611699
vn 0.030036 -0.355403 0.934231
vn -0.415049 0.046509 0.908609
vn -0.481870 0.863974 -0.146118
vn -0.540853 0.577324 0.611699
vn -0.415049 0.046509 0.908609
vn -0.618762 0.709638 -0.336968
vn -0.481870 0.863974 -0.146118
vn -0.618762 0.709638 -0.336968
vn 0.127468 0.647466 -0.751359
vn -0.481870 0.863974 -0.146118
vn -0.065861 0.546473 -0.834883
vn -0.834855 0.547085 0.060943
vn -0.547922 0.831383 -0.092651
vn 0.058530 0.998277 0.004073
vn -0.065861 0.546473 -0.834883
vn -0.547922 0.831383 -0.092651
vn 0.549509 0.440162 -0.710139
vn -0.065861 0.546473 -0.834883
vn 0.058530 0.998277 0.004073
vn -0.021205 0.997680 -0.064691
vn 0.549509 0.440162 -0.710139
vn 0.058530 0.998277 0.004073
vn -0.145248 0.177994 0.973253
vn -0.834855 0.547085 0.060943
vn -0.415049 0.046509 0.908609
vn -0.834855 0.547085 0.060943
vn -0.618762 0.709638 -0.336968
vn -0.415049 0.046509 0.908609
vn -0.834855 0.547085 0.060943
vn -0.065861 0.546473 -0.834883
vn -0.618762 0.709638 -0.336968
vn -0.065861 0.546473 -0.834883
vn 0.127468 0.647466 -0.751359
vn -0.618762 0.709638 -0.336968
vn -0.065861 0.546473 -0.834883
vn 0.549509 0.440162 -0.710139
vn 0.127468 0.647466 -0.751359
vn 0.549509 0.440162 -0.710139
vn 0.640005 0.572959 -0.511969
vn 0.127468 0.647466 -0.751359
# 372 normals

g Geoset_000
usemtl KALIDARLAMPPOST_256_Dbl
s 1
f 1/1/1 2/2/2 3/3/3
f 4/4/4 5/5/5 6/6/6
f 7/7/7 8/8/8 9/9/9
f 10/10/10 11/11/11 12/12/12
f 13/13/13 14/14/14 15/15/15
f 16/16/16 17/17/17 18/18/18
f 19/19/19 20/20/20 21/21/21
f 22/22/22 23/23/23 24/24/24
f 25/25/25 26/26/26 27/27/27
f 28/28/28 29/29/29 30/30/30
f 31/31/31 32/32/32 33/33/33
f 34/34/34 35/35/35 36/36/36
f 37/37/37 38/38/38 39/39/39
f 40/40/40 41/41/41 42/42/42
f 43/43/43 44/44/44 45/45/45
f 46/46/46 47/47/47 48/48/48
f 49/49/49 50/50/50 51/51/51
f 52/52/52 53/53/53 54/54/54
f 55/55/55 56/56/56 57/57/57
f 58/58/58 59/59/59 60/60/60
f 61/61/61 62/62/62 63/63/63
f 64/64/64 65/65/65 66/66/66
f 67/67/67 68/68/68 69/69/69
f 70/70/70 71/71/71 72/72/72
f 73/73/73 74/74/74 75/75/75
f 76/76/76 77/77/77 78/78/78
f 79/79/79 80/80/80 81/81/81
f 82/82/82 83/83/83 84/84/84
f 85/85/85 86/86/86 87/87/87
f 88/88/88 89/89/89 90/90/90
f 91/91/91 92/92/92 93/93/93
f 94/94/94 95/95/95 96/96/96
f 97/97/97 98/98/98 99/99/99
f 100/100/100 101/101/101 102/102/102
f 103/103/103 104/104/104 105/105/105
f 106/106/106 107/107/107 108/108/108
f 109/109/109 110/110/110 111/111/111
f 112/112/112 113/113/113 114/114/114
f 115/115/115 116/116/116 117/117/117
f 118/118/118 119/119/119 120/120/120
f 121/121/121 122/122/122 123/123/123
f 124/124/124 125/125/125 126/126/126
f 127/127/127 128/128/128 129/129/129
f 130/130/130 131/131/131 132/132/132
f 133/133/133 134/134/134 135/135/135
f 136/136/136 137/137/137 138/138/138
f 139/139/139 140/140/140 141/141/141
f 142/142/142 143/143/143 144/144/144
f 145/145/145 146/146/146 147/147/147
f 148/148/148 149/149/149 150/150/150
f 151/151/151 152/152/152 153/153/153
f 154/154/154 155/155/155 156/156/156
f 157/157/157 158/158/158 159/159/159
f 160/160/160 161/161/161 162/162/162
f 163/163/163 164/164/164 165/165/165
f 166/166/166 167/167/167 168/168/168
f 169/169/169 170/170/170 171/171/171
f 172/172/172 173/173/173 174/174/174
f 175/175/175 176/176/176 177/177/177
f 178/178/178 179/179/179 180/180/180
f 181/181/181 182/182/182 183/183/183
f 184/184/184 185/185/185 186/186/186
f 187/187/187 188/188/188 189/189/189
f 190/190/190 191/191/191 192/192/192
f 193/193/193 194/194/194 195/195/195
f 196/196/196 197/197/197 198/198/198
f 199/199/199 200/200/200 201/201/201
f 202/202/202 203/203/203 204/204/204
f 205/205/205 206/206/206 207/207/207
f 208/208/208 209/209/209 210/210/210
f 211/211/211 212/212/212 213/213/213
f 214/214/214 215/215/215 216/216/216
f 217/217/217 218/218/218 219/219/219
f 220/220/220 221/221/221 222/222/222
f 223/223/223 224/224/224 225/225/225
f 226/226/226 227/227/227 228/228/228
f 229/229/229 230/230/230 231/231/231
f 232/232/232 233/233/233 234/234/234
f 235/235/235 236/236/236 237/237/237
f 238/238/238 239/239/239 240/240/240
f 241/241/241 242/242/242 243/243/243
f 244/244/244 245/245/245 246/246/246
f 247/247/247 248/248/248 249/249/249
f 250/250/250 251/251/251 252/252/252
f 253/253/253 254/254/254 255/255/255
f 256/256/256 257/257/257 258/258/258
f 259/259/259 260/260/260 261/261/261
f 262/262/262 263/263/263 264/264/264
f 265/265/265 266/266/266 267/267/267
f 268/268/268 269/269/269 270/270/270
f 271/271/271 272/272/272 273/273/273
f 274/274/274 275/275/275 276/276/276
f 277/277/277 278/278/278 279/279/279
f 280/280/280 281/281/281 282/282/282
f 283/283/283 284/284/284 285/285/285
f 286/286/286 287/287/287 288/288/288
f 289/289/289 290/290/290 291/291/291
f 292/292/292 293/293/293 294/294/294
f 295/295/295 296/296/296 297/297/297
f 298/298/298 299/299/299 300/300/300
f 301/301/301 302/302/302 303/303/303
f 304/304/304 305/305/305 306/306/306
f 307/307/307 308/308/308 309/309/309
f 310/310/310 311/311/311 312/312/312
f 313/313/313 314/314/314 315/315/315
f 316/316/316 317/317/317 318/318/318
f 319/319/319 320/320/320 321/321/321
f 322/322/322 323/323/323 324/324/324
f 325/325/325 326/326/326 327/327/327
f 328/328/328 329/329/329 330/330/330
f 331/331/331 332/332/332 333/333/333
f 334/334/334 335/335/335 336/336/336
f 337/337/337 338/338/338 339/339/339
f 340/340/340 341/341/341 342/342/342
f 343/343/343 344/344/344 345/345/345
f 346/346/346 347/347/347 348/348/348
f 349/349/349 350/350/350 351/351/351
f 352/352/352 353/353/353 354/354/354
f 355/355/355 356/356/356 357/357/357
f 358/358/358 359/359/359 360/360/360
f 361/361/361 362/362/362 363/363/363
f 364/364/364 365/365/365 366/366/366
f 367/367/367 368/368/368 369/369/369
f 370/370/370 371/371/371 372/372/372
# 124 triangles in group

# 124 triangles total

